// pablo version
// small range(smaller than 1 step range)

@ CITY case2

eps: 3.0

expansion: 145419

time: 120s 

cost: infinity

setEnvStartGoal(env,
        5.086, 3.120, 0.1, 0.0, 
        0.036,  0.0, 0.0,
        3.151, 6.416, 0.1, 0.0,
        0.036,  0.0, 0.0,
        start_id, goal_id);

solution not found

