// done with penalty

@ board_case1

eps: 3.0

expansion: 10489

time: 4.868

cost: 1318

setEnvStartGoal(env,
    6.099, 9.153, 0.6, 0.0,
    0.036, 0.0, 0.0,
    3.912, 4.221, 0.6, 0.0, 
    0.036, 0.0, 0.0,
    start_id, goal_id);

solution found

