// done with penalty

@ board_case3

eps: 3.0

expansion: 56924

time: 35.738

cost: 724

setEnvStartGoal(env,
    6.099, 9.153, 0.6, 0.0,
    0.036, 0.0, 0.0,
    4.30, 4.80, 0.75, 0.0,
    0.036, 0.0, 0.0,
    start_id, goal_id);

solution found

