6.822 3.643 0.200 0.515
6.823 3.644 0.200 0.541
6.824 3.644 0.200 0.567
6.825 3.645 0.200 0.592
6.825 3.645 0.200 0.618
6.826 3.646 0.200 0.644
6.827 3.646 0.200 0.670
6.828 3.647 0.200 0.695
6.828 3.648 0.200 0.721
6.829 3.648 0.200 0.747
6.830 3.649 0.200 0.773
6.831 3.650 0.200 0.798
6.831 3.650 0.200 0.824
6.832 3.651 0.200 0.850
6.833 3.652 0.200 0.876
6.833 3.653 0.200 0.901
6.834 3.653 0.200 0.927
6.835 3.654 0.200 0.953
6.835 3.655 0.200 0.979
6.836 3.656 0.200 1.004
6.836 3.657 0.200 1.030
6.836 3.657 0.200 1.030
6.837 3.658 0.200 1.004
6.838 3.659 0.200 0.979
6.838 3.660 0.200 0.953
6.839 3.661 0.200 0.927
6.839 3.661 0.200 0.901
6.840 3.662 0.200 0.876
6.841 3.663 0.200 0.850
6.842 3.664 0.200 0.824
6.842 3.665 0.200 0.798
6.843 3.666 0.200 0.773
6.844 3.666 0.200 0.747
6.845 3.667 0.200 0.721
6.845 3.668 0.200 0.695
6.846 3.668 0.200 0.670
6.847 3.669 0.200 0.644
6.848 3.670 0.200 0.618
6.849 3.670 0.200 0.592
6.850 3.671 0.200 0.567
6.851 3.672 0.200 0.541
6.852 3.672 0.200 0.515
6.852 3.672 0.200 0.515
6.853 3.673 0.200 0.489
6.854 3.673 0.200 0.464
6.855 3.674 0.200 0.438
6.855 3.674 0.200 0.412
6.856 3.675 0.200 0.386
6.857 3.675 0.200 0.361
6.859 3.675 0.200 0.335
6.860 3.676 0.200 0.309
6.861 3.676 0.200 0.283
6.862 3.676 0.200 0.258
6.863 3.677 0.200 0.232
6.864 3.677 0.200 0.206
6.865 3.677 0.200 0.180
6.866 3.677 0.200 0.155
6.867 3.678 0.200 0.129
6.868 3.678 0.200 0.103
6.869 3.678 0.200 0.077
6.870 3.678 0.200 0.052
6.871 3.678 0.200 0.026
6.872 3.678 0.200 0.000
6.872 3.678 0.200 0.000
6.873 3.678 0.200 0.000
6.875 3.678 0.200 0.000
6.876 3.678 0.200 0.000
6.877 3.678 0.200 0.000
6.878 3.678 0.200 0.000
6.879 3.678 0.200 0.000
6.880 3.678 0.200 0.000
6.881 3.678 0.200 0.000
6.882 3.678 0.200 0.000
6.883 3.678 0.200 0.000
6.884 3.678 0.200 0.000
6.885 3.678 0.200 0.000
6.886 3.678 0.200 0.000
6.888 3.678 0.200 0.000
6.889 3.678 0.200 0.000
6.890 3.678 0.200 0.000
6.891 3.678 0.200 0.000
6.892 3.678 0.200 0.000
6.893 3.678 0.200 0.000
6.894 3.678 0.200 0.000
6.894 3.678 0.200 0.000
6.895 3.678 0.200 0.000
6.896 3.678 0.200 0.000
6.897 3.678 0.200 0.000
6.899 3.678 0.200 0.000
6.900 3.678 0.200 0.000
6.901 3.678 0.200 0.000
6.902 3.678 0.200 0.000
6.903 3.678 0.200 0.000
6.904 3.678 0.200 0.000
6.905 3.678 0.200 0.000
6.907 3.678 0.200 0.000
6.908 3.678 0.200 0.000
6.909 3.678 0.200 0.000
6.910 3.678 0.200 0.000
6.911 3.678 0.200 0.000
6.913 3.678 0.200 0.000
6.914 3.678 0.200 0.000
6.915 3.678 0.200 0.000
6.916 3.678 0.200 0.000
6.918 3.678 0.200 0.000
6.918 3.678 0.200 0.000
6.919 3.678 0.200 0.000
6.920 3.678 0.200 0.000
6.922 3.678 0.200 0.000
6.923 3.678 0.200 0.000
6.924 3.678 0.200 0.000
6.926 3.678 0.200 0.000
6.927 3.678 0.200 0.000
6.928 3.678 0.200 0.000
6.930 3.678 0.200 0.000
6.931 3.678 0.200 0.000
6.932 3.678 0.200 0.000
6.934 3.678 0.200 0.000
6.935 3.678 0.200 0.000
6.937 3.678 0.200 0.000
6.938 3.678 0.200 0.000
6.939 3.678 0.200 0.000
6.941 3.678 0.200 0.000
6.942 3.678 0.200 0.000
6.944 3.678 0.200 0.000
6.945 3.678 0.200 0.000
6.945 3.678 0.200 0.000
6.947 3.678 0.200 0.026
6.948 3.678 0.200 0.052
6.949 3.678 0.200 0.077
6.951 3.678 0.200 0.103
6.952 3.678 0.200 0.129
6.954 3.678 0.200 0.155
6.955 3.679 0.200 0.180
6.957 3.679 0.200 0.206
6.958 3.679 0.200 0.232
6.960 3.680 0.200 0.258
6.961 3.680 0.200 0.283
6.962 3.680 0.200 0.309
6.964 3.681 0.200 0.335
6.965 3.681 0.200 0.361
6.967 3.682 0.200 0.386
6.968 3.682 0.200 0.412
6.969 3.683 0.200 0.438
6.971 3.684 0.200 0.464
6.972 3.684 0.200 0.489
6.973 3.685 0.200 0.515
6.973 3.685 0.200 0.515
6.974 3.686 0.200 0.541
6.976 3.686 0.200 0.567
6.977 3.687 0.200 0.592
6.978 3.688 0.200 0.618
6.979 3.689 0.200 0.644
6.981 3.690 0.200 0.670
6.982 3.691 0.200 0.695
6.983 3.692 0.200 0.721
6.984 3.693 0.200 0.747
6.985 3.694 0.200 0.773
6.986 3.695 0.200 0.798
6.987 3.696 0.200 0.824
6.988 3.697 0.200 0.850
6.989 3.698 0.200 0.876
6.990 3.699 0.200 0.901
6.991 3.700 0.200 0.927
6.992 3.701 0.200 0.953
6.993 3.702 0.200 0.979
6.993 3.704 0.200 1.004
6.994 3.705 0.200 1.030
6.994 3.705 0.200 1.030
6.995 3.706 0.200 1.056
6.996 3.707 0.200 1.082
6.996 3.709 0.200 1.107
6.997 3.710 0.200 1.133
6.998 3.711 0.200 1.159
6.998 3.713 0.200 1.185
6.999 3.714 0.200 1.210
6.999 3.715 0.200 1.236
7.000 3.717 0.200 1.262
7.000 3.718 0.200 1.288
7.001 3.720 0.200 1.313
7.001 3.721 0.200 1.339
7.001 3.722 0.200 1.365
7.002 3.724 0.200 1.391
7.002 3.725 0.200 1.416
7.002 3.727 0.200 1.442
7.002 3.728 0.200 1.468
7.002 3.730 0.200 1.494
7.003 3.731 0.200 1.519
7.003 3.733 0.200 1.545
7.003 3.733 0.200 1.545
7.003 3.734 0.200 1.545
7.003 3.735 0.200 1.545
7.003 3.737 0.200 1.545
7.003 3.738 0.200 1.545
7.003 3.740 0.200 1.545
7.003 3.741 0.200 1.545
7.003 3.743 0.200 1.545
7.003 3.744 0.200 1.545
7.003 3.746 0.200 1.545
7.003 3.747 0.200 1.545
7.003 3.749 0.200 1.545
7.003 3.750 0.200 1.545
7.003 3.752 0.200 1.545
7.003 3.753 0.200 1.545
7.003 3.754 0.200 1.545
7.003 3.756 0.200 1.545
7.003 3.757 0.200 1.545
7.003 3.759 0.200 1.545
7.003 3.760 0.200 1.545
7.003 3.762 0.200 1.545
7.003 3.762 0.200 1.545
7.003 3.763 0.200 1.545
7.003 3.765 0.200 1.545
7.003 3.766 0.200 1.545
7.003 3.768 0.200 1.545
7.004 3.769 0.200 1.545
7.004 3.771 0.200 1.545
7.004 3.772 0.200 1.545
7.004 3.773 0.200 1.545
7.004 3.775 0.200 1.545
7.004 3.776 0.200 1.545
7.004 3.778 0.200 1.545
7.004 3.779 0.200 1.545
7.004 3.781 0.200 1.545
7.004 3.782 0.200 1.545
7.004 3.784 0.200 1.545
7.004 3.785 0.200 1.545
7.004 3.787 0.200 1.545
7.004 3.788 0.200 1.545
7.004 3.790 0.200 1.545
7.004 3.791 0.200 1.545
7.004 3.791 0.200 1.545
7.004 3.792 0.200 1.571
7.004 3.794 0.200 1.597
7.004 3.795 0.200 1.622
7.004 3.797 0.200 1.648
7.004 3.798 0.200 1.674
7.004 3.800 0.200 1.700
7.004 3.801 0.200 1.725
7.003 3.803 0.200 1.751
7.003 3.804 0.200 1.777
7.003 3.806 0.200 1.803
7.002 3.807 0.200 1.828
7.002 3.808 0.200 1.854
7.002 3.810 0.200 1.880
7.001 3.811 0.200 1.906
7.001 3.813 0.200 1.931
7.000 3.814 0.200 1.957
7.000 3.815 0.200 1.983
6.999 3.817 0.200 2.009
6.998 3.818 0.200 2.034
6.998 3.819 0.200 2.060
6.998 3.819 0.200 2.060
6.997 3.821 0.200 2.060
6.996 3.822 0.200 2.060
6.996 3.823 0.200 2.060
6.995 3.824 0.200 2.060
6.994 3.826 0.200 2.060
6.994 3.827 0.200 2.060
6.993 3.828 0.200 2.060
6.992 3.830 0.200 2.060
6.992 3.831 0.200 2.060
6.991 3.832 0.200 2.060
6.990 3.833 0.200 2.060
6.990 3.835 0.200 2.060
6.989 3.836 0.200 2.060
6.988 3.837 0.200 2.060
6.988 3.839 0.200 2.060
6.987 3.840 0.200 2.060
6.986 3.841 0.200 2.060
6.985 3.842 0.200 2.060
6.985 3.844 0.200 2.060
6.984 3.845 0.200 2.060
6.984 3.845 0.200 2.060
6.983 3.846 0.200 2.060
6.983 3.848 0.200 2.060
6.982 3.849 0.200 2.060
6.981 3.850 0.200 2.060
6.981 3.852 0.200 2.060
6.980 3.853 0.200 2.060
6.979 3.854 0.200 2.060
6.979 3.855 0.200 2.060
6.978 3.857 0.200 2.060
6.977 3.858 0.200 2.060
6.977 3.859 0.200 2.060
6.976 3.861 0.200 2.060
6.975 3.862 0.200 2.060
6.974 3.863 0.200 2.060
6.974 3.864 0.200 2.060
6.973 3.866 0.200 2.060
6.972 3.867 0.200 2.060
6.972 3.868 0.200 2.060
6.971 3.870 0.200 2.060
6.970 3.871 0.200 2.060
6.970 3.871 0.200 2.060
6.970 3.872 0.200 2.060
6.969 3.873 0.200 2.060
6.968 3.875 0.200 2.060
6.968 3.876 0.200 2.060
6.967 3.877 0.200 2.060
6.966 3.879 0.200 2.060
6.966 3.880 0.200 2.060
6.965 3.881 0.200 2.060
6.964 3.882 0.200 2.060
6.963 3.884 0.200 2.060
6.963 3.885 0.200 2.060
6.962 3.886 0.200 2.060
6.961 3.888 0.200 2.060
6.961 3.889 0.200 2.060
6.960 3.890 0.200 2.060
6.959 3.892 0.200 2.060
6.959 3.893 0.200 2.060
6.958 3.894 0.200 2.060
6.957 3.895 0.200 2.060
6.957 3.897 0.200 2.060
6.957 3.897 0.200 2.060
6.956 3.898 0.200 2.060
6.955 3.899 0.200 2.060
6.955 3.901 0.200 2.060
6.954 3.902 0.200 2.060
6.953 3.903 0.200 2.060
6.952 3.904 0.200 2.060
6.952 3.906 0.200 2.060
6.951 3.907 0.200 2.060
6.950 3.908 0.200 2.060
6.950 3.910 0.200 2.060
6.949 3.911 0.200 2.060
6.948 3.912 0.200 2.060
6.948 3.913 0.200 2.060
6.947 3.915 0.200 2.060
6.946 3.916 0.200 2.060
6.946 3.917 0.200 2.060
6.945 3.919 0.200 2.060
6.944 3.920 0.200 2.060
6.944 3.921 0.200 2.060
6.943 3.923 0.200 2.060
6.943 3.923 0.200 2.060
6.942 3.924 0.200 2.060
6.941 3.925 0.200 2.060
6.941 3.926 0.200 2.060
6.940 3.928 0.200 2.060
6.939 3.929 0.200 2.060
6.939 3.930 0.200 2.060
6.938 3.932 0.200 2.060
6.937 3.933 0.200 2.060
6.937 3.934 0.200 2.060
6.936 3.935 0.200 2.060
6.935 3.937 0.200 2.060
6.935 3.938 0.200 2.060
6.934 3.939 0.200 2.060
6.933 3.941 0.200 2.060
6.933 3.942 0.200 2.060
6.932 3.943 0.200 2.060
6.931 3.944 0.200 2.060
6.930 3.946 0.200 2.060
6.930 3.947 0.200 2.060
6.929 3.948 0.200 2.060
6.929 3.948 0.200 2.060
6.928 3.950 0.200 2.060
6.928 3.951 0.200 2.060
6.927 3.952 0.200 2.060
6.926 3.953 0.200 2.060
6.926 3.955 0.200 2.060
6.925 3.956 0.200 2.060
6.924 3.957 0.200 2.060
6.924 3.959 0.200 2.060
6.923 3.960 0.200 2.060
6.922 3.961 0.200 2.060
6.922 3.963 0.200 2.060
6.921 3.964 0.200 2.060
6.920 3.965 0.200 2.060
6.919 3.966 0.200 2.060
6.919 3.968 0.200 2.060
6.918 3.969 0.200 2.060
6.917 3.970 0.200 2.060
6.917 3.972 0.200 2.060
6.916 3.973 0.200 2.060
6.915 3.974 0.200 2.060
6.915 3.974 0.200 2.060
6.915 3.975 0.200 2.060
6.914 3.977 0.200 2.060
6.913 3.978 0.200 2.060
6.913 3.979 0.200 2.060
6.912 3.981 0.200 2.060
6.911 3.982 0.200 2.060
6.911 3.983 0.200 2.060
6.910 3.984 0.200 2.060
6.909 3.986 0.200 2.060
6.908 3.987 0.200 2.060
6.908 3.988 0.200 2.060
6.907 3.990 0.200 2.060
6.906 3.991 0.200 2.060
6.906 3.992 0.200 2.060
6.905 3.993 0.200 2.060
6.904 3.995 0.200 2.060
6.904 3.996 0.200 2.060
6.903 3.997 0.200 2.060
6.902 3.999 0.200 2.060
6.902 4.000 0.200 2.060
6.902 4.000 0.200 2.060
6.901 4.001 0.200 2.060
6.900 4.003 0.200 2.060
6.900 4.004 0.200 2.060
6.899 4.005 0.200 2.060
6.898 4.006 0.200 2.060
6.897 4.008 0.200 2.060
6.897 4.009 0.200 2.060
6.896 4.010 0.200 2.060
6.895 4.012 0.200 2.060
6.895 4.013 0.200 2.060
6.894 4.014 0.200 2.060
6.893 4.015 0.200 2.060
6.893 4.017 0.200 2.060
6.892 4.018 0.200 2.060
6.891 4.019 0.200 2.060
6.891 4.021 0.200 2.060
6.890 4.022 0.200 2.060
6.889 4.023 0.200 2.060
6.889 4.024 0.200 2.060
6.888 4.026 0.200 2.060
6.888 4.026 0.200 2.060
6.887 4.027 0.200 2.060
6.887 4.028 0.200 2.060
6.886 4.030 0.200 2.060
6.885 4.031 0.200 2.060
6.884 4.032 0.200 2.060
6.884 4.034 0.200 2.060
6.883 4.035 0.200 2.060
6.882 4.036 0.200 2.060
6.882 4.037 0.200 2.060
6.881 4.039 0.200 2.060
6.880 4.040 0.200 2.060
6.880 4.041 0.200 2.060
6.879 4.043 0.200 2.060
6.878 4.044 0.200 2.060
6.878 4.045 0.200 2.060
6.877 4.046 0.200 2.060
6.876 4.048 0.200 2.060
6.876 4.049 0.200 2.060
6.875 4.050 0.200 2.060
6.874 4.052 0.200 2.060
6.874 4.052 0.200 2.060
6.873 4.053 0.200 2.060
6.873 4.054 0.200 2.060
6.872 4.055 0.200 2.060
6.871 4.057 0.200 2.060
6.871 4.058 0.200 2.060
6.870 4.059 0.200 2.060
6.869 4.061 0.200 2.060
6.869 4.062 0.200 2.060
6.868 4.063 0.200 2.060
6.867 4.064 0.200 2.060
6.867 4.066 0.200 2.060
6.866 4.067 0.200 2.060
6.865 4.068 0.200 2.060
6.865 4.070 0.200 2.060
6.864 4.071 0.200 2.060
6.863 4.072 0.200 2.060
6.862 4.074 0.200 2.060
6.862 4.075 0.200 2.060
6.861 4.076 0.200 2.060
6.860 4.077 0.200 2.060
6.860 4.077 0.200 2.060
6.860 4.079 0.200 2.060
6.859 4.080 0.200 2.060
6.858 4.081 0.200 2.060
6.858 4.083 0.200 2.060
6.857 4.084 0.200 2.060
6.856 4.085 0.200 2.060
6.856 4.086 0.200 2.060
6.855 4.088 0.200 2.060
6.854 4.089 0.200 2.060
6.854 4.090 0.200 2.060
6.853 4.092 0.200 2.060
6.852 4.093 0.200 2.060
6.851 4.094 0.200 2.060
6.851 4.095 0.200 2.060
6.850 4.097 0.200 2.060
6.849 4.098 0.200 2.060
6.849 4.099 0.200 2.060
6.848 4.101 0.200 2.060
6.847 4.102 0.200 2.060
6.847 4.103 0.200 2.060
6.847 4.103 0.200 2.060
6.846 4.105 0.200 2.060
6.845 4.106 0.200 2.060
6.845 4.107 0.200 2.060
6.844 4.108 0.200 2.060
6.843 4.110 0.200 2.060
6.843 4.111 0.200 2.060
6.842 4.112 0.200 2.060
6.841 4.114 0.200 2.060
6.840 4.115 0.200 2.060
6.840 4.116 0.200 2.060
6.839 4.117 0.200 2.060
6.838 4.119 0.200 2.060
6.838 4.120 0.200 2.060
6.837 4.121 0.200 2.060
6.836 4.123 0.200 2.060
6.836 4.124 0.200 2.060
6.835 4.125 0.200 2.060
6.834 4.126 0.200 2.060
6.834 4.128 0.200 2.060
6.833 4.129 0.200 2.060
6.833 4.129 0.200 2.060
6.832 4.130 0.200 2.060
6.832 4.132 0.200 2.060
6.831 4.133 0.200 2.060
6.830 4.134 0.200 2.060
6.829 4.135 0.200 2.060
6.829 4.137 0.200 2.060
6.828 4.138 0.200 2.060
6.827 4.139 0.200 2.060
6.827 4.141 0.200 2.060
6.826 4.142 0.200 2.060
6.825 4.143 0.200 2.060
6.825 4.145 0.200 2.060
6.824 4.146 0.200 2.060
6.823 4.147 0.200 2.060
6.823 4.148 0.200 2.060
6.822 4.150 0.200 2.060
6.821 4.151 0.200 2.060
6.821 4.152 0.200 2.060
6.820 4.154 0.200 2.060
6.819 4.155 0.200 2.060
6.819 4.155 0.200 2.060
6.818 4.156 0.200 2.060
6.818 4.157 0.200 2.060
6.817 4.159 0.200 2.060
6.816 4.160 0.200 2.060
6.816 4.161 0.200 2.060
6.815 4.163 0.200 2.060
6.814 4.164 0.200 2.060
6.814 4.165 0.200 2.060
6.813 4.166 0.200 2.060
6.812 4.168 0.200 2.060
6.812 4.169 0.200 2.060
6.811 4.170 0.200 2.060
6.810 4.172 0.200 2.060
6.810 4.173 0.200 2.060
6.809 4.174 0.200 2.060
6.808 4.175 0.200 2.060
6.807 4.177 0.200 2.060
6.807 4.178 0.200 2.060
6.806 4.179 0.200 2.060
6.805 4.181 0.200 2.060
6.805 4.181 0.200 2.060
6.805 4.182 0.200 2.060
6.804 4.183 0.200 2.060
6.803 4.185 0.200 2.060
6.803 4.186 0.200 2.060
6.802 4.187 0.200 2.060
6.801 4.188 0.200 2.060
6.801 4.190 0.200 2.060
6.800 4.191 0.200 2.060
6.799 4.192 0.200 2.060
6.799 4.194 0.200 2.060
6.798 4.195 0.200 2.060
6.797 4.196 0.200 2.060
6.796 4.197 0.200 2.060
6.796 4.199 0.200 2.060
6.795 4.200 0.200 2.060
6.794 4.201 0.200 2.060
6.794 4.203 0.200 2.060
6.793 4.204 0.200 2.060
6.792 4.205 0.200 2.060
6.792 4.206 0.200 2.060
6.792 4.206 0.200 2.060
6.791 4.208 0.200 2.060
6.790 4.209 0.200 2.060
6.790 4.210 0.200 2.060
6.789 4.212 0.200 2.060
6.788 4.213 0.200 2.060
6.788 4.214 0.200 2.060
6.787 4.216 0.200 2.060
6.786 4.217 0.200 2.060
6.785 4.218 0.200 2.060
6.785 4.219 0.200 2.060
6.784 4.221 0.200 2.060
6.783 4.222 0.200 2.060
6.783 4.223 0.200 2.060
6.782 4.225 0.200 2.060
6.781 4.226 0.200 2.060
6.781 4.227 0.200 2.060
6.780 4.228 0.200 2.060
6.779 4.230 0.200 2.060
6.779 4.231 0.200 2.060
6.778 4.232 0.200 2.060
6.778 4.232 0.200 2.060
6.777 4.234 0.200 2.060
6.777 4.235 0.200 2.060
6.776 4.236 0.200 2.060
6.775 4.237 0.200 2.060
6.775 4.239 0.200 2.060
6.774 4.240 0.200 2.060
6.773 4.241 0.200 2.060
6.772 4.243 0.200 2.060
6.772 4.244 0.200 2.060
6.771 4.245 0.200 2.060
6.770 4.246 0.200 2.060
6.770 4.248 0.200 2.060
6.769 4.249 0.200 2.060
6.768 4.250 0.200 2.060
6.768 4.252 0.200 2.060
6.767 4.253 0.200 2.060
6.766 4.254 0.200 2.060
6.766 4.256 0.200 2.060
6.765 4.257 0.200 2.060
6.764 4.258 0.200 2.060
6.764 4.258 0.200 2.060
6.764 4.259 0.200 2.060
6.763 4.261 0.200 2.060
6.762 4.262 0.200 2.060
6.761 4.263 0.200 2.060
6.761 4.265 0.200 2.060
6.760 4.266 0.200 2.060
6.759 4.267 0.200 2.060
6.759 4.268 0.200 2.060
6.758 4.270 0.200 2.060
6.757 4.271 0.200 2.060
6.757 4.272 0.200 2.060
6.756 4.274 0.200 2.060
6.755 4.275 0.200 2.060
6.755 4.276 0.200 2.060
6.754 4.277 0.200 2.060
6.753 4.279 0.200 2.060
6.753 4.280 0.200 2.060
6.752 4.281 0.200 2.060
6.751 4.283 0.200 2.060
6.750 4.284 0.200 2.060
6.750 4.284 0.200 2.060
6.750 4.285 0.200 2.060
6.749 4.287 0.200 2.060
6.748 4.288 0.200 2.060
6.748 4.289 0.200 2.060
6.747 4.290 0.200 2.060
6.746 4.292 0.200 2.060
6.746 4.293 0.200 2.060
6.745 4.294 0.200 2.060
6.744 4.296 0.200 2.060
6.744 4.297 0.200 2.060
6.743 4.298 0.200 2.060
6.742 4.299 0.200 2.060
6.742 4.301 0.200 2.060
6.741 4.302 0.200 2.060
6.740 4.303 0.200 2.060
6.739 4.305 0.200 2.060
6.739 4.306 0.200 2.060
6.738 4.307 0.200 2.060
6.737 4.308 0.200 2.060
6.737 4.310 0.200 2.060
6.737 4.310 0.200 2.060
6.736 4.311 0.200 2.060
6.735 4.312 0.200 2.060
6.735 4.314 0.200 2.060
6.734 4.315 0.200 2.060
6.733 4.316 0.200 2.060
6.733 4.317 0.200 2.060
6.732 4.319 0.200 2.060
6.731 4.320 0.200 2.060
6.731 4.321 0.200 2.060
6.730 4.323 0.200 2.060
6.729 4.324 0.200 2.060
6.728 4.325 0.200 2.060
6.728 4.327 0.200 2.060
6.727 4.328 0.200 2.060
6.726 4.329 0.200 2.060
6.726 4.330 0.200 2.060
6.725 4.332 0.200 2.060
6.724 4.333 0.200 2.060
6.724 4.334 0.200 2.060
6.723 4.336 0.200 2.060
6.723 4.336 0.200 2.060
6.722 4.337 0.200 2.060
6.722 4.338 0.200 2.060
6.721 4.339 0.200 2.060
6.720 4.341 0.200 2.060
6.720 4.342 0.200 2.060
6.719 4.343 0.200 2.060
6.718 4.345 0.200 2.060
6.717 4.346 0.200 2.060
6.717 4.347 0.200 2.060
6.716 4.348 0.200 2.060
6.715 4.350 0.200 2.060
6.715 4.351 0.200 2.060
6.714 4.352 0.200 2.060
6.713 4.354 0.200 2.060
6.713 4.355 0.200 2.060
6.712 4.356 0.200 2.060
6.711 4.357 0.200 2.060
6.711 4.359 0.200 2.060
6.710 4.360 0.200 2.060
6.709 4.361 0.200 2.060
6.709 4.361 0.200 2.060
6.709 4.363 0.200 2.060
6.708 4.364 0.200 2.060
6.707 4.365 0.200 2.060
6.706 4.367 0.200 2.060
6.706 4.368 0.200 2.060
6.705 4.369 0.200 2.060
6.704 4.370 0.200 2.060
6.704 4.372 0.200 2.060
6.703 4.373 0.200 2.060
6.702 4.374 0.200 2.060
6.702 4.376 0.200 2.060
6.701 4.377 0.200 2.060
6.700 4.378 0.200 2.060
6.700 4.379 0.200 2.060
6.699 4.381 0.200 2.060
6.698 4.382 0.200 2.060
6.698 4.383 0.200 2.060
6.697 4.385 0.200 2.060
6.696 4.386 0.200 2.060
6.695 4.387 0.200 2.060
6.695 4.387 0.200 2.060
6.695 4.388 0.200 2.060
6.694 4.390 0.200 2.060
6.693 4.391 0.200 2.060
6.693 4.392 0.200 2.060
6.692 4.394 0.200 2.060
6.691 4.395 0.200 2.060
6.691 4.396 0.200 2.060
6.690 4.398 0.200 2.060
6.689 4.399 0.200 2.060
6.689 4.400 0.200 2.060
6.688 4.401 0.200 2.060
6.687 4.403 0.200 2.060
6.687 4.404 0.200 2.060
6.686 4.405 0.200 2.060
6.685 4.407 0.200 2.060
6.684 4.408 0.200 2.060
6.684 4.409 0.200 2.060
6.683 4.410 0.200 2.060
6.682 4.412 0.200 2.060
6.682 4.413 0.200 2.060
6.682 4.413 0.200 2.060
6.681 4.414 0.200 2.060
6.680 4.416 0.200 2.060
6.680 4.417 0.200 2.060
6.679 4.418 0.200 2.060
6.678 4.419 0.200 2.060
6.678 4.421 0.200 2.060
6.677 4.422 0.200 2.060
6.676 4.423 0.200 2.060
6.676 4.425 0.200 2.060
6.675 4.426 0.200 2.060
6.674 4.427 0.200 2.060
6.673 4.428 0.200 2.060
6.673 4.430 0.200 2.060
6.672 4.431 0.200 2.060
6.671 4.432 0.200 2.060
6.671 4.434 0.200 2.060
6.670 4.435 0.200 2.060
6.669 4.436 0.200 2.060
6.669 4.438 0.200 2.060
6.668 4.439 0.200 2.060
6.668 4.439 0.200 2.060
6.667 4.440 0.200 2.060
6.667 4.441 0.200 2.060
6.666 4.443 0.200 2.060
6.665 4.444 0.200 2.060
6.665 4.445 0.200 2.060
6.664 4.447 0.200 2.060
6.663 4.448 0.200 2.060
6.663 4.449 0.200 2.060
6.662 4.450 0.200 2.060
6.661 4.452 0.200 2.060
6.660 4.453 0.200 2.060
6.660 4.454 0.200 2.060
6.659 4.456 0.200 2.060
6.658 4.457 0.200 2.060
6.658 4.458 0.200 2.060
6.657 4.459 0.200 2.060
6.656 4.461 0.200 2.060
6.656 4.462 0.200 2.060
6.655 4.463 0.200 2.060
6.654 4.465 0.200 2.060
6.654 4.465 0.200 2.060
6.654 4.466 0.200 2.060
6.653 4.467 0.200 2.060
6.652 4.469 0.200 2.060
6.652 4.470 0.200 2.060
6.651 4.471 0.200 2.060
6.650 4.472 0.200 2.060
6.649 4.474 0.200 2.060
6.649 4.475 0.200 2.060
6.648 4.476 0.200 2.060
6.647 4.478 0.200 2.060
6.647 4.479 0.200 2.060
6.646 4.480 0.200 2.060
6.645 4.481 0.200 2.060
6.645 4.483 0.200 2.060
6.644 4.484 0.200 2.060
6.643 4.485 0.200 2.060
6.643 4.487 0.200 2.060
6.642 4.488 0.200 2.060
6.641 4.489 0.200 2.060
6.641 4.490 0.200 2.060
6.641 4.490 0.200 2.060
6.640 4.492 0.200 2.060
6.639 4.493 0.200 2.060
6.638 4.494 0.200 2.060
6.638 4.496 0.200 2.060
6.637 4.497 0.200 2.060
6.636 4.498 0.200 2.060
6.636 4.499 0.200 2.060
6.635 4.501 0.200 2.060
6.634 4.502 0.200 2.060
6.634 4.503 0.200 2.060
6.633 4.505 0.200 2.060
6.632 4.506 0.200 2.060
6.632 4.507 0.200 2.060
6.631 4.509 0.200 2.060
6.630 4.510 0.200 2.060
6.630 4.511 0.200 2.060
6.629 4.512 0.200 2.060
6.628 4.514 0.200 2.060
6.627 4.515 0.200 2.060
6.627 4.516 0.200 2.060
6.627 4.516 0.200 2.060
6.626 4.518 0.200 2.060
6.625 4.519 0.200 2.060
6.625 4.520 0.200 2.060
6.624 4.521 0.200 2.060
6.623 4.523 0.200 2.060
6.623 4.524 0.200 2.060
6.622 4.525 0.200 2.060
6.621 4.527 0.200 2.060
6.621 4.528 0.200 2.060
6.620 4.529 0.200 2.060
6.619 4.530 0.200 2.060
6.619 4.532 0.200 2.060
6.618 4.533 0.200 2.060
6.617 4.534 0.200 2.060
6.616 4.536 0.200 2.060
6.616 4.537 0.200 2.060
6.615 4.538 0.200 2.060
6.614 4.540 0.200 2.060
6.614 4.541 0.200 2.060
6.613 4.542 0.200 2.060
6.613 4.542 0.200 2.060
6.612 4.543 0.200 2.060
6.612 4.545 0.200 2.060
6.611 4.546 0.200 2.060
6.610 4.547 0.200 2.060
6.610 4.549 0.200 2.060
6.609 4.550 0.200 2.060
6.608 4.551 0.200 2.060
6.608 4.552 0.200 2.060
6.607 4.554 0.200 2.060
6.606 4.555 0.200 2.060
6.605 4.556 0.200 2.060
6.605 4.558 0.200 2.060
6.604 4.559 0.200 2.060
6.603 4.560 0.200 2.060
6.603 4.561 0.200 2.060
6.602 4.563 0.200 2.060
6.601 4.564 0.200 2.060
6.601 4.565 0.200 2.060
6.600 4.567 0.200 2.060
6.599 4.568 0.200 2.060
6.599 4.568 0.200 2.060
6.599 4.569 0.200 2.060
6.598 4.570 0.200 2.060
6.597 4.572 0.200 2.060
6.597 4.573 0.200 2.060
6.596 4.574 0.200 2.060
6.595 4.576 0.200 2.060
6.594 4.577 0.200 2.060
6.594 4.578 0.200 2.060
6.593 4.580 0.200 2.060
6.592 4.581 0.200 2.060
6.592 4.582 0.200 2.060
6.591 4.583 0.200 2.060
6.590 4.585 0.200 2.060
6.590 4.586 0.200 2.060
6.589 4.587 0.200 2.060
6.588 4.589 0.200 2.060
6.588 4.590 0.200 2.060
6.587 4.591 0.200 2.060
6.586 4.592 0.200 2.060
6.586 4.594 0.200 2.060
6.586 4.594 0.200 2.060
6.585 4.595 0.200 2.060
6.584 4.596 0.200 2.060
6.583 4.598 0.200 2.060
6.583 4.599 0.200 2.060
6.582 4.600 0.200 2.060
6.581 4.601 0.200 2.060
6.581 4.603 0.200 2.060
6.580 4.604 0.200 2.060
6.579 4.605 0.200 2.060
6.579 4.607 0.200 2.060
6.578 4.608 0.200 2.060
6.577 4.609 0.200 2.060
6.577 4.610 0.200 2.060
6.576 4.612 0.200 2.060
6.575 4.613 0.200 2.060
6.575 4.614 0.200 2.060
6.574 4.616 0.200 2.060
6.573 4.617 0.200 2.060
6.572 4.618 0.200 2.060
6.572 4.620 0.200 2.060
6.572 4.620 0.200 2.060
6.571 4.621 0.200 2.060
6.570 4.622 0.200 2.060
6.570 4.623 0.200 2.060
6.569 4.625 0.200 2.060
6.568 4.626 0.200 2.060
6.568 4.627 0.200 2.060
6.567 4.629 0.200 2.060
6.566 4.630 0.200 2.060
6.566 4.631 0.200 2.060
6.565 4.632 0.200 2.060
6.564 4.634 0.200 2.060
6.564 4.635 0.200 2.060
6.563 4.636 0.200 2.060
6.562 4.638 0.200 2.060
6.561 4.639 0.200 2.060
6.561 4.640 0.200 2.060
6.560 4.641 0.200 2.060
6.559 4.643 0.200 2.060
6.559 4.644 0.200 2.060
6.558 4.645 0.200 2.060
6.558 4.645 0.200 2.060
6.557 4.647 0.200 2.060
6.557 4.648 0.200 2.060
6.556 4.649 0.200 2.060
6.555 4.651 0.200 2.060
6.555 4.652 0.200 2.060
6.554 4.653 0.200 2.060
6.553 4.654 0.200 2.060
6.553 4.656 0.200 2.060
6.552 4.657 0.200 2.060
6.551 4.658 0.200 2.060
6.551 4.660 0.200 2.060
6.550 4.661 0.200 2.060
6.549 4.662 0.200 2.060
6.548 4.663 0.200 2.060
6.548 4.665 0.200 2.060
6.547 4.666 0.200 2.060
6.546 4.667 0.200 2.060
6.546 4.669 0.200 2.060
6.545 4.670 0.200 2.060
6.544 4.671 0.200 2.060
6.544 4.671 0.200 2.060
6.544 4.672 0.200 2.060
6.543 4.674 0.200 2.060
6.542 4.675 0.200 2.060
6.542 4.676 0.200 2.060
6.541 4.678 0.200 2.060
6.540 4.679 0.200 2.060
6.540 4.680 0.200 2.060
6.539 4.681 0.200 2.060
6.538 4.683 0.200 2.060
6.537 4.684 0.200 2.060
6.537 4.685 0.200 2.060
6.536 4.687 0.200 2.060
6.535 4.688 0.200 2.060
6.535 4.689 0.200 2.060
6.534 4.691 0.200 2.060
6.533 4.692 0.200 2.060
6.533 4.693 0.200 2.060
6.532 4.694 0.200 2.060
6.531 4.696 0.200 2.060
6.531 4.697 0.200 2.060
6.531 4.697 0.200 2.060
6.530 4.698 0.200 2.060
6.529 4.700 0.200 2.060
6.529 4.701 0.200 2.060
6.528 4.702 0.200 2.060
6.527 4.703 0.200 2.060
6.526 4.705 0.200 2.060
6.526 4.706 0.200 2.060
6.525 4.707 0.200 2.060
6.524 4.709 0.200 2.060
6.524 4.710 0.200 2.060
6.523 4.711 0.200 2.060
6.522 4.712 0.200 2.060
6.522 4.714 0.200 2.060
6.521 4.715 0.200 2.060
6.520 4.716 0.200 2.060
6.520 4.718 0.200 2.060
6.519 4.719 0.200 2.060
6.518 4.720 0.200 2.060
6.518 4.722 0.200 2.060
6.517 4.723 0.200 2.060
6.517 4.723 0.200 2.060
6.516 4.724 0.200 2.060
6.515 4.725 0.200 2.060
6.515 4.727 0.200 2.060
6.514 4.728 0.200 2.060
6.513 4.729 0.200 2.060
6.513 4.731 0.200 2.060
6.512 4.732 0.200 2.060
6.511 4.733 0.200 2.060
6.511 4.734 0.200 2.060
6.510 4.736 0.200 2.060
6.509 4.737 0.200 2.060
6.509 4.738 0.200 2.060
6.508 4.740 0.200 2.060
6.507 4.741 0.200 2.060
6.507 4.742 0.200 2.060
6.506 4.743 0.200 2.060
6.505 4.745 0.200 2.060
6.504 4.746 0.200 2.060
6.504 4.747 0.200 2.060
6.503 4.749 0.200 2.060
6.503 4.749 0.200 2.060
6.502 4.750 0.200 2.060
6.502 4.751 0.200 2.060
6.501 4.752 0.200 2.060
6.500 4.754 0.200 2.060
6.500 4.755 0.200 2.060
6.499 4.756 0.200 2.060
6.498 4.758 0.200 2.060
6.498 4.759 0.200 2.060
6.497 4.760 0.200 2.060
6.496 4.762 0.200 2.060
6.496 4.763 0.200 2.060
6.495 4.764 0.200 2.060
6.494 4.765 0.200 2.060
6.493 4.767 0.200 2.060
6.493 4.768 0.200 2.060
6.492 4.769 0.200 2.060
6.491 4.771 0.200 2.060
6.491 4.772 0.200 2.060
6.490 4.773 0.200 2.060
6.489 4.774 0.200 2.060
6.489 4.774 0.200 2.060
6.489 4.776 0.200 2.060
6.488 4.777 0.200 2.060
6.487 4.778 0.200 2.060
6.487 4.780 0.200 2.060
6.486 4.781 0.200 2.060
6.485 4.782 0.200 2.060
6.485 4.783 0.200 2.060
6.484 4.785 0.200 2.060
6.483 4.786 0.200 2.060
6.482 4.787 0.200 2.060
6.482 4.789 0.200 2.060
6.481 4.790 0.200 2.060
6.480 4.791 0.200 2.060
6.480 4.792 0.200 2.060
6.479 4.794 0.200 2.060
6.478 4.795 0.200 2.060
6.478 4.796 0.200 2.060
6.477 4.798 0.200 2.060
6.476 4.799 0.200 2.060
6.476 4.800 0.200 2.060
6.476 4.800 0.200 2.060
6.475 4.802 0.200 2.060
6.474 4.803 0.200 2.060
6.474 4.804 0.200 2.060
6.473 4.805 0.200 2.060
6.472 4.807 0.200 2.060
6.471 4.808 0.200 2.060
6.471 4.809 0.200 2.060
6.470 4.811 0.200 2.060
6.469 4.812 0.200 2.060
6.469 4.813 0.200 2.060
6.468 4.814 0.200 2.060
6.467 4.816 0.200 2.060
6.467 4.817 0.200 2.060
6.466 4.818 0.200 2.060
6.465 4.820 0.200 2.060
6.465 4.821 0.200 2.060
6.464 4.822 0.200 2.060
6.463 4.823 0.200 2.060
6.463 4.825 0.200 2.060
6.462 4.826 0.200 2.060
6.462 4.826 0.200 2.060
6.461 4.827 0.200 2.060
6.460 4.829 0.200 2.060
6.460 4.830 0.200 2.060
6.459 4.831 0.200 2.060
6.458 4.833 0.200 2.060
6.458 4.834 0.200 2.060
6.457 4.835 0.200 2.060
6.456 4.836 0.200 2.060
6.456 4.838 0.200 2.060
6.455 4.839 0.200 2.060
6.454 4.840 0.200 2.060
6.454 4.842 0.200 2.060
6.453 4.843 0.200 2.060
6.452 4.844 0.200 2.060
6.452 4.845 0.200 2.060
6.451 4.847 0.200 2.060
6.450 4.848 0.200 2.060
6.449 4.849 0.200 2.060
6.449 4.851 0.200 2.060
6.448 4.852 0.200 2.060
6.448 4.852 0.200 2.060
6.447 4.853 0.200 2.060
6.447 4.854 0.200 2.060
6.446 4.856 0.200 2.060
6.445 4.857 0.200 2.060
6.445 4.858 0.200 2.060
6.444 4.860 0.200 2.060
6.443 4.861 0.200 2.060
6.443 4.862 0.200 2.060
6.442 4.863 0.200 2.060
6.441 4.865 0.200 2.060
6.441 4.866 0.200 2.060
6.440 4.867 0.200 2.060
6.439 4.869 0.200 2.060
6.439 4.870 0.200 2.060
6.438 4.871 0.200 2.060
6.437 4.873 0.200 2.060
6.436 4.874 0.200 2.060
6.436 4.875 0.200 2.060
6.435 4.876 0.200 2.060
6.434 4.878 0.200 2.060
6.434 4.878 0.200 2.060
6.434 4.879 0.200 2.060
6.433 4.880 0.200 2.060
6.432 4.882 0.200 2.060
6.432 4.883 0.200 2.060
6.431 4.884 0.200 2.060
6.430 4.885 0.200 2.060
6.430 4.887 0.200 2.060
6.429 4.888 0.200 2.060
6.428 4.889 0.200 2.060
6.428 4.891 0.200 2.060
6.427 4.892 0.200 2.060
6.426 4.893 0.200 2.060
6.425 4.894 0.200 2.060
6.425 4.896 0.200 2.060
6.424 4.897 0.200 2.060
6.423 4.898 0.200 2.060
6.423 4.900 0.200 2.060
6.422 4.901 0.200 2.060
6.421 4.902 0.200 2.060
6.421 4.904 0.200 2.060
6.421 4.904 0.200 2.060
6.420 4.905 0.200 2.060
6.419 4.906 0.200 2.060
6.419 4.907 0.200 2.060
6.418 4.909 0.200 2.060
6.417 4.910 0.200 2.060
6.417 4.911 0.200 2.060
6.416 4.913 0.200 2.060
6.415 4.914 0.200 2.060
6.414 4.915 0.200 2.060
6.414 4.916 0.200 2.060
6.413 4.918 0.200 2.060
6.412 4.919 0.200 2.060
6.412 4.920 0.200 2.060
6.411 4.922 0.200 2.060
6.410 4.923 0.200 2.060
6.410 4.924 0.200 2.060
6.409 4.925 0.200 2.060
6.408 4.927 0.200 2.060
6.408 4.928 0.200 2.060
6.407 4.929 0.200 2.060
6.407 4.929 0.200 2.060
6.406 4.931 0.200 2.060
6.406 4.932 0.200 2.060
6.405 4.933 0.200 2.060
6.404 4.934 0.200 2.060
6.404 4.936 0.200 2.060
6.403 4.937 0.200 2.060
6.402 4.938 0.200 2.060
6.402 4.939 0.200 2.060
6.401 4.941 0.200 2.060
6.400 4.942 0.200 2.060
6.400 4.943 0.200 2.060
6.399 4.944 0.200 2.060
6.398 4.945 0.200 2.060
6.398 4.947 0.200 2.060
6.397 4.948 0.200 2.060
6.396 4.949 0.200 2.060
6.396 4.950 0.200 2.060
6.395 4.951 0.200 2.060
6.395 4.952 0.200 2.060
6.394 4.953 0.200 2.060
6.394 4.953 0.200 2.060
6.393 4.955 0.200 2.086
6.393 4.956 0.200 2.112
6.392 4.957 0.200 2.137
6.392 4.958 0.200 2.163
6.391 4.959 0.200 2.189
6.390 4.960 0.200 2.215
6.389 4.961 0.200 2.240
6.389 4.962 0.200 2.266
6.388 4.963 0.200 2.292
6.387 4.964 0.200 2.318
6.386 4.964 0.200 2.343
6.385 4.965 0.200 2.369
6.385 4.966 0.200 2.395
6.384 4.967 0.200 2.421
6.383 4.968 0.200 2.446
6.382 4.968 0.200 2.472
6.381 4.969 0.200 2.498
6.380 4.970 0.200 2.524
6.379 4.970 0.200 2.549
6.379 4.971 0.200 2.575
6.379 4.971 0.200 2.575
6.378 4.972 0.200 2.601
6.377 4.972 0.200 2.627
6.376 4.973 0.200 2.652
6.375 4.973 0.200 2.678
6.374 4.974 0.200 2.704
6.373 4.974 0.200 2.730
6.372 4.975 0.200 2.755
6.371 4.975 0.200 2.781
6.369 4.975 0.200 2.807
6.368 4.976 0.200 2.833
6.367 4.976 0.200 2.858
6.366 4.977 0.200 2.884
6.365 4.977 0.200 2.910
6.364 4.977 0.200 2.936
6.362 4.977 0.200 2.961
6.361 4.978 0.200 2.987
6.360 4.978 0.200 3.013
6.359 4.978 0.200 3.039
6.358 4.978 0.200 3.064
6.356 4.978 0.200 3.090
6.356 4.978 0.200 3.090
6.355 4.978 0.200 3.090
6.354 4.978 0.200 3.090
6.352 4.978 0.200 3.090
6.351 4.978 0.200 3.090
6.350 4.979 0.200 3.090
6.348 4.979 0.200 3.090
6.347 4.979 0.200 3.090
6.346 4.979 0.200 3.090
6.344 4.979 0.200 3.090
6.343 4.979 0.200 3.090
6.342 4.979 0.200 3.090
6.340 4.979 0.200 3.090
6.339 4.979 0.200 3.090
6.338 4.979 0.200 3.090
6.336 4.979 0.200 3.090
6.335 4.979 0.200 3.090
6.333 4.979 0.200 3.090
6.332 4.979 0.200 3.090
6.330 4.980 0.200 3.090
6.329 4.980 0.200 3.090
6.329 4.980 0.200 3.090
6.327 4.980 0.200 3.064
6.326 4.980 0.200 3.039
6.325 4.980 0.200 3.013
6.323 4.980 0.200 2.987
6.322 4.980 0.200 2.961
6.320 4.981 0.200 2.936
6.319 4.981 0.200 2.910
6.317 4.981 0.200 2.884
6.316 4.982 0.200 2.858
6.315 4.982 0.200 2.833
6.313 4.982 0.200 2.807
6.312 4.983 0.200 2.781
6.310 4.983 0.200 2.755
6.309 4.984 0.200 2.730
6.308 4.985 0.200 2.704
6.306 4.985 0.200 2.678
6.305 4.986 0.200 2.652
6.304 4.987 0.200 2.627
6.303 4.987 0.200 2.601
6.301 4.988 0.200 2.575
6.301 4.988 0.200 2.575
6.300 4.989 0.200 2.549
6.299 4.990 0.200 2.524
6.298 4.990 0.200 2.498
6.296 4.991 0.200 2.472
6.295 4.992 0.200 2.446
6.294 4.993 0.200 2.421
6.293 4.994 0.200 2.395
6.292 4.995 0.200 2.369
6.291 4.996 0.200 2.343
6.290 4.997 0.200 2.318
6.289 4.998 0.200 2.292
6.288 4.999 0.200 2.266
6.287 5.001 0.200 2.240
6.286 5.002 0.200 2.215
6.285 5.003 0.200 2.189
6.284 5.004 0.200 2.163
6.284 5.005 0.200 2.137
6.283 5.006 0.200 2.112
6.282 5.008 0.200 2.086
6.281 5.009 0.200 2.060
6.281 5.009 0.200 2.060
6.281 5.010 0.200 2.034
6.280 5.012 0.200 2.009
6.279 5.013 0.200 1.983
6.279 5.014 0.200 1.957
6.278 5.016 0.200 1.931
6.278 5.017 0.200 1.906
6.277 5.018 0.200 1.880
6.277 5.020 0.200 1.854
6.276 5.021 0.200 1.828
6.276 5.023 0.200 1.803
6.276 5.024 0.200 1.777
6.275 5.025 0.200 1.751
6.275 5.027 0.200 1.725
6.275 5.028 0.200 1.700
6.275 5.030 0.200 1.674
6.275 5.031 0.200 1.648
6.274 5.033 0.200 1.622
6.274 5.034 0.200 1.597
6.274 5.036 0.200 1.571
6.274 5.037 0.200 1.545
6.274 5.037 0.200 1.545
6.274 5.039 0.200 1.571
6.274 5.040 0.200 1.597
6.274 5.041 0.200 1.622
6.274 5.043 0.200 1.648
6.274 5.044 0.200 1.674
6.274 5.046 0.200 1.700
6.274 5.047 0.200 1.725
6.274 5.049 0.200 1.751
6.273 5.050 0.200 1.777
6.273 5.052 0.200 1.803
6.273 5.053 0.200 1.828
6.272 5.054 0.200 1.854
6.272 5.056 0.200 1.880
6.271 5.057 0.200 1.906
6.271 5.059 0.200 1.931
6.270 5.060 0.200 1.957
6.270 5.061 0.200 1.983
6.269 5.063 0.200 2.009
6.269 5.064 0.200 2.034
6.268 5.065 0.200 2.060
6.268 5.065 0.200 2.060
6.267 5.067 0.200 2.060
6.267 5.068 0.200 2.060
6.266 5.069 0.200 2.060
6.265 5.070 0.200 2.060
6.265 5.072 0.200 2.060
6.264 5.073 0.200 2.060
6.263 5.074 0.200 2.060
6.263 5.076 0.200 2.060
6.262 5.077 0.200 2.060
6.261 5.078 0.200 2.060
6.261 5.080 0.200 2.060
6.260 5.081 0.200 2.060
6.259 5.082 0.200 2.060
6.258 5.083 0.200 2.060
6.258 5.085 0.200 2.060
6.257 5.086 0.200 2.060
6.256 5.087 0.200 2.060
6.256 5.089 0.200 2.060
6.255 5.090 0.200 2.060
6.254 5.091 0.200 2.060
6.254 5.091 0.200 2.060
6.254 5.092 0.200 2.060
6.253 5.094 0.200 2.060
6.252 5.095 0.200 2.060
6.252 5.096 0.200 2.060
6.251 5.098 0.200 2.060
6.250 5.099 0.200 2.060
6.250 5.100 0.200 2.060
6.249 5.101 0.200 2.060
6.248 5.103 0.200 2.060
6.247 5.104 0.200 2.060
6.247 5.105 0.200 2.060
6.246 5.107 0.200 2.060
6.245 5.108 0.200 2.060
6.245 5.109 0.200 2.060
6.244 5.110 0.200 2.060
6.243 5.112 0.200 2.060
6.243 5.113 0.200 2.060
6.242 5.114 0.200 2.060
6.241 5.116 0.200 2.060
6.241 5.117 0.200 2.060
6.241 5.117 0.200 2.060
6.240 5.118 0.200 2.060
6.239 5.120 0.200 2.060
6.239 5.121 0.200 2.060
6.238 5.122 0.200 2.060
6.237 5.123 0.200 2.060
6.236 5.125 0.200 2.060
6.236 5.126 0.200 2.060
6.235 5.127 0.200 2.060
6.234 5.129 0.200 2.060
6.234 5.130 0.200 2.060
6.233 5.131 0.200 2.060
6.232 5.132 0.200 2.060
6.232 5.134 0.200 2.060
6.231 5.135 0.200 2.060
6.230 5.136 0.200 2.060
6.230 5.138 0.200 2.060
6.229 5.139 0.200 2.060
6.228 5.140 0.200 2.060
6.228 5.141 0.200 2.060
6.227 5.143 0.200 2.060
6.227 5.143 0.200 2.060
6.226 5.144 0.200 2.060
6.225 5.145 0.200 2.060
6.225 5.147 0.200 2.060
6.224 5.148 0.200 2.060
6.223 5.149 0.200 2.060
6.223 5.151 0.200 2.060
6.222 5.152 0.200 2.060
6.221 5.153 0.200 2.060
6.221 5.154 0.200 2.060
6.220 5.156 0.200 2.060
6.219 5.157 0.200 2.060
6.219 5.158 0.200 2.060
6.218 5.160 0.200 2.060
6.217 5.161 0.200 2.060
6.217 5.162 0.200 2.060
6.216 5.163 0.200 2.060
6.215 5.165 0.200 2.060
6.214 5.166 0.200 2.060
6.214 5.167 0.200 2.060
6.213 5.169 0.200 2.060
6.213 5.169 0.200 2.060
6.212 5.170 0.200 2.060
6.212 5.171 0.200 2.060
6.211 5.172 0.200 2.060
6.210 5.174 0.200 2.060
6.210 5.175 0.200 2.060
6.209 5.176 0.200 2.060
6.208 5.178 0.200 2.060
6.208 5.179 0.200 2.060
6.207 5.180 0.200 2.060
6.206 5.181 0.200 2.060
6.206 5.183 0.200 2.060
6.205 5.184 0.200 2.060
6.204 5.185 0.200 2.060
6.203 5.187 0.200 2.060
6.203 5.188 0.200 2.060
6.202 5.189 0.200 2.060
6.201 5.191 0.200 2.060
6.201 5.192 0.200 2.060
6.200 5.193 0.200 2.060
6.199 5.194 0.200 2.060
6.199 5.194 0.200 2.060
6.199 5.196 0.200 2.060
6.198 5.197 0.200 2.060
6.197 5.198 0.200 2.060
6.197 5.200 0.200 2.060
6.196 5.201 0.200 2.060
6.195 5.202 0.200 2.060
6.195 5.203 0.200 2.060
6.194 5.205 0.200 2.060
6.193 5.206 0.200 2.060
6.192 5.207 0.200 2.060
6.192 5.209 0.200 2.060
6.191 5.210 0.200 2.060
6.190 5.211 0.200 2.060
6.190 5.212 0.200 2.060
6.189 5.214 0.200 2.060
6.188 5.215 0.200 2.060
6.188 5.216 0.200 2.060
6.187 5.218 0.200 2.060
6.186 5.219 0.200 2.060
6.186 5.220 0.200 2.060
6.186 5.220 0.200 2.060
6.185 5.222 0.200 2.060
6.184 5.223 0.200 2.060
6.184 5.224 0.200 2.060
6.183 5.225 0.200 2.060
6.182 5.227 0.200 2.060
6.181 5.228 0.200 2.060
6.181 5.229 0.200 2.060
6.180 5.231 0.200 2.060
6.179 5.232 0.200 2.060
6.179 5.233 0.200 2.060
6.178 5.234 0.200 2.060
6.177 5.236 0.200 2.060
6.177 5.237 0.200 2.060
6.176 5.238 0.200 2.060
6.175 5.240 0.200 2.060
6.175 5.241 0.200 2.060
6.174 5.242 0.200 2.060
6.173 5.243 0.200 2.060
6.173 5.245 0.200 2.060
6.172 5.246 0.200 2.060
6.172 5.246 0.200 2.060
6.171 5.247 0.200 2.060
6.170 5.249 0.200 2.060
6.170 5.250 0.200 2.060
6.169 5.251 0.200 2.060
6.168 5.252 0.200 2.060
6.168 5.254 0.200 2.060
6.167 5.255 0.200 2.060
6.166 5.256 0.200 2.060
6.166 5.258 0.200 2.060
6.165 5.259 0.200 2.060
6.164 5.260 0.200 2.060
6.164 5.262 0.200 2.060
6.163 5.263 0.200 2.060
6.162 5.264 0.200 2.060
6.162 5.265 0.200 2.060
6.161 5.267 0.200 2.060
6.160 5.268 0.200 2.060
6.160 5.269 0.200 2.060
6.159 5.271 0.200 2.060
6.158 5.272 0.200 2.060
6.158 5.272 0.200 2.060
6.157 5.273 0.200 2.060
6.157 5.274 0.200 2.060
6.156 5.276 0.200 2.060
6.155 5.277 0.200 2.060
6.155 5.278 0.200 2.060
6.154 5.280 0.200 2.060
6.153 5.281 0.200 2.060
6.153 5.282 0.200 2.060
6.152 5.283 0.200 2.060
6.151 5.285 0.200 2.060
6.151 5.286 0.200 2.060
6.150 5.287 0.200 2.060
6.149 5.289 0.200 2.060
6.149 5.290 0.200 2.060
6.148 5.291 0.200 2.060
6.147 5.293 0.200 2.060
6.146 5.294 0.200 2.060
6.146 5.295 0.200 2.060
6.145 5.296 0.200 2.060
6.144 5.298 0.200 2.060
6.144 5.298 0.200 2.060
6.144 5.299 0.200 2.060
6.143 5.300 0.200 2.060
6.142 5.302 0.200 2.060
6.142 5.303 0.200 2.060
6.141 5.304 0.200 2.060
6.140 5.305 0.200 2.060
6.140 5.307 0.200 2.060
6.139 5.308 0.200 2.060
6.138 5.309 0.200 2.060
6.138 5.311 0.200 2.060
6.137 5.312 0.200 2.060
6.136 5.313 0.200 2.060
6.135 5.314 0.200 2.060
6.135 5.316 0.200 2.060
6.134 5.317 0.200 2.060
6.133 5.318 0.200 2.060
6.133 5.320 0.200 2.060
6.132 5.321 0.200 2.060
6.131 5.322 0.200 2.060
6.131 5.323 0.200 2.060
6.131 5.323 0.200 2.060
6.130 5.325 0.200 2.060
6.129 5.326 0.200 2.060
6.129 5.327 0.200 2.060
6.128 5.329 0.200 2.060
6.127 5.330 0.200 2.060
6.127 5.331 0.200 2.060
6.126 5.333 0.200 2.060
6.125 5.334 0.200 2.060
6.124 5.335 0.200 2.060
6.124 5.336 0.200 2.060
6.123 5.338 0.200 2.060
6.122 5.339 0.200 2.060
6.122 5.340 0.200 2.060
6.121 5.342 0.200 2.060
6.120 5.343 0.200 2.060
6.120 5.344 0.200 2.060
6.119 5.345 0.200 2.060
6.118 5.347 0.200 2.060
6.118 5.348 0.200 2.060
6.117 5.349 0.200 2.060
6.117 5.349 0.200 2.060
6.116 5.351 0.200 2.060
6.116 5.352 0.200 2.060
6.115 5.353 0.200 2.060
6.114 5.354 0.200 2.060
6.113 5.356 0.200 2.060
6.113 5.357 0.200 2.060
6.112 5.358 0.200 2.060
6.111 5.360 0.200 2.060
6.111 5.361 0.200 2.060
6.110 5.362 0.200 2.060
6.109 5.363 0.200 2.060
6.109 5.365 0.200 2.060
6.108 5.366 0.200 2.060
6.107 5.367 0.200 2.060
6.107 5.369 0.200 2.060
6.106 5.370 0.200 2.060
6.105 5.371 0.200 2.060
6.105 5.373 0.200 2.060
6.104 5.374 0.200 2.060
6.103 5.375 0.200 2.060
6.103 5.375 0.200 2.060
6.102 5.376 0.200 2.060
6.102 5.378 0.200 2.060
6.101 5.379 0.200 2.060
6.100 5.380 0.200 2.060
6.100 5.382 0.200 2.060
6.099 5.383 0.200 2.060
6.098 5.384 0.200 2.060
6.098 5.385 0.200 2.060
6.097 5.387 0.200 2.060
6.096 5.388 0.200 2.060
6.096 5.389 0.200 2.060
6.095 5.391 0.200 2.060
6.094 5.392 0.200 2.060
6.094 5.393 0.200 2.060
6.093 5.394 0.200 2.060
6.092 5.396 0.200 2.060
6.091 5.397 0.200 2.060
6.091 5.398 0.200 2.060
6.090 5.400 0.200 2.060
6.089 5.401 0.200 2.060
6.089 5.401 0.200 2.060
6.089 5.402 0.200 2.060
6.088 5.404 0.200 2.060
6.087 5.405 0.200 2.060
6.087 5.406 0.200 2.060
6.086 5.407 0.200 2.060
6.085 5.409 0.200 2.060
6.085 5.410 0.200 2.060
6.084 5.411 0.200 2.060
6.083 5.413 0.200 2.060
6.083 5.414 0.200 2.060
6.082 5.415 0.200 2.060
6.081 5.416 0.200 2.060
6.080 5.418 0.200 2.060
6.080 5.419 0.200 2.060
6.079 5.420 0.200 2.060
6.078 5.422 0.200 2.060
6.078 5.423 0.200 2.060
6.077 5.424 0.200 2.060
6.076 5.425 0.200 2.060
6.076 5.427 0.200 2.060
6.076 5.427 0.200 2.060
6.075 5.428 0.200 2.060
6.074 5.429 0.200 2.060
6.074 5.431 0.200 2.060
6.073 5.432 0.200 2.060
6.072 5.433 0.200 2.060
6.072 5.434 0.200 2.060
6.071 5.436 0.200 2.060
6.070 5.437 0.200 2.060
6.069 5.438 0.200 2.060
6.069 5.440 0.200 2.060
6.068 5.441 0.200 2.060
6.067 5.442 0.200 2.060
6.067 5.444 0.200 2.060
6.066 5.445 0.200 2.060
6.065 5.446 0.200 2.060
6.065 5.447 0.200 2.060
6.064 5.449 0.200 2.060
6.063 5.450 0.200 2.060
6.063 5.451 0.200 2.060
6.062 5.453 0.200 2.060
6.062 5.453 0.200 2.060
6.061 5.454 0.200 2.034
6.061 5.455 0.200 2.009
6.060 5.456 0.200 1.983
6.059 5.458 0.200 1.957
6.059 5.459 0.200 1.931
6.058 5.461 0.200 1.906
6.058 5.462 0.200 1.880
6.057 5.463 0.200 1.854
6.057 5.465 0.200 1.828
6.057 5.466 0.200 1.803
6.056 5.468 0.200 1.777
6.056 5.469 0.200 1.751
6.056 5.470 0.200 1.725
6.055 5.472 0.200 1.700
6.055 5.473 0.200 1.674
6.055 5.475 0.200 1.648
6.055 5.476 0.200 1.622
6.055 5.478 0.200 1.597
6.055 5.479 0.200 1.571
6.055 5.481 0.200 1.545
6.055 5.481 0.200 1.545
6.055 5.482 0.200 1.545
6.055 5.484 0.200 1.545
6.055 5.485 0.200 1.545
6.055 5.486 0.200 1.545
6.055 5.488 0.200 1.545
6.055 5.489 0.200 1.545
6.055 5.491 0.200 1.545
6.055 5.492 0.200 1.545
6.055 5.494 0.200 1.545
6.055 5.495 0.200 1.545
6.055 5.497 0.200 1.545
6.055 5.498 0.200 1.545
6.055 5.500 0.200 1.545
6.055 5.501 0.200 1.545
6.055 5.503 0.200 1.545
6.056 5.504 0.200 1.545
6.056 5.505 0.200 1.545
6.056 5.507 0.200 1.545
6.056 5.508 0.200 1.545
6.056 5.510 0.200 1.545
6.056 5.510 0.200 1.545
6.056 5.511 0.200 1.545
6.056 5.513 0.200 1.545
6.056 5.514 0.200 1.545
6.056 5.516 0.200 1.545
6.056 5.517 0.200 1.545
6.056 5.519 0.200 1.545
6.056 5.520 0.200 1.545
6.056 5.522 0.200 1.545
6.056 5.523 0.200 1.545
6.056 5.524 0.200 1.545
6.056 5.526 0.200 1.545
6.056 5.527 0.200 1.545
6.056 5.529 0.200 1.545
6.056 5.530 0.200 1.545
6.056 5.532 0.200 1.545
6.056 5.533 0.200 1.545
6.056 5.535 0.200 1.545
6.056 5.536 0.200 1.545
6.056 5.538 0.200 1.545
6.056 5.539 0.200 1.545
6.056 5.539 0.200 1.545
6.056 5.541 0.200 1.545
6.057 5.542 0.200 1.545
6.057 5.543 0.200 1.545
6.057 5.545 0.200 1.545
6.057 5.546 0.200 1.545
6.057 5.548 0.200 1.545
6.057 5.549 0.200 1.545
6.057 5.551 0.200 1.545
6.057 5.552 0.200 1.545
6.057 5.554 0.200 1.545
6.057 5.555 0.200 1.545
6.057 5.557 0.200 1.545
6.057 5.558 0.200 1.545
6.057 5.560 0.200 1.545
6.057 5.561 0.200 1.545
6.057 5.562 0.200 1.545
6.057 5.564 0.200 1.545
6.057 5.565 0.200 1.545
6.057 5.567 0.200 1.545
6.057 5.568 0.200 1.545
6.057 5.568 0.200 1.545
6.057 5.570 0.200 1.545
6.057 5.571 0.200 1.545
6.057 5.573 0.200 1.545
6.057 5.574 0.200 1.545
6.057 5.576 0.200 1.545
6.057 5.577 0.200 1.545
6.057 5.579 0.200 1.545
6.057 5.580 0.200 1.545
6.058 5.582 0.200 1.545
6.058 5.583 0.200 1.545
6.058 5.584 0.200 1.545
6.058 5.586 0.200 1.545
6.058 5.587 0.200 1.545
6.058 5.589 0.200 1.545
6.058 5.590 0.200 1.545
6.058 5.592 0.200 1.545
6.058 5.593 0.200 1.545
6.058 5.595 0.200 1.545
6.058 5.596 0.200 1.545
6.058 5.598 0.200 1.545
6.058 5.598 0.200 1.545
6.058 5.599 0.200 1.545
6.058 5.601 0.200 1.545
6.058 5.602 0.200 1.545
6.058 5.603 0.200 1.545
6.058 5.605 0.200 1.545
6.058 5.606 0.200 1.545
6.058 5.608 0.200 1.545
6.058 5.609 0.200 1.545
6.058 5.611 0.200 1.545
6.058 5.612 0.200 1.545
6.058 5.614 0.200 1.545
6.058 5.615 0.200 1.545
6.058 5.617 0.200 1.545
6.058 5.618 0.200 1.545
6.059 5.620 0.200 1.545
6.059 5.621 0.200 1.545
6.059 5.622 0.200 1.545
6.059 5.624 0.200 1.545
6.059 5.625 0.200 1.545
6.059 5.627 0.200 1.545
6.059 5.627 0.200 1.545
6.059 5.628 0.200 1.545
6.059 5.630 0.200 1.545
6.059 5.631 0.200 1.545
6.059 5.633 0.200 1.545
6.059 5.634 0.200 1.545
6.059 5.636 0.200 1.545
6.059 5.637 0.200 1.545
6.059 5.639 0.200 1.545
6.059 5.640 0.200 1.545
6.059 5.641 0.200 1.545
6.059 5.643 0.200 1.545
6.059 5.644 0.200 1.545
6.059 5.646 0.200 1.545
6.059 5.647 0.200 1.545
6.059 5.649 0.200 1.545
6.059 5.650 0.200 1.545
6.059 5.652 0.200 1.545
6.059 5.653 0.200 1.545
6.059 5.655 0.200 1.545
6.059 5.656 0.200 1.545
6.059 5.656 0.200 1.545
6.059 5.658 0.200 1.545
6.060 5.659 0.200 1.545
6.060 5.660 0.200 1.545
6.060 5.662 0.200 1.545
6.060 5.663 0.200 1.545
6.060 5.665 0.200 1.545
6.060 5.666 0.200 1.545
6.060 5.668 0.200 1.545
6.060 5.669 0.200 1.545
6.060 5.671 0.200 1.545
6.060 5.672 0.200 1.545
6.060 5.674 0.200 1.545
6.060 5.675 0.200 1.545
6.060 5.677 0.200 1.545
6.060 5.678 0.200 1.545
6.060 5.679 0.200 1.545
6.060 5.681 0.200 1.545
6.060 5.682 0.200 1.545
6.060 5.684 0.200 1.545
6.060 5.685 0.200 1.545
6.060 5.685 0.200 1.545
6.060 5.687 0.200 1.545
6.060 5.688 0.200 1.545
6.060 5.690 0.200 1.545
6.060 5.691 0.200 1.545
6.060 5.693 0.200 1.545
6.060 5.694 0.200 1.545
6.060 5.696 0.200 1.545
6.060 5.697 0.200 1.545
6.061 5.698 0.200 1.545
6.061 5.700 0.200 1.545
6.061 5.701 0.200 1.545
6.061 5.703 0.200 1.545
6.061 5.704 0.200 1.545
6.061 5.706 0.200 1.545
6.061 5.707 0.200 1.545
6.061 5.709 0.200 1.545
6.061 5.710 0.200 1.545
6.061 5.712 0.200 1.545
6.061 5.713 0.200 1.545
6.061 5.715 0.200 1.545
6.061 5.715 0.200 1.545
6.061 5.716 0.200 1.545
6.061 5.717 0.200 1.545
6.061 5.719 0.200 1.545
6.061 5.720 0.200 1.545
6.061 5.722 0.200 1.545
6.061 5.723 0.200 1.545
6.061 5.725 0.200 1.545
6.061 5.726 0.200 1.545
6.061 5.728 0.200 1.545
6.061 5.729 0.200 1.545
6.061 5.731 0.200 1.545
6.061 5.732 0.200 1.545
6.061 5.734 0.200 1.545
6.061 5.735 0.200 1.545
6.062 5.736 0.200 1.545
6.062 5.738 0.200 1.545
6.062 5.739 0.200 1.545
6.062 5.741 0.200 1.545
6.062 5.742 0.200 1.545
6.062 5.744 0.200 1.545
6.062 5.744 0.200 1.545
6.062 5.745 0.200 1.545
6.062 5.747 0.200 1.545
6.062 5.748 0.200 1.545
6.062 5.750 0.200 1.545
6.062 5.751 0.200 1.545
6.062 5.753 0.200 1.545
6.062 5.754 0.200 1.545
6.062 5.755 0.200 1.545
6.062 5.757 0.200 1.545
6.062 5.758 0.200 1.545
6.062 5.760 0.200 1.545
6.062 5.761 0.200 1.545
6.062 5.763 0.200 1.545
6.062 5.764 0.200 1.545
6.062 5.766 0.200 1.545
6.062 5.767 0.200 1.545
6.062 5.769 0.200 1.545
6.062 5.770 0.200 1.545
6.062 5.772 0.200 1.545
6.062 5.773 0.200 1.545
6.062 5.773 0.200 1.545
6.062 5.774 0.200 1.545
6.063 5.776 0.200 1.545
6.063 5.777 0.200 1.545
6.063 5.779 0.200 1.545
6.063 5.780 0.200 1.545
6.063 5.782 0.200 1.545
6.063 5.783 0.200 1.545
6.063 5.785 0.200 1.545
6.063 5.786 0.200 1.545
6.063 5.788 0.200 1.545
6.063 5.789 0.200 1.545
6.063 5.791 0.200 1.545
6.063 5.792 0.200 1.545
6.063 5.793 0.200 1.545
6.063 5.795 0.200 1.545
6.063 5.796 0.200 1.545
6.063 5.798 0.200 1.545
6.063 5.799 0.200 1.545
6.063 5.801 0.200 1.545
6.063 5.802 0.200 1.545
6.063 5.802 0.200 1.545
6.063 5.804 0.200 1.545
6.063 5.805 0.200 1.545
6.063 5.807 0.200 1.545
6.063 5.808 0.200 1.545
6.063 5.810 0.200 1.545
6.063 5.811 0.200 1.545
6.063 5.812 0.200 1.545
6.064 5.814 0.200 1.545
6.064 5.815 0.200 1.545
6.064 5.817 0.200 1.545
6.064 5.818 0.200 1.545
6.064 5.820 0.200 1.545
6.064 5.821 0.200 1.545
6.064 5.823 0.200 1.545
6.064 5.824 0.200 1.545
6.064 5.826 0.200 1.545
6.064 5.827 0.200 1.545
6.064 5.829 0.200 1.545
6.064 5.830 0.200 1.545
6.064 5.832 0.200 1.545
6.064 5.832 0.200 1.545
6.064 5.833 0.200 1.519
6.064 5.834 0.200 1.494
6.064 5.836 0.200 1.468
6.064 5.837 0.200 1.442
6.065 5.839 0.200 1.416
6.065 5.840 0.200 1.391
6.065 5.842 0.200 1.365
6.065 5.843 0.200 1.339
6.066 5.845 0.200 1.313
6.066 5.846 0.200 1.288
6.066 5.847 0.200 1.262
6.067 5.849 0.200 1.236
6.067 5.850 0.200 1.210
6.068 5.851 0.200 1.185
6.068 5.853 0.200 1.159
6.069 5.854 0.200 1.133
6.070 5.856 0.200 1.107
6.070 5.857 0.200 1.082
6.071 5.858 0.200 1.056
6.072 5.859 0.200 1.030
6.072 5.859 0.200 1.030
6.072 5.861 0.200 1.030
6.073 5.862 0.200 1.030
6.074 5.863 0.200 1.030
6.075 5.864 0.200 1.030
6.075 5.866 0.200 1.030
6.076 5.867 0.200 1.030
6.077 5.868 0.200 1.030
6.078 5.869 0.200 1.030
6.078 5.871 0.200 1.030
6.079 5.872 0.200 1.030
6.080 5.873 0.200 1.030
6.081 5.874 0.200 1.030
6.081 5.876 0.200 1.030
6.082 5.877 0.200 1.030
6.083 5.878 0.200 1.030
6.084 5.879 0.200 1.030
6.084 5.881 0.200 1.030
6.085 5.882 0.200 1.030
6.086 5.883 0.200 1.030
6.087 5.884 0.200 1.030
6.087 5.884 0.200 1.030
6.088 5.886 0.200 1.030
6.088 5.887 0.200 1.030
6.089 5.888 0.200 1.030
6.090 5.889 0.200 1.030
6.091 5.891 0.200 1.030
6.091 5.892 0.200 1.030
6.092 5.893 0.200 1.030
6.093 5.894 0.200 1.030
6.094 5.896 0.200 1.030
6.094 5.897 0.200 1.030
6.095 5.898 0.200 1.030
6.096 5.899 0.200 1.030
6.097 5.901 0.200 1.030
6.097 5.902 0.200 1.030
6.098 5.903 0.200 1.030
6.099 5.905 0.200 1.030
6.100 5.906 0.200 1.030
6.100 5.907 0.200 1.030
6.101 5.908 0.200 1.030
6.102 5.910 0.200 1.030
6.102 5.910 0.200 1.030
6.103 5.911 0.200 1.004
6.103 5.912 0.200 0.979
6.104 5.913 0.200 0.953
6.105 5.914 0.200 0.927
6.106 5.916 0.200 0.901
6.107 5.917 0.200 0.876
6.108 5.918 0.200 0.850
6.109 5.919 0.200 0.824
6.110 5.920 0.200 0.798
6.111 5.921 0.200 0.773
6.112 5.922 0.200 0.747
6.113 5.923 0.200 0.721
6.114 5.924 0.200 0.695
6.115 5.925 0.200 0.670
6.116 5.926 0.200 0.644
6.117 5.927 0.200 0.618
6.119 5.928 0.200 0.592
6.120 5.928 0.200 0.567
6.121 5.929 0.200 0.541
6.122 5.930 0.200 0.515
6.122 5.930 0.200 0.515
6.124 5.931 0.200 0.515
6.125 5.931 0.200 0.515
6.126 5.932 0.200 0.515
6.127 5.933 0.200 0.515
6.129 5.934 0.200 0.515
6.130 5.934 0.200 0.515
6.131 5.935 0.200 0.515
6.132 5.936 0.200 0.515
6.133 5.936 0.200 0.515
6.135 5.937 0.200 0.515
6.136 5.938 0.200 0.515
6.137 5.938 0.200 0.515
6.138 5.939 0.200 0.515
6.139 5.940 0.200 0.515
6.140 5.940 0.200 0.515
6.142 5.941 0.200 0.515
6.143 5.942 0.200 0.515
6.144 5.942 0.200 0.515
6.145 5.943 0.200 0.515
6.146 5.943 0.200 0.515
6.146 5.943 0.200 0.515
6.147 5.944 0.200 0.515
6.148 5.945 0.200 0.515
6.149 5.945 0.200 0.515
6.150 5.946 0.200 0.515
6.152 5.947 0.200 0.515
6.153 5.947 0.200 0.515
6.154 5.948 0.200 0.515
6.155 5.948 0.200 0.515
6.156 5.949 0.200 0.515
6.157 5.950 0.200 0.515
6.158 5.950 0.200 0.515
6.159 5.951 0.200 0.515
6.160 5.951 0.200 0.515
6.161 5.952 0.200 0.515
6.162 5.952 0.200 0.515
6.163 5.953 0.200 0.515
6.164 5.953 0.200 0.515
6.165 5.954 0.200 0.515
6.166 5.955 0.200 0.515
6.167 5.955 0.200 0.515
6.167 5.955 0.200 0.515
6.168 5.956 0.200 0.489
6.169 5.956 0.200 0.464
6.169 5.957 0.200 0.438
6.170 5.957 0.200 0.412
6.171 5.957 0.200 0.386
6.172 5.958 0.200 0.361
6.173 5.958 0.200 0.335
6.174 5.959 0.200 0.309
6.175 5.959 0.200 0.283
6.176 5.959 0.200 0.258
6.177 5.959 0.200 0.232
6.178 5.960 0.200 0.206
6.179 5.960 0.200 0.180
6.180 5.960 0.200 0.155
6.181 5.960 0.200 0.129
6.182 5.960 0.200 0.103
6.183 5.960 0.200 0.077
6.184 5.960 0.200 0.052
6.185 5.960 0.200 0.026
6.186 5.960 0.200 0.000
6.186 5.960 0.200 0.000
6.186 5.960 0.200 0.026
6.187 5.961 0.200 0.052
6.188 5.961 0.200 0.077
6.189 5.961 0.200 0.103
6.190 5.961 0.200 0.129
6.191 5.961 0.200 0.155
6.192 5.961 0.200 0.180
6.192 5.961 0.200 0.206
6.193 5.961 0.200 0.232
6.194 5.961 0.200 0.258
6.195 5.962 0.200 0.283
6.196 5.962 0.200 0.309
6.196 5.962 0.200 0.335
6.197 5.962 0.200 0.361
6.198 5.963 0.200 0.386
6.198 5.963 0.200 0.412
6.199 5.963 0.200 0.438
6.200 5.964 0.200 0.464
6.200 5.964 0.200 0.489
6.201 5.964 0.200 0.515
6.201 5.964 0.200 0.515
6.202 5.965 0.200 0.541
6.202 5.965 0.200 0.567
6.203 5.965 0.200 0.592
6.204 5.966 0.200 0.618
6.204 5.966 0.200 0.644
6.205 5.967 0.200 0.670
6.205 5.967 0.200 0.695
6.206 5.968 0.200 0.721
6.207 5.968 0.200 0.747
6.207 5.969 0.200 0.773
6.208 5.969 0.200 0.798
6.208 5.970 0.200 0.824
6.209 5.970 0.200 0.850
6.209 5.971 0.200 0.876
6.210 5.972 0.200 0.901
6.210 5.972 0.200 0.927
6.211 5.973 0.200 0.953
6.212 5.974 0.200 0.979
6.212 5.975 0.200 1.004
6.213 5.975 0.200 1.030
6.213 5.975 0.200 1.030
6.213 5.976 0.200 1.056
6.213 5.977 0.200 1.082
6.214 5.978 0.200 1.107
6.214 5.979 0.200 1.133
6.215 5.979 0.200 1.159
6.215 5.980 0.200 1.185
6.215 5.981 0.200 1.210
6.216 5.982 0.200 1.236
6.216 5.983 0.200 1.262
6.216 5.984 0.200 1.288
6.217 5.985 0.200 1.313
6.217 5.986 0.200 1.339
6.217 5.987 0.200 1.365
6.217 5.988 0.200 1.391
6.218 5.989 0.200 1.416
6.218 5.990 0.200 1.442
6.218 5.991 0.200 1.468
6.218 5.992 0.200 1.494
6.218 5.993 0.200 1.519
6.218 5.994 0.200 1.545
6.218 5.994 0.200 1.545
6.218 5.995 0.200 1.571
6.218 5.996 0.200 1.597
6.218 5.997 0.200 1.622
6.218 5.999 0.200 1.648
6.218 6.000 0.200 1.674
6.218 6.001 0.200 1.700
6.218 6.002 0.200 1.725
6.217 6.003 0.200 1.751
6.217 6.004 0.200 1.777
6.217 6.005 0.200 1.803
6.217 6.007 0.200 1.828
6.216 6.008 0.200 1.854
6.216 6.009 0.200 1.880
6.216 6.010 0.200 1.906
6.215 6.011 0.200 1.931
6.215 6.012 0.200 1.957
6.214 6.014 0.200 1.983
6.214 6.015 0.200 2.009
6.213 6.016 0.200 2.034
6.213 6.017 0.200 2.060
6.213 6.017 0.200 2.060
6.212 6.018 0.200 2.060
6.212 6.019 0.200 2.060
6.211 6.020 0.200 2.060
6.210 6.021 0.200 2.060
6.210 6.023 0.200 2.060
6.209 6.024 0.200 2.060
6.209 6.025 0.200 2.060
6.208 6.026 0.200 2.060
6.207 6.027 0.200 2.060
6.207 6.029 0.200 2.060
6.206 6.030 0.200 2.060
6.205 6.031 0.200 2.060
6.205 6.032 0.200 2.060
6.204 6.033 0.200 2.060
6.203 6.035 0.200 2.060
6.203 6.036 0.200 2.060
6.202 6.037 0.200 2.060
6.201 6.039 0.200 2.060
6.201 6.040 0.200 2.060
6.200 6.041 0.200 2.060
6.200 6.041 0.200 2.060
6.199 6.042 0.200 2.060
6.199 6.044 0.200 2.060
6.198 6.045 0.200 2.060
6.197 6.046 0.200 2.060
6.197 6.047 0.200 2.060
6.196 6.049 0.200 2.060
6.195 6.050 0.200 2.060
6.195 6.051 0.200 2.060
6.194 6.052 0.200 2.060
6.193 6.054 0.200 2.060
6.193 6.055 0.200 2.060
6.192 6.056 0.200 2.060
6.191 6.057 0.200 2.060
6.191 6.058 0.200 2.060
6.190 6.060 0.200 2.060
6.190 6.061 0.200 2.060
6.189 6.062 0.200 2.060
6.188 6.063 0.200 2.060
6.188 6.064 0.200 2.060
6.187 6.065 0.200 2.060
6.187 6.065 0.200 2.060
6.187 6.066 0.200 2.034
6.186 6.068 0.200 2.009
6.185 6.069 0.200 1.983
6.185 6.070 0.200 1.957
6.184 6.071 0.200 1.931
6.184 6.072 0.200 1.906
6.183 6.074 0.200 1.880
6.183 6.075 0.200 1.854
6.183 6.076 0.200 1.828
6.182 6.078 0.200 1.803
6.182 6.079 0.200 1.777
6.182 6.080 0.200 1.751
6.181 6.082 0.200 1.725
6.181 6.083 0.200 1.700
6.181 6.084 0.200 1.674
6.181 6.086 0.200 1.648
6.181 6.087 0.200 1.622
6.181 6.089 0.200 1.597
6.181 6.090 0.200 1.571
6.181 6.092 0.200 1.545
6.181 6.092 0.200 1.545
6.181 6.093 0.200 1.545
6.181 6.094 0.200 1.545
6.181 6.096 0.200 1.545
6.181 6.097 0.200 1.545
6.181 6.099 0.200 1.545
6.181 6.100 0.200 1.545
6.181 6.102 0.200 1.545
6.181 6.103 0.200 1.545
6.181 6.105 0.200 1.545
6.181 6.106 0.200 1.545
6.181 6.108 0.200 1.545
6.181 6.109 0.200 1.545
6.181 6.111 0.200 1.545
6.181 6.112 0.200 1.545
6.181 6.113 0.200 1.545
6.181 6.115 0.200 1.545
6.181 6.116 0.200 1.545
6.181 6.118 0.200 1.545
6.181 6.119 0.200 1.545
6.181 6.121 0.200 1.545
6.181 6.121 0.200 1.545
6.182 6.122 0.200 1.545
6.182 6.124 0.200 1.545
6.182 6.125 0.200 1.545
6.182 6.127 0.200 1.545
6.182 6.128 0.200 1.545
6.182 6.130 0.200 1.545
6.182 6.131 0.200 1.545
6.182 6.132 0.200 1.545
6.182 6.134 0.200 1.545
6.182 6.135 0.200 1.545
6.182 6.137 0.200 1.545
6.182 6.138 0.200 1.545
6.182 6.140 0.200 1.545
6.182 6.141 0.200 1.545
6.182 6.143 0.200 1.545
6.182 6.144 0.200 1.545
6.182 6.146 0.200 1.545
6.182 6.147 0.200 1.545
6.182 6.149 0.200 1.545
6.182 6.150 0.200 1.545
6.182 6.150 0.200 1.545
6.182 6.152 0.200 1.571
6.182 6.153 0.200 1.597
6.182 6.154 0.200 1.622
6.182 6.156 0.200 1.648
6.182 6.157 0.200 1.674
6.182 6.159 0.200 1.700
6.182 6.160 0.200 1.725
6.181 6.162 0.200 1.751
6.181 6.163 0.200 1.777
6.181 6.165 0.200 1.803
6.181 6.166 0.200 1.828
6.180 6.167 0.200 1.854
6.180 6.169 0.200 1.880
6.179 6.170 0.200 1.906
6.179 6.172 0.200 1.931
6.178 6.173 0.200 1.957
6.178 6.174 0.200 1.983
6.177 6.176 0.200 2.009
6.177 6.177 0.200 2.034
6.176 6.178 0.200 2.060
6.176 6.178 0.200 2.060
6.175 6.180 0.200 2.086
6.175 6.181 0.200 2.112
6.174 6.182 0.200 2.137
6.173 6.183 0.200 2.163
6.172 6.185 0.200 2.189
6.171 6.186 0.200 2.215
6.170 6.187 0.200 2.240
6.170 6.188 0.200 2.266
6.169 6.189 0.200 2.292
6.168 6.190 0.200 2.318
6.167 6.191 0.200 2.343
6.166 6.192 0.200 2.369
6.165 6.193 0.200 2.395
6.164 6.194 0.200 2.421
6.162 6.195 0.200 2.446
6.161 6.196 0.200 2.472
6.160 6.197 0.200 2.498
6.159 6.198 0.200 2.524
6.158 6.199 0.200 2.549
6.157 6.200 0.200 2.575
6.157 6.200 0.200 2.575
6.155 6.201 0.200 2.575
6.154 6.201 0.200 2.575
6.153 6.202 0.200 2.575
6.152 6.203 0.200 2.575
6.150 6.204 0.200 2.575
6.149 6.204 0.200 2.575
6.148 6.205 0.200 2.575
6.147 6.206 0.200 2.575
6.145 6.207 0.200 2.575
6.144 6.208 0.200 2.575
6.143 6.208 0.200 2.575
6.142 6.209 0.200 2.575
6.141 6.210 0.200 2.575
6.139 6.211 0.200 2.575
6.138 6.212 0.200 2.575
6.137 6.212 0.200 2.575
6.136 6.213 0.200 2.575
6.134 6.214 0.200 2.575
6.133 6.215 0.200 2.575
6.132 6.215 0.200 2.575
6.132 6.215 0.200 2.575
6.131 6.216 0.200 2.575
6.129 6.217 0.200 2.575
6.128 6.218 0.200 2.575
6.127 6.219 0.200 2.575
6.126 6.219 0.200 2.575
6.124 6.220 0.200 2.575
6.123 6.221 0.200 2.575
6.122 6.222 0.200 2.575
6.121 6.223 0.200 2.575
6.120 6.223 0.200 2.575
6.118 6.224 0.200 2.575
6.117 6.225 0.200 2.575
6.116 6.226 0.200 2.575
6.115 6.226 0.200 2.575
6.113 6.227 0.200 2.575
6.112 6.228 0.200 2.575
6.111 6.229 0.200 2.575
6.110 6.230 0.200 2.575
6.108 6.230 0.200 2.575
6.107 6.231 0.200 2.575
6.107 6.231 0.200 2.575
6.106 6.232 0.200 2.575
6.105 6.233 0.200 2.575
6.104 6.234 0.200 2.575
6.102 6.234 0.200 2.575
6.101 6.235 0.200 2.575
6.100 6.236 0.200 2.575
6.099 6.237 0.200 2.575
6.097 6.237 0.200 2.575
6.096 6.238 0.200 2.575
6.095 6.239 0.200 2.575
6.094 6.240 0.200 2.575
6.092 6.241 0.200 2.575
6.091 6.241 0.200 2.575
6.090 6.242 0.200 2.575
6.089 6.243 0.200 2.575
6.087 6.244 0.200 2.575
6.086 6.244 0.200 2.575
6.085 6.245 0.200 2.575
6.084 6.246 0.200 2.575
6.083 6.247 0.200 2.575
6.083 6.247 0.200 2.575
6.081 6.248 0.200 2.575
6.080 6.248 0.200 2.575
6.079 6.249 0.200 2.575
6.078 6.250 0.200 2.575
6.076 6.251 0.200 2.575
6.075 6.252 0.200 2.575
6.074 6.252 0.200 2.575
6.073 6.253 0.200 2.575
6.071 6.254 0.200 2.575
6.070 6.255 0.200 2.575
6.069 6.255 0.200 2.575
6.068 6.256 0.200 2.575
6.066 6.257 0.200 2.575
6.065 6.258 0.200 2.575
6.064 6.259 0.200 2.575
6.063 6.259 0.200 2.575
6.062 6.260 0.200 2.575
6.060 6.261 0.200 2.575
6.059 6.262 0.200 2.575
6.058 6.263 0.200 2.575
6.058 6.263 0.200 2.575
6.057 6.263 0.200 2.549
6.055 6.264 0.200 2.524
6.054 6.265 0.199 2.498
6.053 6.266 0.199 2.472
6.052 6.267 0.199 2.446
6.051 6.268 0.199 2.421
6.050 6.269 0.198 2.395
6.049 6.269 0.198 2.369
6.048 6.270 0.198 2.343
6.047 6.271 0.198 2.318
6.046 6.272 0.197 2.292
6.045 6.273 0.197 2.266
6.044 6.274 0.197 2.240
6.043 6.276 0.197 2.215
6.043 6.277 0.196 2.189
6.042 6.278 0.196 2.163
6.041 6.279 0.196 2.137
6.040 6.280 0.196 2.112
6.040 6.281 0.195 2.086
6.039 6.282 0.195 2.060
