// done with penalty

@ mountcylinder2_case2

eps: 3.0

expansion: 122935

time: 120s

cost: null

setEnvStartGoal(env,
        8.7, 4.2, 0.050, 3.14, 
        0.036,  0.0, 0.0,
        2.420, 3.900, 1.6, 0.0, 
        0.036,  0.0, 0.0,
        start_id, goal_id);


solution not found

