// done with penalty

@ mount_case3

eps: 3.0

expansion: 2905

time: 1.195

cost: 644

setEnvStartGoal(env,
    5.55, 3.994, 0.7, 0.0,
    0.036, 1.3, 0.0,
    5.929, 0.866, 0.5, 0.0,
    0.036, 0.0, 0.0,
    start_id, goal_id);

solution found
