// RRT version

@ MOUNTCYLINDER2 case3

numofsamples: 80000/ 80000/ 80000

time: 37.177/ 36.319/ 34.547

cost: infinity/ infinity/ infinity


setEnvStartGoal(env,
            5.484, 8.500, 0.400, 3.14,
            0.036,  0.0, 0.0,
            2.459, 4.208, 1.65, 0.0, 
            0.036,  0.0, 0.0,
            start_id, goal_id);

solution found

