// done without penalty

eps: 3.0

expansion: 381406

time: 30.883

cost: 1252

setEnvStartGoal(env,
        9.245, 3.42, 0.2, 1.57,
        0.036,  0.0, 0.0,
        4.578, 6.955, 0.620, 0.0,
        0.036,  0.0, 0.0,
        start_id, goal_id);


solution found

