// pablo version
// small range(smaller than 1 step range)

@ MOUNTBALL case2

eps: 1.0

expansion:  87141

time: 120s


setEnvStartGoal(env,
            9.279, 9.458, 0.200, 1.0,
            0.036,  0.0, 0.0,
            4.068, 2.686, 1.20, 0.0,
            0.036,  0.0, 0.0,
            start_id, goal_id);
 
 solution not found
