0.2 1.5 0.6 0
9 9.2275 0.6 0
0.2 1.5 0.6 0
0.219033 1.50492 0.6 0.515015
0.239593 1.51655 0.6 0.515015
0.261785 1.52911 0.6 0.515015
0.285609 1.54259 0.6 0.515015
0.311065 1.557 0.6 0.515015
0.336521 1.57141 0.6 0.515015
0.361977 1.58582 0.6 0.515015
0.387433 1.60022 0.6 0.515015
0.412889 1.61463 0.6 0.515015
0.438345 1.62904 0.6 0.515015
0.463801 1.64345 0.6 0.515015
0.489257 1.65785 0.6 0.515015
0.514713 1.67226 0.6 0.515015
0.540169 1.68667 0.6 0.515015
0.565625 1.70108 0.6 0.515015
0.591081 1.71549 0.6 0.515015
0.616537 1.72989 0.6 0.515015
0.641993 1.7443 0.6 0.515015
0.667449 1.75871 0.6 0.515015
0.692905 1.77312 0.6 0.515015
0.718361 1.78752 0.6 0.515015
0.743817 1.80193 0.6 0.515015
0.769273 1.81634 0.6 0.515015
0.794729 1.83075 0.6 0.515015
0.820184 1.84515 0.6 0.515015
0.84564 1.85956 0.6 0.515015
0.871096 1.87397 0.6 0.515015
0.896552 1.88838 0.6 0.515015
0.922008 1.90278 0.6 0.515015
0.947464 1.91719 0.6 0.515015
0.97292 1.9316 0.6 0.515015
0.998376 1.94601 0.6 0.515015
1.02383 1.96042 0.6 0.515015
1.04929 1.97482 0.6 0.515015
1.07474 1.98923 0.6 0.515015
1.1002 2.00364 0.6 0.515015
1.12566 2.01804 0.6 0.515015
1.15111 2.03245 0.6 0.515015
1.17657 2.04685 0.6 0.515015
1.20202 2.06126 0.6 0.515015
1.22748 2.07566 0.6 0.515015
1.25294 2.09007 0.6 0.515015
1.27839 2.10447 0.6 0.515015
1.30385 2.11888 0.6 0.515015
1.3293 2.13328 0.6 0.515015
1.35476 2.14769 0.6 0.515015
1.38022 2.1621 0.6 0.515015
1.40567 2.1765 0.6 0.515015
1.43113 2.19091 0.6 0.515015
1.45658 2.20531 0.6 0.515015
1.48204 2.21972 0.6 0.515015
1.5075 2.23412 0.6 0.515015
1.53295 2.24853 0.6 0.515015
1.55841 2.26293 0.6 0.515015
1.58386 2.27734 0.6 0.515015
1.60932 2.29174 0.6 0.515015
1.63477 2.30615 0.6 0.515015
1.66023 2.32055 0.6 0.515015
1.68569 2.33496 0.6 0.515015
1.71114 2.34936 0.6 0.515015
1.7366 2.36377 0.6 0.515015
1.76205 2.37817 0.6 0.515015
1.78751 2.39258 0.6 0.515015
1.81297 2.40698 0.6 0.515015
1.83842 2.42139 0.6 0.515015
1.86388 2.43579 0.6 0.515015
1.88933 2.4502 0.6 0.515015
1.91479 2.46461 0.605 0.515015
1.94025 2.47901 0.605 0.515015
1.93862 2.47809 0.6 0.515015
1.93862 2.47809 0.609999 0.515015
1.94267 2.47233 0.605 4.84288e-08
1.97073 2.47934 0.605 0.515015
1.99619 2.49374 0.605 0.515015
1.99171 2.49926 0.605 1.03003
1.99456 2.49282 0.6 0.515015
2.01886 2.49956 0.605 4.84288e-08
2.04436 2.49956 0.605 4.84288e-08
2.06987 2.49956 0.605 4.84288e-08
2.09537 2.49956 0.605 4.84288e-08
2.09349 2.49956 0.6 4.84288e-08
2.09349 2.49956 0.609999 4.84288e-08
2.09433 2.49345 0.605 5.76817
2.09257 2.49405 0.6 5.76817
2.09257 2.49405 0.609999 5.76817
2.06799 2.49956 0.6 4.84288e-08
2.08974 2.49956 0.605 4.84288e-08
2.08786 2.49956 0.6 4.84288e-08
2.08886 2.49435 0.605 5.76817
2.0871 2.49495 0.6 5.76817
2.09877 2.48408 0.6 5.25316
2.06799 2.49956 0.609999 4.84288e-08
2.08974 2.49956 0.614999 4.84288e-08
2.08786 2.49956 0.609999 4.84288e-08
2.08886 2.49435 0.614999 5.76817
2.0871 2.49495 0.609999 5.76817
2.09877 2.48408 0.609999 5.25316
2.06883 2.49345 0.605 5.76817
2.09314 2.48671 0.605 6.28319
2.09131 2.48705 0.6 6.28319
2.09131 2.48705 0.609999 6.28319
2.09103 2.48089 0.605 5.76817
2.11533 2.47415 0.605 6.28319
2.1135 2.47449 0.6 6.28319
2.1135 2.47449 0.609999 6.28319
2.11322 2.46833 0.605 5.76817
2.11159 2.46925 0.6 5.76817
2.11159 2.46925 0.609999 5.76817
2.10931 2.46352 0.605 5.25316
2.08939 2.48181 0.6 5.76817
2.11012 2.47607 0.605 6.28319
2.10829 2.47641 0.6 6.28319
2.10669 2.47203 0.6 5.76817
2.10832 2.4711 0.605 5.76817
2.11837 2.46116 0.6 5.25316
2.1196 2.45977 0.605 5.25316
2.08939 2.48181 0.609999 5.76817
2.11012 2.47607 0.614999 6.28319
2.10829 2.47641 0.609999 6.28319
2.10669 2.47203 0.609999 5.76817
2.10832 2.4711 0.614999 5.76817
2.11837 2.46116 0.609999 5.25316
2.1196 2.45977 0.614999 5.25316
2.10808 2.46491 0.609999 5.25316
2.10808 2.46491 0.6 5.25316
2.12833 2.45119 0.6 5.76817
2.14191 2.44743 0.6 6.28319
2.15735 2.45145 0.605 0.515015
2.17138 2.45939 0.6 0.515015
2.17138 2.45939 0.609999 0.515015
2.1745 2.4562 0.605 6.28319
2.19178 2.46051 0.605 0.515015
2.20744 2.46938 0.605 0.515015
2.2231 2.47824 0.605 0.515015
2.23877 2.48711 0.605 0.515015
2.25443 2.49597 0.605 0.515015
2.2701 2.50483 0.605 0.515015
2.28576 2.5137 0.605 0.515015
2.30142 2.52256 0.605 0.515015
2.31709 2.53143 0.605 0.515015
2.33275 2.54029 0.605 0.515015
2.34842 2.54916 0.605 0.515015
2.36408 2.55802 0.605 0.515015
2.37974 2.56689 0.605 0.515015
2.39541 2.57575 0.605 0.515015
2.41107 2.58461 0.605 0.515015
2.42674 2.59348 0.605 0.515015
2.4424 2.60234 0.605 0.515015
2.45806 2.61121 0.605 0.515015
2.47373 2.62007 0.605 0.515015
2.48939 2.62894 0.605 0.515015
2.50506 2.6378 0.605 0.515015
2.52072 2.64666 0.605 0.515015
2.53639 2.65553 0.605 0.515015
2.55205 2.66439 0.605 0.515015
2.56771 2.67326 0.605 0.515015
2.58338 2.68212 0.605 0.515015
2.59904 2.69099 0.605 0.515015
2.61471 2.69985 0.605 0.515015
2.63037 2.70872 0.605 0.515015
2.64603 2.71758 0.605 0.515015
2.6617 2.72644 0.605 0.515015
2.67736 2.73531 0.605 0.515015
2.69303 2.74417 0.605 0.515015
2.70869 2.75304 0.605 0.515015
2.72435 2.7619 0.605 0.515015
2.74002 2.77077 0.605 0.515015
2.75568 2.77963 0.605 0.515015
2.77135 2.7885 0.605 0.515015
2.78701 2.79736 0.605 0.515015
2.80268 2.80622 0.605 0.515015
2.81834 2.81509 0.605 0.515015
2.834 2.82395 0.605 0.515015
2.84967 2.83282 0.605 0.515015
2.86533 2.84168 0.605 0.515015
2.881 2.85055 0.605 0.515015
2.89666 2.85941 0.605 0.515015
2.91232 2.86827 0.605 0.515015
2.92799 2.87714 0.605 0.515015
2.94365 2.886 0.605 0.515015
2.95932 2.89487 0.605 0.515015
2.97498 2.90373 0.605 0.515015
2.99064 2.9126 0.605 0.515015
3.00631 2.92146 0.605 0.515015
3.02197 2.93033 0.605 0.515015
3.03764 2.93919 0.605 0.515015
3.0533 2.94805 0.605 0.515015
3.06896 2.95692 0.605 0.515015
3.08463 2.96578 0.605 0.515015
3.10029 2.97465 0.605 0.515015
3.11596 2.98351 0.605 0.515015
3.13162 2.99238 0.605 0.515015
3.14729 3.00124 0.605 0.515015
3.16295 3.01011 0.605 0.515015
3.17861 3.01897 0.605 0.515015
3.19428 3.02783 0.605 0.515015
3.20994 3.0367 0.605 0.515015
3.22561 3.04556 0.605 0.515015
3.24127 3.05443 0.605 0.515015
3.25693 3.06329 0.605 0.515015
3.2726 3.07216 0.605 0.515015
3.28826 3.08102 0.605 0.515015
3.30393 3.08988 0.605 0.515015
3.31959 3.09875 0.605 0.515015
3.33525 3.10761 0.605 0.515015
3.35092 3.11648 0.605 0.515015
3.36658 3.12534 0.605 0.515015
3.38225 3.13421 0.605 0.515015
3.39791 3.14307 0.605 0.515015
3.41357 3.15194 0.605 0.515015
3.42924 3.1608 0.605 0.515015
3.4449 3.16966 0.605 0.515015
3.46057 3.17853 0.605 0.515015
3.47623 3.18739 0.605 0.515015
3.4919 3.19626 0.605 0.515015
3.50756 3.20512 0.605 0.515015
3.52322 3.21399 0.605 0.515015
3.53889 3.22285 0.605 0.515015
3.55455 3.23172 0.605 0.515015
3.57022 3.24058 0.605 0.515015
3.58588 3.24944 0.605 0.515015
3.60154 3.25831 0.605 0.515015
3.61721 3.26717 0.605 0.515015
3.63287 3.27604 0.605 0.515015
3.64854 3.2849 0.605 0.515015
3.6642 3.29377 0.605 0.515015
3.67986 3.30263 0.605 0.515015
3.69553 3.3115 0.605 0.515015
3.71119 3.32036 0.605 0.515015
3.72686 3.32922 0.605 0.515015
3.74252 3.33809 0.605 0.515015
3.75819 3.34695 0.605 0.515015
3.77385 3.35582 0.605 0.515015
3.78951 3.36468 0.605 0.515015
3.80518 3.37355 0.605 0.515015
3.82084 3.38241 0.605 0.515015
3.83651 3.39127 0.605 0.515015
3.85217 3.40014 0.605 0.515015
3.86783 3.409 0.605 0.515015
3.8835 3.41787 0.605 0.515015
3.89916 3.42673 0.605 0.515015
3.91483 3.4356 0.605 0.515015
3.93049 3.44446 0.605 0.515015
3.94615 3.45333 0.605 0.515015
3.96182 3.46219 0.605 0.515015
3.97748 3.47105 0.605 0.515015
3.99315 3.47992 0.605 0.515015
4.00881 3.48878 0.605 0.515015
4.02448 3.49765 0.605 0.515015
4.04015 3.50651 0.605 0.515015
4.05582 3.51538 0.605 0.515015
4.07149 3.52424 0.605 0.515015
4.08716 3.53311 0.605 0.515015
4.10283 3.54197 0.605 0.515015
4.1185 3.55083 0.605 0.515015
4.13416 3.5597 0.605 0.515015
4.14983 3.56856 0.605 0.515015
4.1655 3.57743 0.605 0.515015
4.18117 3.58629 0.605 0.515015
4.19684 3.59516 0.605 0.515015
4.21251 3.60402 0.605 0.515015
4.22818 3.61288 0.605 0.515015
4.24385 3.62175 0.605 0.515015
4.25952 3.63061 0.605 0.515015
4.27518 3.63948 0.605 0.515015
4.29085 3.64834 0.605 0.515015
4.30652 3.65721 0.605 0.515015
4.32219 3.66607 0.605 0.515015
4.33786 3.67494 0.605 0.515015
4.35353 3.6838 0.605 0.515015
4.3692 3.69266 0.605 0.515015
4.38487 3.70153 0.605 0.515015
4.40054 3.71039 0.605 0.515015
4.4162 3.71926 0.605 0.515015
4.43187 3.72812 0.605 0.515015
4.44754 3.73699 0.605 0.515015
4.46321 3.74585 0.605 0.515015
4.47888 3.75472 0.605 0.515015
4.49455 3.76358 0.605 0.515015
4.51022 3.77244 0.605 0.515015
4.52589 3.78131 0.605 0.515015
4.54155 3.79017 0.605 0.515015
4.55722 3.79904 0.605 0.515015
4.57289 3.8079 0.605 0.515015
4.58856 3.81677 0.605 0.515015
4.60423 3.82563 0.605 0.515015
4.6199 3.83449 0.605 0.515015
4.63557 3.84336 0.605 0.515015
4.65124 3.85222 0.605 0.515015
4.66691 3.86109 0.605 0.515015
4.68257 3.86995 0.605 0.515015
4.69824 3.87882 0.605 0.515015
4.71391 3.88768 0.605 0.515015
4.72958 3.89655 0.605 0.515015
4.74525 3.90541 0.605 0.515015
4.76092 3.91427 0.605 0.515015
4.77659 3.92314 0.605 0.515015
4.79226 3.932 0.605 0.515015
4.80793 3.94087 0.605 0.515015
4.82359 3.94973 0.605 0.515015
4.83926 3.9586 0.605 0.515015
4.85493 3.96746 0.605 0.515015
4.8706 3.97633 0.605 0.515015
4.88627 3.98519 0.605 0.515015
4.90194 3.99405 0.605 0.515015
4.91761 4.00292 0.605 0.515015
4.93328 4.01179 0.605 0.515015
4.94895 4.02066 0.605 0.515015
4.96461 4.02953 0.605 0.515015
4.98028 4.0384 0.605 0.515015
4.99595 4.04727 0.605 0.515015
5.01162 4.05614 0.605 0.515015
5.02729 4.065 0.605 0.515015
5.04296 4.07387 0.605 0.515015
5.05863 4.08274 0.605 0.515015
5.0743 4.09161 0.605 0.515015
5.08997 4.10048 0.605 0.515015
5.10563 4.10935 0.605 0.515015
5.1213 4.11822 0.605 0.515015
5.13697 4.12709 0.605 0.515015
5.15264 4.13596 0.605 0.515015
5.16831 4.14483 0.605 0.515015
5.18398 4.1537 0.605 0.515015
5.19965 4.16257 0.605 0.515015
5.21532 4.17143 0.605 0.515015
5.23099 4.1803 0.605 0.515015
5.24665 4.18917 0.605 0.515015
5.26232 4.19804 0.605 0.515015
5.27799 4.20691 0.605 0.515015
5.29366 4.21578 0.605 0.515015
5.30933 4.22465 0.605 0.515015
5.325 4.23352 0.605 0.515015
5.33791 4.24578 0.605 1.03003
5.34718 4.26121 0.605 1.03003
5.35645 4.27664 0.605 1.03003
5.36572 4.29207 0.605 1.03003
5.36903 4.28923 0.605 0.515015
5.38194 4.30149 0.605 1.03003
5.39121 4.31692 0.605 1.03003
5.40048 4.33235 0.605 1.03003
5.40975 4.34778 0.605 1.03003
5.41902 4.36321 0.605 1.03003
5.42829 4.37864 0.605 1.03003
5.43756 4.39407 0.605 1.03003
5.44683 4.4095 0.605 1.03003
5.4561 4.42493 0.605 1.03003
5.46537 4.44036 0.605 1.03003
5.47464 4.45579 0.605 1.03003
5.47796 4.45295 0.605 0.515015
5.49363 4.46182 0.605 0.515015
5.5093 4.47069 0.605 0.515015
5.50654 4.47408 0.605 1.03003
5.50766 4.46976 0.6 0.515015
5.51788 4.47947 0.6 1.03003
5.50766 4.46976 0.609999 0.515015
5.51788 4.47947 0.609999 1.03003
5.5053 4.47269 0.6 1.03003
5.5053 4.47269 0.609999 1.03003
5.51078 4.46658 0.605 6.28319
5.50895 4.46623 0.6 6.28319
5.50895 4.46623 0.609999 6.28319
5.49087 4.46521 0.605 1.03003
5.50346 4.4778 0.605 0.515015
5.49917 4.47904 0.6 1.03003
5.49917 4.47904 0.609999 1.03003
5.50203 4.4766 0.6 0.515015
5.50203 4.4766 0.609999 0.515015
5.49199 4.46089 0.6 0.515015
5.50439 4.46791 0.605 0.515015
5.51842 4.47585 0.605 0.515015
5.51461 4.47762 0.605 1.03003
5.51678 4.47493 0.6 0.515015
5.51678 4.47493 0.609999 0.515015
5.5198 4.47202 0.605 6.28319
5.51797 4.47168 0.6 6.28319
5.51797 4.47168 0.609999 6.28319
5.50221 4.4706 0.605 1.03003
5.50557 4.46466 0.605 6.28319
5.51924 4.46807 0.6 0.515015
5.51924 4.46807 0.609999 0.515015
5.51982 4.46466 0.6 6.28319
5.51982 4.46466 0.609999 6.28319
5.51924 4.46124 0.6 5.76817
5.51924 4.46124 0.609999 5.76817
5.49199 4.46089 0.609999 0.515015
5.50439 4.46791 0.614999 0.515015
5.51842 4.47585 0.614999 0.515015
5.51584 4.47901 0.619999 1.03003
5.51461 4.47762 0.614999 1.03003
5.51678 4.47493 0.619999 0.515015
5.53036 4.47869 0.624998 6.28319
5.5198 4.47202 0.614999 6.28319
5.51797 4.47168 0.619999 6.28319
5.53164 4.47509 0.624998 0.515015
5.53222 4.47168 0.624998 6.28319
5.53164 4.46826 0.624998 5.76817
5.50221 4.4706 0.614999 1.03003
5.50557 4.46466 0.614999 6.28319
5.51924 4.46807 0.619999 0.515015
5.52946 4.47778 0.624998 1.03003
5.51982 4.46466 0.619999 6.28319
5.53349 4.46807 0.624998 0.515015
5.53407 4.46466 0.624998 6.28319
5.53349 4.46124 0.624998 5.76817
5.5489 4.45714 0.624998 6.28319
5.54707 4.45748 0.619999 6.28319
5.54707 4.45748 0.629998 6.28319
5.54589 4.45422 0.619999 5.76817
5.55947 4.45046 0.614999 6.28319
5.55947 4.45046 0.624998 6.28319
5.54753 4.4533 0.624998 5.76817
5.55829 4.44721 0.614999 5.76817
5.55829 4.44721 0.624998 5.76817
5.55993 4.44628 0.619999 5.76817
5.54589 4.45422 0.629998 5.76817
5.55947 4.45046 0.634997 6.28319
5.55829 4.44721 0.634997 5.76817
5.55993 4.44628 0.629998 5.76817
5.55611 4.44452 0.614999 5.25316
5.55611 4.44452 0.624998 5.25316
5.55611 4.44452 0.634997 5.25316
5.54494 4.45015 0.624998 5.25316
5.54371 4.45154 0.619999 5.25316
5.54371 4.45154 0.629998 5.25316
5.51924 4.46124 0.619999 5.76817
5.53282 4.45748 0.624998 6.28319
5.5592 4.44243 0.629998 5.25316
5.55734 4.44313 0.619999 5.25316
5.53164 4.45422 0.624998 5.76817
5.54705 4.45012 0.624998 6.28319
5.54522 4.45046 0.619999 6.28319
5.55889 4.45387 0.614999 0.515015
5.55889 4.45387 0.624998 0.515015
5.54522 4.45046 0.629998 6.28319
5.55889 4.45387 0.634997 0.515015
5.54404 4.44721 0.619999 5.76817
5.55762 4.44344 0.614999 6.28319
5.55762 4.44344 0.624998 6.28319
5.55945 4.4431 0.619999 6.28319
5.54404 4.44721 0.629998 5.76817
5.55762 4.44344 0.634997 6.28319
5.55945 4.4431 0.629998 6.28319
5.54568 4.44628 0.624998 5.76817
5.56135 4.43741 0.619999 5.76817
5.5785 4.43266 0.619999 6.28319
5.59401 4.43636 0.624998 0.515015
5.59463 4.43266 0.624998 6.28319
5.59401 4.42895 0.624998 5.76817
5.57667 4.433 0.614999 6.28319
5.57667 4.433 0.624998 6.28319
5.59034 4.43641 0.629998 0.515015
5.59092 4.433 0.629998 6.28319
5.59034 4.42958 0.629998 5.76817
5.57538 4.42947 0.619999 5.76817
5.58896 4.42571 0.624998 6.28319
5.57702 4.42854 0.614999 5.76817
5.57702 4.42854 0.624998 5.76817
5.59417 4.42379 0.624998 6.28319
5.59234 4.42413 0.629998 6.28319
5.59268 4.41967 0.619999 5.76817
5.60984 4.41492 0.619999 6.28319
5.60801 4.41526 0.614999 6.28319
5.60801 4.41526 0.624998 6.28319
5.60835 4.4108 0.619999 5.76817
5.59432 4.41875 0.624998 5.76817
5.61505 4.41301 0.619999 6.28319
5.61505 4.41301 0.629998 6.28319
5.61322 4.41335 0.624998 6.28319
5.61161 4.40896 0.624998 5.76817
5.61325 4.40804 0.619999 5.76817
5.61325 4.40804 0.629998 5.76817
5.56135 4.43741 0.629998 5.76817
5.5785 4.43266 0.629998 6.28319
5.59577 4.43697 0.629998 0.515015
5.5965 4.43266 0.629998 6.28319
5.59401 4.43636 0.634997 0.515015
5.59463 4.43266 0.634997 6.28319
5.59577 4.42834 0.629998 5.76817
5.59401 4.42895 0.634997 5.76817
5.57667 4.433 0.634997 6.28319
5.59034 4.43641 0.639997 0.515015
5.59092 4.433 0.639997 6.28319
5.60459 4.43641 0.644997 0.515015
5.60517 4.433 0.644997 6.28319
5.61884 4.43641 0.644997 0.515015
5.61942 4.433 0.644997 6.28319
5.61884 4.42958 0.644997 5.76817
5.60459 4.42958 0.644997 5.76817
5.61817 4.42582 0.644997 6.28319
5.61699 4.42257 0.644997 5.76817
5.61863 4.42164 0.649996 5.76817
5.61481 4.41988 0.639997 5.25316
5.61481 4.41988 0.649996 5.25316
5.61605 4.41849 0.644997 5.25316
5.59034 4.42958 0.639997 5.76817
5.60393 4.42582 0.644997 6.28319
5.6176 4.42923 0.644997 0.515015
5.61936 4.42984 0.649996 0.515015
5.60274 4.42257 0.644997 5.76817
5.61815 4.41846 0.644997 6.28319
5.63615 4.41846 0.649996 6.28319
5.65415 4.41846 0.649996 6.28319
5.67214 4.41846 0.649996 6.28319
5.67027 4.41846 0.644997 6.28319
5.67027 4.41846 0.654996 6.28319
5.67142 4.41415 0.649996 5.76817
5.66966 4.41475 0.644997 5.76817
5.66966 4.41475 0.654996 5.76817
5.65227 4.41846 0.644997 6.28319
5.66652 4.41846 0.649996 6.28319
5.66595 4.41505 0.649996 5.76817
5.67953 4.41128 0.644997 6.28319
5.67953 4.41128 0.654996 6.28319
5.67834 4.40803 0.644997 5.76817
5.67834 4.40803 0.654996 5.76817
5.67998 4.4071 0.649996 5.76817
5.65227 4.41846 0.654996 6.28319
5.66652 4.41846 0.659996 6.28319
5.68077 4.41846 0.664995 6.28319
5.69502 4.41846 0.664995 6.28319
5.6969 4.41846 0.669995 6.28319
5.69444 4.41505 0.664995 5.76817
5.6962 4.41444 0.669995 5.76817
5.68019 4.41505 0.664995 5.76817
5.69378 4.41128 0.664995 6.28319
5.69561 4.41094 0.669995 6.28319
5.69259 4.40803 0.664995 5.76817
5.69423 4.4071 0.669995 5.76817
5.69041 4.40534 0.664995 5.25316
5.66595 4.41505 0.659996 5.76817
5.67953 4.41128 0.664995 6.28319
5.6932 4.4147 0.664995 0.515015
5.69496 4.4153 0.669995 0.515015
5.67834 4.40803 0.664995 5.76817
5.69193 4.40426 0.664995 6.28319
5.69376 4.40392 0.669995 6.28319
5.69074 4.40101 0.664995 5.76817
5.70432 4.39724 0.664995 6.28319
5.71857 4.39724 0.664995 6.28319
5.718 4.39383 0.664995 5.76817
5.71976 4.39323 0.669995 5.76817
5.70615 4.3969 0.669995 6.28319
5.67998 4.4071 0.659996 5.76817
5.69714 4.40235 0.664995 6.28319
5.69565 4.39823 0.664995 5.76817
5.71098 4.39382 0.664995 6.28319
5.71281 4.39348 0.669995 6.28319
5.69165 4.40395 0.669995 5.25316
5.70968 4.39029 0.664995 5.76817
5.71132 4.38936 0.669995 5.76817
5.69238 4.40008 0.669995 5.76817
5.70771 4.39567 0.674995 6.28319
5.70805 4.39121 0.674995 5.76817
5.67987 4.40505 0.644997 5.25316
5.67987 4.40505 0.654996 5.25316
5.65342 4.41415 0.649996 5.76817
5.67058 4.40939 0.649996 6.28319
5.66909 4.40528 0.649996 5.76817
5.66875 4.40973 0.644997 6.28319
5.66875 4.40973 0.654996 6.28319
5.70038 4.39538 0.664995 5.76817
5.71579 4.39127 0.664995 6.28319
5.67617 4.40534 0.649996 5.25316
5.71442 4.38743 0.664995 5.76817
5.69775 4.39312 0.664995 5.25316
5.68856 4.39832 0.664995 5.25316
5.67617 4.40534 0.659996 5.25316
5.66745 4.40621 0.654996 5.76817
5.67985 4.39919 0.649996 5.76817
5.66745 4.40621 0.644997 5.76817
5.7018 4.39418 0.669995 5.76817
5.71713 4.38976 0.669995 6.28319
5.71896 4.38942 0.674995 6.28319
5.7199 4.38059 0.664995 5.25316
5.67985 4.39919 0.659996 5.76817
5.69343 4.39542 0.664995 6.28319
5.7071 4.39884 0.664995 0.515015
5.70887 4.39944 0.669995 0.515015
5.69225 4.39217 0.664995 5.76817
5.70583 4.3884 0.664995 6.28319
5.7195 4.39182 0.664995 0.515015
5.70766 4.38806 0.669995 6.28319
5.65166 4.41475 0.644997 5.76817
5.66524 4.41099 0.649996 6.28319
5.67891 4.4144 0.644997 0.515015
5.67891 4.4144 0.654996 0.515015
5.67949 4.41099 0.649996 6.28319
5.66406 4.40773 0.649996 5.76817
5.67947 4.40363 0.649996 6.28319
5.67764 4.40397 0.644997 6.28319
5.67764 4.40397 0.654996 6.28319
5.65166 4.41475 0.654996 5.76817
5.66524 4.41099 0.659996 6.28319
5.67949 4.41099 0.659996 6.28319
5.67891 4.4144 0.664995 0.515015
5.66406 4.40773 0.659996 5.76817
5.67947 4.40363 0.659996 6.28319
5.69498 4.40733 0.664995 0.515015
5.67764 4.40397 0.664995 6.28319
5.69131 4.40738 0.669995 0.515015
5.71583 4.38624 0.669995 5.76817
5.71747 4.38531 0.674995 5.76817
5.70856 4.38597 0.669995 5.25316
5.70733 4.38737 0.664995 5.25316
5.7022 4.38991 0.664995 5.25316
5.69289 4.39484 0.664995 5.25316
5.6774 4.40395 0.664995 5.25316
5.70464 4.38515 0.669995 5.76817
5.71823 4.38139 0.664995 6.28319
5.71823 4.38139 0.674995 6.28319
5.67646 4.40071 0.664995 5.76817
5.69004 4.39695 0.669995 6.28319
5.67646 4.40071 0.654996 5.76817
5.67646 4.40071 0.644997 5.76817
5.7191 4.38439 0.664995 5.76817
5.70424 4.39136 0.664995 5.76817
5.71956 4.38695 0.664995 6.28319
5.70566 4.39016 0.669995 5.76817
5.69871 4.39152 0.669995 5.25316
5.6898 4.39693 0.669995 5.25316
5.63428 4.41846 0.644997 6.28319
5.64853 4.41846 0.649996 6.28319
5.66277 4.41846 0.644997 6.28319
5.67702 4.41846 0.644997 6.28319
5.6789 4.41846 0.649996 6.28319
5.67645 4.41505 0.644997 5.76817
5.67821 4.41444 0.649996 5.76817
5.66277 4.41846 0.654996 6.28319
5.67702 4.41846 0.654996 6.28319
5.6789 4.41846 0.659996 6.28319
5.67645 4.41505 0.654996 5.76817
5.67821 4.41444 0.659996 5.76817
5.6622 4.41505 0.644997 5.76817
5.6622 4.41505 0.654996 5.76817
5.6746 4.40803 0.649996 5.76817
5.6746 4.40803 0.659996 5.76817
5.67242 4.40534 0.644997 5.25316
5.67242 4.40534 0.654996 5.25316
5.64795 4.41505 0.649996 5.76817
5.66153 4.41128 0.644997 6.28319
5.67521 4.4147 0.649996 0.515015
5.66153 4.41128 0.654996 6.28319
5.67521 4.4147 0.659996 0.515015
5.68879 4.41846 0.664995 6.28319
5.66035 4.40803 0.644997 5.76817
5.67393 4.40426 0.649996 6.28319
5.66035 4.40803 0.654996 5.76817
5.67393 4.40426 0.659996 6.28319
5.6876 4.40768 0.664995 0.515015
5.69782 4.41738 0.664995 1.03003
5.69906 4.41877 0.669995 1.03003
5.67275 4.40101 0.649996 5.76817
5.67275 4.40101 0.659996 5.76817
5.68633 4.39724 0.664995 6.28319
5.70058 4.39724 0.669995 6.28319
5.7167 4.39724 0.669995 6.28319
5.71482 4.39724 0.674995 6.28319
5.71425 4.39383 0.669995 5.76817
5.71601 4.39323 0.674995 5.76817
5.71991 4.38249 0.669995 5.76817
5.70281 4.39256 0.674995 5.76817
5.71639 4.38879 0.679994 6.28319
5.73007 4.39221 0.684994 0.515015
5.73064 4.38879 0.684994 6.28319
5.73007 4.38538 0.684994 5.76817
5.74247 4.37836 0.684994 5.76817
5.75605 4.3746 0.684994 6.28319
5.75788 4.37426 0.689994 6.28319
5.75486 4.37134 0.684994 5.76817
5.70529 4.38782 0.674995 5.25316
5.66633 4.40189 0.649996 5.25316
5.7565 4.37042 0.689994 5.76817
5.7441 4.37744 0.689994 5.76817
5.75943 4.37302 0.694993 6.28319
5.75977 4.36857 0.684994 5.76817
5.71521 4.38554 0.679994 5.76817
5.72879 4.38178 0.684994 6.28319
5.71972 4.38035 0.669995 5.25316
5.71972 4.38035 0.679994 5.25316
5.69453 4.39186 0.664995 4.73815
5.6651 4.40328 0.644997 5.25316
5.6651 4.40328 0.654996 5.25316
5.72761 4.37852 0.684994 5.76817
5.74119 4.37476 0.684994 6.28319
5.75486 4.37817 0.684994 0.515015
5.75662 4.37877 0.689994 0.515015
5.74302 4.37441 0.689994 6.28319
5.75853 4.37812 0.694993 0.515015
5.74001 4.3715 0.684994 5.76817
5.75359 4.36774 0.684994 6.28319
5.75542 4.3674 0.689994 6.28319
5.7524 4.36448 0.684994 5.76817
5.71183 4.38428 0.664995 5.25316
5.69995 4.39012 0.674995 5.25316
5.70188 4.38691 0.669995 5.25316
5.70771 4.38316 0.664995 5.76817
5.69853 4.38836 0.664995 5.76817
5.71211 4.38459 0.664995 6.28319
5.71394 4.38425 0.669995 6.28319
5.68613 4.39538 0.664995 5.76817
5.69971 4.39161 0.664995 6.28319
5.71339 4.39502 0.664995 0.515015
5.71515 4.39563 0.669995 0.515015
5.70154 4.39127 0.669995 6.28319
5.71705 4.39498 0.674995 0.515015
5.67767 4.3965 0.649996 5.25316
5.67767 4.3965 0.659996 5.25316
5.6789 4.39511 0.654996 5.25316
5.6789 4.39511 0.644997 5.25316
5.75813 4.3695 0.694993 5.76817
5.70508 4.38091 0.664995 5.25316
5.6959 4.38611 0.664995 5.25316
5.6835 4.39312 0.664995 5.25316
5.69007 4.38948 0.664995 5.25316
5.67428 4.39803 0.644997 5.25316
5.66188 4.40505 0.649996 5.25316
5.66188 4.40505 0.659996 5.25316
5.63543 4.41415 0.649996 5.76817
5.65258 4.40939 0.649996 6.28319
5.66985 4.4137 0.649996 0.515015
5.66809 4.4131 0.644997 0.515015
5.66809 4.4131 0.654996 0.515015
5.65075 4.40973 0.644997 6.28319
5.66442 4.41315 0.649996 0.515015
5.65075 4.40973 0.654996 6.28319
5.66442 4.41315 0.659996 0.515015
5.67682 4.42017 0.664995 0.515015
5.67464 4.42285 0.664995 1.03003
5.67914 4.43815 0.669995 1.54505
5.67876 4.43633 0.664995 1.54505
5.65109 4.40528 0.649996 5.76817
5.66825 4.40052 0.649996 6.28319
5.66676 4.39641 0.649996 5.76817
5.66642 4.40087 0.644997 6.28319
5.66642 4.40087 0.654996 6.28319
5.75268 4.36866 0.684994 5.25316
5.74029 4.37568 0.684994 5.25316
5.75404 4.36356 0.689994 5.76817
5.74165 4.37058 0.689994 5.76817
5.7588 4.36582 0.684994 6.28319
5.75697 4.36616 0.694993 6.28319
5.75732 4.36171 0.684994 5.76817
5.75895 4.36079 0.689994 5.76817
5.71348 4.38331 0.669995 5.25316
5.71471 4.38192 0.674995 5.25316
5.70914 4.38196 0.669995 5.76817
5.69995 4.38716 0.669995 5.76817
5.71894 4.38206 0.669995 6.28319
5.67428 4.39803 0.664995 5.25316
5.67428 4.39803 0.654996 5.25316
5.67057 4.39832 0.649996 5.25316
5.67057 4.39832 0.659996 5.25316
5.65817 4.40534 0.654996 5.25316
5.65817 4.40534 0.644997 5.25316
5.66512 4.39734 0.644997 5.76817
5.67871 4.39357 0.644997 6.28319
5.66512 4.39734 0.654996 5.76817
5.67871 4.39357 0.654996 6.28319
5.63366 4.41475 0.644997 5.76817
5.64725 4.41099 0.649996 6.28319
5.66092 4.4144 0.644997 0.515015
5.66092 4.4144 0.654996 0.515015
5.71729 4.3774 0.669995 5.76817
5.71562 4.37829 0.674995 5.76817
5.71336 4.37852 0.664995 5.76817
5.69492 4.39004 0.669995 4.73815
5.64946 4.40621 0.654996 5.76817
5.66304 4.40244 0.649996 6.28319
5.67847 4.40646 0.649996 0.515015
5.67671 4.40586 0.644997 0.515015
5.67671 4.40586 0.654996 0.515015
5.66304 4.40244 0.659996 6.28319
5.67847 4.40646 0.659996 0.515015
5.69014 4.41733 0.664995 1.03003
5.67671 4.40586 0.664995 0.515015
5.68911 4.41287 0.669995 0.515015
5.68693 4.41556 0.669995 1.03003
5.69029 4.40962 0.669995 6.28319
5.64946 4.40621 0.644997 5.76817
5.64606 4.40773 0.649996 5.76817
5.65964 4.40397 0.644997 6.28319
5.67332 4.40738 0.649996 0.515015
5.65964 4.40397 0.654996 6.28319
5.67332 4.40738 0.659996 0.515015
5.68571 4.4144 0.664995 0.515015
5.68354 4.41709 0.664995 1.03003
5.6869 4.41115 0.664995 6.28319
5.65846 4.40071 0.644997 5.76817
5.67204 4.39695 0.644997 6.28319
5.67387 4.39661 0.649996 6.28319
5.65846 4.40071 0.654996 5.76817
5.67204 4.39695 0.654996 6.28319
5.67387 4.39661 0.659996 6.28319
5.68938 4.40031 0.664995 0.515015
5.6996 4.41002 0.664995 1.03003
5.75568 4.36264 0.694993 5.76817
5.71973 4.37458 0.664995 5.76817
5.70239 4.38434 0.664995 5.76817
5.68857 4.39256 0.669995 5.76817
5.70215 4.38879 0.674995 6.28319
5.71582 4.39221 0.679994 0.515015
5.72822 4.39923 0.684994 0.515015
5.7294 4.39597 0.684994 6.28319
5.71466 4.37515 0.669995 5.25316
5.7105 4.37608 0.664995 5.25316
5.70605 4.3793 0.669995 5.25316
5.69686 4.3845 0.669995 5.25316
5.67892 4.3893 0.649996 5.76817
5.67916 4.38939 0.659996 5.76817
5.69449 4.38498 0.664995 6.28319
5.70816 4.38839 0.664995 0.515015
5.71961 4.39949 0.669995 1.03003
5.71838 4.3981 0.664995 1.03003
5.70992 4.389 0.669995 0.515015
5.66185 4.39919 0.649996 5.76817
5.66185 4.39919 0.659996 5.76817
5.67543 4.39542 0.664995 6.28319
5.68911 4.39884 0.669995 0.515015
5.69933 4.40854 0.669995 1.03003
5.75392 4.36727 0.689994 5.25316
5.74152 4.37428 0.689994 5.25316
5.75023 4.3618 0.684994 5.25316
5.73783 4.36882 0.684994 5.25316
5.72543 4.37583 0.684994 5.25316
5.71303 4.38285 0.679994 5.25316
5.71973 4.37458 0.674995 5.76817
5.70988 4.38013 0.674995 5.76817
5.70096 4.38554 0.674995 5.76817
5.71454 4.38178 0.679994 6.28319
5.72822 4.38519 0.684994 0.515015
5.73844 4.39489 0.684994 1.03003
5.73967 4.39629 0.689994 1.03003
5.69645 4.38874 0.674995 4.73815
5.69684 4.38692 0.664995 4.73815
5.71783 4.37054 0.669995 5.25316
5.67589 4.39124 0.664995 5.76817
5.69122 4.38683 0.669995 6.28319
5.70665 4.39085 0.674995 0.515015
5.70489 4.39024 0.669995 0.515015
5.71893 4.39819 0.664995 0.515015
5.71511 4.39995 0.674995 1.03003
5.70734 4.38683 0.674995 6.28319
5.61632 4.4188 0.649996 6.28319
5.63057 4.4188 0.649996 6.28319
5.64482 4.4188 0.644997 6.28319
5.66095 4.4188 0.649996 6.28319
5.65849 4.41539 0.649996 5.76817
5.6739 4.41128 0.644997 6.28319
5.6739 4.41128 0.654996 6.28319
5.64482 4.4188 0.654996 6.28319
5.65907 4.4188 0.659996 6.28319
5.67332 4.4188 0.659996 6.28319
5.68699 4.41539 0.664995 5.76817
5.69939 4.40837 0.664995 5.76817
5.67519 4.4188 0.664995 6.28319
5.69132 4.4188 0.669995 6.28319
5.6907 4.41509 0.669995 5.76817
5.69721 4.40568 0.664995 5.25316
5.67274 4.41539 0.659996 5.76817
5.68514 4.40837 0.664995 5.76817
5.69872 4.40461 0.669995 6.28319
5.69844 4.40429 0.669995 5.25316
5.69754 4.40135 0.669995 5.76817
5.6745 4.41478 0.664995 5.76817
5.68853 4.40684 0.669995 5.76817
5.68296 4.40568 0.664995 5.25316
5.70775 4.39164 0.669995 5.25316
5.69536 4.39866 0.669995 5.25316
5.65849 4.41539 0.659996 5.76817
5.67207 4.41162 0.659996 6.28319
5.6739 4.41128 0.664995 6.28319
5.67089 4.40837 0.664995 5.76817
5.68447 4.40461 0.664995 6.28319
5.69991 4.40862 0.664995 0.515015
5.69814 4.40802 0.669995 0.515015
5.6863 4.40426 0.669995 6.28319
5.68329 4.40135 0.664995 5.76817
5.6987 4.39724 0.664995 6.28319
5.68618 4.40392 0.669995 5.25316
5.67253 4.40744 0.644997 5.76817
5.67253 4.40744 0.654996 5.76817
5.69875 4.39714 0.674995 5.25316
5.68493 4.40043 0.669995 5.76817
5.70025 4.39601 0.674995 6.28319
5.71393 4.39943 0.674995 0.515015
5.7145 4.39601 0.679994 6.28319
5.72817 4.3926 0.684994 5.76817
5.73839 4.38289 0.684994 5.25316
5.71393 4.3926 0.679994 5.76817
5.73963 4.3815 0.689994 5.25316
5.70132 4.3922 0.664995 4.73815
5.66871 4.40568 0.659996 5.25316
5.68111 4.39866 0.664995 5.25316
5.64424 4.41539 0.654996 5.76817
5.65783 4.41162 0.649996 6.28319
5.67326 4.41564 0.644997 0.515015
5.67326 4.41564 0.654996 0.515015
5.65783 4.41162 0.659996 6.28319
5.6715 4.41504 0.664995 0.515015
5.68508 4.4188 0.669995 6.28319
5.69933 4.4188 0.674995 6.28319
5.69875 4.41539 0.674995 5.76817
5.64424 4.41539 0.644997 5.76817
5.74836 4.37293 0.684994 5.76817
5.69435 4.39452 0.669995 5.76817
5.7115 4.38976 0.674995 6.28319
5.65664 4.40837 0.649996 5.76817
5.67022 4.40461 0.644997 6.28319
5.67022 4.40461 0.654996 6.28319
5.65664 4.40837 0.659996 5.76817
5.67022 4.40461 0.664995 6.28319
5.6839 4.40802 0.669995 0.515015
5.69535 4.41912 0.674995 1.03003
5.69412 4.41772 0.669995 1.03003
5.69629 4.41504 0.674995 0.515015
5.69931 4.41213 0.664995 6.28319
5.69748 4.41178 0.674995 6.28319
5.74573 4.37068 0.684994 5.25316
5.72414 4.38289 0.684994 5.25316
5.70171 4.39038 0.669995 4.73815
5.66995 4.40429 0.664995 5.25316
5.66904 4.40135 0.654996 5.76817
5.66904 4.40135 0.664995 5.76817
5.68262 4.39759 0.669995 6.28319
5.69806 4.4016 0.669995 0.515015
5.69629 4.401 0.664995 0.515015
5.69629 4.401 0.674995 0.515015
5.66904 4.40135 0.644997 5.76817
5.63245 4.4188 0.654996 6.28319
5.64857 4.4188 0.659996 6.28319
5.66225 4.42221 0.664995 0.515015
5.67628 4.43016 0.669995 0.515015
5.67464 4.42923 0.664995 0.515015
5.6737 4.43331 0.669995 1.03003
5.67247 4.43192 0.664995 1.03003
5.67583 4.42598 0.664995 6.28319
5.67766 4.42632 0.669995 6.28319
5.66282 4.4188 0.664995 6.28319
5.67649 4.42221 0.669995 0.515015
5.67707 4.4188 0.669995 6.28319
5.6932 4.4188 0.674995 6.28319
5.69074 4.41539 0.674995 5.76817
5.67649 4.41539 0.669995 5.76817
5.69008 4.41162 0.674995 6.28319
5.68889 4.40837 0.674995 5.76817
5.68671 4.40568 0.674995 5.25316
5.66225 4.41539 0.664995 5.76817
5.67583 4.41162 0.669995 6.28319
5.6895 4.41504 0.674995 0.515015
5.69911 4.39866 0.679994 5.25316
5.67464 4.40837 0.669995 5.76817
5.68823 4.40461 0.674995 6.28319
5.68704 4.40135 0.674995 5.76817
5.70062 4.39759 0.679994 6.28319
5.7143 4.401 0.684994 0.515015
5.71487 4.39759 0.684994 6.28319
5.72912 4.39759 0.689994 6.28319
5.72854 4.39417 0.689994 5.76817
5.73876 4.38447 0.694993 5.25316
5.7143 4.39417 0.684994 5.76817
5.72788 4.39041 0.689994 6.28319
5.72669 4.38715 0.689994 5.76817
5.73909 4.38014 0.689994 5.76817
5.75267 4.37637 0.689994 6.28319
5.7545 4.37603 0.694993 6.28319
5.75149 4.37312 0.694993 5.76817
5.74073 4.37921 0.694993 5.76817
5.75606 4.3748 0.699993 6.28319
5.76973 4.37821 0.704992 0.515015
5.7703 4.3748 0.704992 6.28319
5.76973 4.37138 0.704992 5.76817
5.70035 4.39727 0.669995 5.25316
5.75476 4.37127 0.699993 5.76817
5.76834 4.36751 0.704992 6.28319
5.76716 4.36425 0.704992 5.76817
5.77956 4.35723 0.704992 5.76817
5.79314 4.35347 0.704992 6.28319
5.80681 4.35688 0.704992 0.515015
5.80857 4.35749 0.709992 0.515015
5.80739 4.35347 0.704992 6.28319
5.80926 4.35347 0.709992 6.28319
5.80681 4.35005 0.704992 5.76817
5.81921 4.34304 0.704992 5.76817
5.80857 4.34945 0.709992 5.76817
5.79497 4.35313 0.709992 6.28319
5.814 4.35804 0.709992 0.515015
5.81224 4.35744 0.704992 0.515015
5.81484 4.35313 0.709992 6.28319
5.81296 4.35313 0.704992 6.28319
5.81048 4.35683 0.714992 0.515015
5.81109 4.35313 0.714992 6.28319
5.81224 4.34881 0.704992 5.76817
5.814 4.34821 0.709992 5.76817
5.81048 4.34942 0.714992 5.76817
5.79195 4.35021 0.704992 5.76817
5.80554 4.34645 0.704992 6.28319
5.81921 4.34986 0.704992 0.515015
5.81978 4.34645 0.704992 6.28319
5.80737 4.34611 0.709992 6.28319
5.80435 4.34319 0.704992 5.76817
5.81793 4.33943 0.704992 6.28319
5.83218 4.33943 0.704992 6.28319
5.83406 4.33943 0.709992 6.28319
5.83161 4.33602 0.704992 5.76817
5.83337 4.33541 0.709992 5.76817
5.81976 4.33909 0.709992 6.28319
5.83964 4.33909 0.709992 6.28319
5.83776 4.33909 0.704992 6.28319
5.83589 4.33909 0.714992 6.28319
5.8388 4.33417 0.709992 5.76817
5.83704 4.33477 0.704992 5.76817
5.83527 4.33538 0.714992 5.76817
5.81675 4.33617 0.704992 5.76817
5.83033 4.33241 0.704992 6.28319
5.67247 4.40568 0.669995 5.25316
5.83216 4.33207 0.709992 6.28319
5.82915 4.32916 0.704992 5.76817
5.72451 4.38447 0.689994 5.25316
5.69668 4.39572 0.679994 5.76817
5.71026 4.39195 0.679994 6.28319
5.72393 4.39537 0.684994 0.515015
5.73751 4.39913 0.684994 6.28319
5.73934 4.39947 0.689994 6.28319
5.72451 4.39195 0.684994 6.28319
5.73818 4.39537 0.684994 0.515015
5.73994 4.39597 0.689994 0.515015
5.73876 4.39195 0.684994 6.28319
5.73818 4.38854 0.684994 5.76817
5.73994 4.38794 0.689994 5.76817
5.72393 4.38854 0.684994 5.76817
5.73751 4.38478 0.684994 6.28319
5.73934 4.38443 0.689994 6.28319
5.73633 4.38152 0.684994 5.76817
5.74991 4.37776 0.684994 6.28319
5.71209 4.39161 0.684994 6.28319
5.7276 4.39532 0.689994 0.515015
5.68486 4.39866 0.674995 5.25316
5.64796 4.41509 0.659996 5.76817
5.66154 4.41133 0.664995 6.28319
5.67521 4.41474 0.669995 0.515015
5.66036 4.40808 0.664995 5.76817
5.67394 4.40431 0.669995 6.28319
5.68761 4.40772 0.674995 0.515015
5.69783 4.41743 0.679994 1.03003
5.77995 4.36168 0.704992 5.25316
5.83079 4.32823 0.709992 5.76817
5.81839 4.33525 0.709992 5.76817
5.83737 4.33015 0.709992 6.28319
5.83555 4.33049 0.704992 6.28319
5.80599 4.34227 0.709992 5.76817
5.82498 4.33717 0.709992 6.28319
5.82315 4.33751 0.704992 6.28319
5.79359 4.34929 0.709992 5.76817
5.81258 4.34419 0.709992 6.28319
5.81075 4.34453 0.704992 6.28319
5.7812 4.35631 0.709992 5.76817
5.80018 4.35121 0.709992 6.28319
5.81929 4.35582 0.704992 0.515015
5.81929 4.35582 0.714992 0.515015
5.81929 4.34661 0.709992 5.76817
5.79835 4.35155 0.704992 6.28319
5.81823 4.35155 0.704992 6.28319
5.79652 4.35189 0.714992 6.28319
5.81019 4.35531 0.719991 0.515015
5.82259 4.36233 0.724991 0.515015
5.83663 4.37027 0.729991 0.515015
5.8523 4.37914 0.729991 0.515015
5.85066 4.37821 0.724991 0.515015
5.85066 4.37821 0.73499 0.515015
5.85379 4.37503 0.729991 6.28319
5.85195 4.37468 0.724991 6.28319
5.85195 4.37468 0.73499 6.28319
5.83499 4.36935 0.724991 0.515015
5.84521 4.37905 0.724991 1.03003
5.84739 4.37636 0.729991 0.515015
5.84857 4.37311 0.729991 6.28319
5.83405 4.37342 0.729991 1.03003
5.83281 4.37203 0.724991 1.03003
5.83617 4.36609 0.724991 6.28319
5.85161 4.37011 0.729991 0.515015
5.84985 4.3695 0.724991 0.515015
5.85042 4.36609 0.724991 6.28319
5.8523 4.36609 0.729991 6.28319
5.84985 4.36268 0.724991 5.76817
5.86343 4.35891 0.724991 6.28319
5.87768 4.35891 0.724991 6.28319
5.87955 4.35891 0.729991 6.28319
5.8771 4.3555 0.724991 5.76817
5.87886 4.3549 0.729991 5.76817
5.86526 4.35857 0.729991 6.28319
5.86224 4.35566 0.724991 5.76817
5.87582 4.35189 0.724991 6.28319
5.87766 4.35155 0.729991 6.28319
5.87464 4.34864 0.724991 5.76817
5.85161 4.36207 0.729991 5.76817
5.87059 4.35698 0.729991 6.28319
5.86876 4.35732 0.724991 6.28319
5.86693 4.35766 0.73499 6.28319
5.86728 4.3532 0.724991 5.76817
5.87628 4.34771 0.729991 5.76817
5.86891 4.35228 0.729991 5.76817
5.86388 4.35473 0.729991 5.76817
5.87921 4.35032 0.73499 6.28319
5.838 4.36643 0.729991 6.28319
5.85704 4.37135 0.729991 0.515015
5.85528 4.37074 0.724991 0.515015
5.85788 4.36643 0.729991 6.28319
5.856 4.36643 0.724991 6.28319
5.85351 4.37014 0.73499 0.515015
5.85413 4.36643 0.73499 6.28319
5.85528 4.36212 0.724991 5.76817
5.85704 4.36152 0.729991 5.76817
5.87594 4.35611 0.73499 6.28319
5.87433 4.35173 0.73499 5.76817
5.85351 4.36273 0.73499 5.76817
5.86709 4.35896 0.73999 6.28319
5.88077 4.36237 0.74499 0.515015
5.89481 4.37032 0.749989 0.515015
5.91047 4.37919 0.749989 0.515015
5.90884 4.37826 0.74499 0.515015
5.90884 4.37826 0.754989 0.515015
5.91196 4.37507 0.749989 6.28319
5.91013 4.37473 0.74499 6.28319
5.91013 4.37473 0.754989 6.28319
5.89317 4.36939 0.74499 0.515015
5.90338 4.3791 0.74499 1.03003
5.90556 4.37641 0.749989 0.515015
5.90675 4.37316 0.749989 6.28319
5.89222 4.37347 0.749989 1.03003
5.89742 4.3905 0.749989 1.54505
5.89703 4.38868 0.74499 1.54505
5.89703 4.38868 0.754989 1.54505
5.89099 4.37208 0.74499 1.03003
5.89929 4.3859 0.749989 1.03003
5.89832 4.3843 0.74499 1.03003
5.8951 4.38556 0.749989 1.54505
5.89546 4.39981 0.74499 1.54505
5.89546 4.39981 0.754989 1.54505
5.89886 4.39914 0.74499 1.03003
5.89886 4.39914 0.754989 1.03003
5.89204 4.39932 0.74499 2.06006
5.89204 4.39932 0.754989 2.06006
5.89435 4.36614 0.74499 6.28319
5.90978 4.37016 0.749989 0.515015
5.90802 4.36955 0.74499 0.515015
5.91824 4.37926 0.74499 1.03003
5.9086 4.36614 0.74499 6.28319
5.91048 4.36614 0.749989 6.28319
5.90802 4.36273 0.74499 5.76817
5.90978 4.36212 0.749989 5.76817
5.89618 4.36648 0.749989 6.28319
5.91521 4.3714 0.749989 0.515015
5.91345 4.37079 0.74499 0.515015
5.91606 4.36648 0.749989 6.28319
5.91418 4.36648 0.74499 6.28319
5.91169 4.37019 0.754989 0.515015
5.9123 4.36648 0.754989 6.28319
5.91345 4.36217 0.74499 5.76817
5.91521 4.36156 0.749989 5.76817
5.91169 4.36277 0.754989 5.76817
5.91824 4.35302 0.74499 5.25316
5.91948 4.35163 0.749989 5.25316
5.88134 4.35896 0.74499 6.28319
5.89502 4.36237 0.74499 0.515015
5.90647 4.37347 0.749989 1.03003
5.90523 4.37208 0.74499 1.03003
5.89559 4.35896 0.74499 6.28319
5.90926 4.36237 0.74499 0.515015
5.91948 4.37208 0.74499 1.03003
5.91103 4.36298 0.749989 0.515015
5.90984 4.35896 0.74499 6.28319
5.91172 4.35896 0.749989 6.28319
5.90926 4.35555 0.74499 5.76817
5.91103 4.35494 0.749989 5.76817
5.89678 4.36298 0.749989 0.515015
5.91092 4.37663 0.749989 1.03003
5.90969 4.37524 0.74499 1.03003
5.90845 4.37385 0.754989 1.03003
5.89747 4.35896 0.749989 6.28319
5.9165 4.36388 0.749989 0.515015
5.91474 4.36327 0.74499 0.515015
5.91735 4.35896 0.749989 6.28319
5.91547 4.35896 0.74499 6.28319
5.91298 4.36267 0.754989 0.515015
5.91359 4.35896 0.754989 6.28319
5.9165 4.35404 0.749989 5.76817
5.91474 4.35465 0.74499 5.76817
5.91298 4.35525 0.754989 5.76817
5.91948 4.34584 0.74499 5.25316
5.89502 4.35555 0.74499 5.76817
5.9086 4.35178 0.74499 6.28319
5.91043 4.35144 0.749989 6.28319
5.90741 4.34853 0.74499 5.76817
5.91981 4.34151 0.74499 5.76817
5.89678 4.35494 0.749989 5.76817
5.91576 4.34985 0.749989 6.28319
5.91393 4.35019 0.74499 6.28319
5.9121 4.35053 0.754989 6.28319
5.91245 4.34607 0.74499 5.76817
5.91408 4.34515 0.749989 5.76817
5.90905 4.3476 0.749989 5.76817
5.91081 4.347 0.754989 5.76817
5.90523 4.34584 0.74499 5.25316
5.91763 4.33882 0.74499 5.25316
5.88077 4.35555 0.74499 5.76817
5.89435 4.35178 0.74499 6.28319
5.90802 4.3552 0.74499 0.515015
5.91824 4.3649 0.74499 1.03003
5.91948 4.36629 0.749989 1.03003
5.90978 4.3558 0.749989 0.515015
5.89618 4.35144 0.749989 6.28319
5.91521 4.35636 0.749989 0.515015
5.91345 4.35575 0.74499 0.515015
5.91169 4.35515 0.754989 0.515015
5.89317 4.34853 0.74499 5.76817
5.90675 4.34476 0.74499 6.28319
5.90858 4.34442 0.749989 6.28319
5.90556 4.34151 0.74499 5.76817
5.91914 4.33775 0.74499 6.28319
5.93339 4.33775 0.74499 6.28319
5.94764 4.33775 0.74499 6.28319
5.96189 4.33775 0.74499 6.28319
5.97614 4.33775 0.74499 6.28319
5.99038 4.33775 0.74499 6.28319
6.00463 4.33775 0.74499 6.28319
6.01888 4.33775 0.74499 6.28319
6.01831 4.33433 0.74499 5.76817
6.00651 4.33775 0.749989 6.28319
6.00406 4.33433 0.74499 5.76817
6.01764 4.33057 0.74499 6.28319
6.01947 4.33023 0.749989 6.28319
6.01646 4.32731 0.74499 5.76817
6.0181 4.32639 0.749989 5.76817
6.00582 4.33373 0.749989 5.76817
5.99226 4.33775 0.749989 6.28319
6.01214 4.33775 0.749989 6.28319
6.01026 4.33775 0.74499 6.28319
6.00839 4.33775 0.754989 6.28319
6.0113 4.33283 0.749989 5.76817
6.00953 4.33343 0.74499 5.76817
6.00777 4.33404 0.754989 5.76817
6.01985 4.32579 0.754989 5.76817
6.01428 4.32463 0.74499 5.25316
5.98981 4.33433 0.74499 5.76817
6.00339 4.33057 0.74499 6.28319
6.01706 4.33398 0.74499 0.515015
6.01883 4.33459 0.749989 0.515015
6.00522 4.33023 0.749989 6.28319
6.00221 4.32731 0.74499 5.76817
6.01579 4.32355 0.74499 6.28319
6.01762 4.32321 0.749989 6.28319
6.01461 4.32029 0.74499 5.76817
6.02819 4.31653 0.74499 6.28319
6.03002 4.31619 0.749989 6.28319
6.01551 4.32324 0.749989 5.25316
5.99157 4.33373 0.749989 5.76817
6.01056 4.32863 0.749989 6.28319
6.00873 4.32897 0.74499 6.28319
6.01799 4.32433 0.759988 5.25316
6.01873 4.32147 0.74499 5.25316
6.0069 4.32931 0.754989 6.28319
6.01624 4.31937 0.749989 5.76817
6.0334 4.31461 0.74499 6.28319
6.03523 4.31427 0.749989 6.28319
6.00724 4.32486 0.74499 5.76817
6.00887 4.32394 0.749989 5.76817
6.02777 4.31853 0.754989 6.28319
6.00385 4.32639 0.749989 5.76817
5.97801 4.33775 0.749989 6.28319
5.99789 4.33775 0.749989 6.28319
6.01964 4.33775 0.754989 6.28319
6.01776 4.33775 0.749989 6.28319
6.017 4.33314 0.749989 5.76817
6.01876 4.33254 0.754989 5.76817
5.99601 4.33775 0.74499 6.28319
5.99414 4.33775 0.754989 6.28319
6.01026 4.33775 0.759988 6.28319
6.02577 4.34145 0.764988 0.515015
6.03599 4.35116 0.764988 1.03003
6.04429 4.36498 0.769988 1.03003
6.05356 4.38041 0.769988 1.03003
6.05876 4.39744 0.769988 1.54505
6.05923 4.41543 0.769988 1.54505
6.05918 4.41355 0.764988 1.54505
6.05918 4.41355 0.774987 1.54505
6.05489 4.41481 0.769988 2.06006
6.05545 4.41304 0.764988 2.06006
6.05545 4.41304 0.774987 2.06006
6.05837 4.39561 0.774987 1.54505
6.05873 4.40986 0.769988 1.54505
6.05873 4.40986 0.779987 1.54505
6.05909 4.42411 0.784987 1.54505
6.05946 4.43836 0.784987 1.54505
6.05982 4.45261 0.784987 1.54505
6.06023 4.46873 0.789986 1.54505
6.05637 4.4861 0.789986 2.06006
6.04444 4.49932 0.789986 2.57508
6.0458 4.49805 0.784987 2.57508
6.0458 4.49805 0.794986 2.57508
6.05693 4.48433 0.784987 2.06006
6.05351 4.498 0.784987 1.54505
6.05023 4.49691 0.784987 2.06006
6.05322 4.49984 0.789986 1.54505
6.04934 4.49857 0.789986 2.06006
6.04749 4.49479 0.789986 2.57508
6.05693 4.48433 0.794986 2.06006
6.05351 4.498 0.794986 1.54505
6.05322 4.49984 0.799986 1.54505
6.05364 4.51596 0.804985 1.54505
6.054 4.53021 0.804985 1.54505
6.05805 4.53129 0.809985 1.03003
6.0574 4.52954 0.804985 1.03003
6.06736 4.53951 0.804985 0.515015
6.05405 4.53208 0.809985 1.54505
6.05057 4.52972 0.804985 2.06006
6.05002 4.5315 0.809985 2.06006
6.05732 4.51525 0.804985 1.03003
6.06562 4.52907 0.809985 1.03003
6.06466 4.52747 0.804985 1.03003
6.07199 4.53969 0.804985 1.03003
6.07604 4.53863 0.809985 0.515015
6.07462 4.53744 0.804985 0.515015
6.06729 4.52522 0.804985 0.515015
6.08133 4.53316 0.809985 0.515015
6.09848 4.53792 0.809985 6.28319
6.11648 4.53792 0.809985 6.28319
6.13447 4.53792 0.809985 6.28319
6.15247 4.53792 0.809985 6.28319
6.17046 4.53792 0.809985 6.28319
6.18846 4.53792 0.809985 6.28319
6.20646 4.53792 0.809985 6.28319
6.22445 4.53792 0.809985 6.28319
6.24245 4.53792 0.809985 6.28319
6.26044 4.53792 0.809985 6.28319
6.27844 4.53792 0.809985 6.28319
6.29643 4.53792 0.809985 6.28319
6.31371 4.54223 0.809985 0.515015
6.32661 4.55449 0.809985 1.03003
6.32938 4.5511 0.809985 0.515015
6.34504 4.55997 0.809985 0.515015
6.3434 4.55904 0.804985 0.515015
6.3434 4.55904 0.814984 0.515015
6.34653 4.55585 0.809985 6.28319
6.36453 4.55585 0.809985 6.28319
6.3818 4.56017 0.809985 0.515015
6.39471 4.57243 0.809985 1.03003
6.39747 4.56904 0.809985 0.515015
6.41314 4.5779 0.809985 0.515015
6.40914 4.5799 0.804985 1.03003
6.4115 4.57698 0.804985 0.515015
6.4115 4.57698 0.814984 0.515015
6.40914 4.5799 0.814984 1.03003
6.41462 4.57379 0.809985 6.28319
6.43189 4.5781 0.809985 0.515015
6.43262 4.57379 0.809985 6.28319
6.44989 4.5781 0.809985 0.515015
6.45061 4.57379 0.809985 6.28319
6.46789 4.5781 0.809985 0.515015
6.46861 4.57379 0.809985 6.28319
6.48588 4.5781 0.809985 0.515015
6.48661 4.57379 0.809985 6.28319
6.50388 4.5781 0.809985 0.515015
6.5046 4.57379 0.809985 6.28319
6.52187 4.5781 0.809985 0.515015
6.5226 4.57379 0.809985 6.28319
6.53987 4.5781 0.809985 0.515015
6.54059 4.57379 0.809985 6.28319
6.55786 4.5781 0.809985 0.515015
6.55859 4.57379 0.809985 6.28319
6.57586 4.5781 0.809985 0.515015
6.57658 4.57379 0.809985 6.28319
6.59386 4.5781 0.809985 0.515015
6.59458 4.57379 0.809985 6.28319
6.61185 4.5781 0.809985 0.515015
6.61258 4.57379 0.809985 6.28319
6.62985 4.5781 0.809985 0.515015
6.63057 4.57379 0.809985 6.28319
6.64784 4.5781 0.809985 0.515015
6.64857 4.57379 0.809985 6.28319
6.66584 4.5781 0.809985 0.515015
6.66656 4.57379 0.809985 6.28319
6.68384 4.5781 0.809985 0.515015
6.68456 4.57379 0.809985 6.28319
6.70183 4.5781 0.809985 0.515015
6.70256 4.57379 0.809985 6.28319
6.71983 4.5781 0.809985 0.515015
6.72055 4.57379 0.809985 6.28319
6.73782 4.5781 0.809985 0.515015
6.73855 4.57379 0.809985 6.28319
6.75582 4.5781 0.809985 0.515015
6.75654 4.57379 0.809985 6.28319
6.77381 4.5781 0.809985 0.515015
6.77454 4.57379 0.809985 6.28319
6.79181 4.5781 0.809985 0.515015
6.79253 4.57379 0.809985 6.28319
6.80981 4.5781 0.809985 0.515015
6.81053 4.57379 0.809985 6.28319
6.8278 4.5781 0.809985 0.515015
6.82853 4.57379 0.809985 6.28319
6.8458 4.5781 0.809985 0.515015
6.84652 4.57379 0.809985 6.28319
6.86379 4.5781 0.809985 0.515015
6.86452 4.57379 0.809985 6.28319
6.88179 4.5781 0.809985 0.515015
6.88251 4.57379 0.809985 6.28319
6.89979 4.5781 0.809985 0.515015
6.90051 4.57379 0.809985 6.28319
6.91778 4.5781 0.809985 0.515015
6.91851 4.57379 0.809985 6.28319
6.93578 4.5781 0.809985 0.515015
6.9365 4.57379 0.809985 6.28319
6.95377 4.5781 0.809985 0.515015
6.9545 4.57379 0.809985 6.28319
6.97177 4.5781 0.809985 0.515015
6.97249 4.57379 0.809985 6.28319
6.98976 4.5781 0.809985 0.515015
6.99049 4.57379 0.809985 6.28319
7.00776 4.5781 0.809985 0.515015
7.00848 4.57379 0.809985 6.28319
7.02576 4.5781 0.809985 0.515015
7.02648 4.57379 0.809985 6.28319
7.04375 4.5781 0.809985 0.515015
7.04448 4.57379 0.809985 6.28319
7.06175 4.5781 0.809985 0.515015
7.06247 4.57379 0.809985 6.28319
7.07974 4.5781 0.809985 0.515015
7.08047 4.57379 0.809985 6.28319
7.09774 4.5781 0.809985 0.515015
7.09846 4.57379 0.809985 6.28319
7.11574 4.5781 0.809985 0.515015
7.11646 4.57379 0.809985 6.28319
7.13373 4.5781 0.809985 0.515015
7.13446 4.57379 0.809985 6.28319
7.15173 4.5781 0.809985 0.515015
7.15245 4.57379 0.809985 6.28319
7.16972 4.5781 0.809985 0.515015
7.17045 4.57379 0.809985 6.28319
7.18772 4.5781 0.809985 0.515015
7.18844 4.57379 0.809985 6.28319
7.20571 4.5781 0.809985 0.515015
7.20644 4.57379 0.809985 6.28319
7.22371 4.5781 0.809985 0.515015
7.22443 4.57379 0.809985 6.28319
7.24171 4.5781 0.809985 0.515015
7.24243 4.57379 0.809985 6.28319
7.2597 4.5781 0.809985 0.515015
7.26043 4.57379 0.809985 6.28319
7.2777 4.5781 0.809985 0.515015
7.27842 4.57379 0.809985 6.28319
7.29569 4.5781 0.809985 0.515015
7.29642 4.57379 0.809985 6.28319
7.31369 4.5781 0.809985 0.515015
7.31441 4.57379 0.809985 6.28319
7.33169 4.5781 0.809985 0.515015
7.33241 4.57379 0.809985 6.28319
7.32992 4.5775 0.804985 0.515015
7.32992 4.5775 0.814984 0.515015
7.33054 4.57379 0.804985 6.28319
7.33054 4.57379 0.814984 6.28319
7.31193 4.5775 0.804985 0.515015
7.31193 4.5775 0.814984 0.515015
7.33169 4.56948 0.809985 5.76817
7.31254 4.57379 0.814984 6.28319
7.32621 4.5772 0.809985 0.515015
7.32621 4.5772 0.819984 0.515015
7.32679 4.57379 0.809985 6.28319
7.32679 4.57379 0.819984 6.28319
7.34046 4.5772 0.824984 0.515015
7.34104 4.57379 0.824984 6.28319
7.35471 4.5772 0.824984 0.515015
7.35647 4.57781 0.829983 0.515015
7.35528 4.57379 0.824984 6.28319
7.36896 4.5772 0.824984 0.515015
7.37072 4.57781 0.829983 0.515015
7.36953 4.57379 0.824984 6.28319
7.38321 4.5772 0.824984 0.515015
7.38497 4.57781 0.829983 0.515015
7.38378 4.57379 0.824984 6.28319
7.39745 4.5772 0.824984 0.515015
7.39922 4.57781 0.829983 0.515015
7.39803 4.57379 0.824984 6.28319
7.4117 4.5772 0.824984 0.515015
7.41346 4.57781 0.829983 0.515015
7.41228 4.57379 0.824984 6.28319
7.42595 4.5772 0.824984 0.515015
7.42771 4.57781 0.829983 0.515015
7.42652 4.57379 0.824984 6.28319
7.44196 4.57781 0.824984 0.515015
7.4402 4.5772 0.819984 0.515015
7.4402 4.5772 0.829983 0.515015
7.44077 4.57379 0.819984 6.28319
7.45621 4.57781 0.819984 0.515015
7.45445 4.5772 0.814984 0.515015
7.45445 4.5772 0.824984 0.515015
7.4569 4.57379 0.819984 6.28319
7.47417 4.5781 0.819984 0.515015
7.47489 4.57379 0.819984 6.28319
7.49217 4.5781 0.819984 0.515015
7.49289 4.57379 0.819984 6.28319
7.51016 4.5781 0.819984 0.515015
7.51089 4.57379 0.819984 6.28319
7.52816 4.5781 0.819984 0.515015
7.52888 4.57379 0.819984 6.28319
7.54615 4.5781 0.819984 0.515015
7.54688 4.57379 0.819984 6.28319
7.56239 4.5775 0.824984 0.515015
7.563 4.57379 0.824984 6.28319
7.57667 4.5772 0.824984 0.515015
7.57844 4.57781 0.829983 0.515015
7.57725 4.57379 0.824984 6.28319
7.59092 4.5772 0.824984 0.515015
7.59268 4.57781 0.829983 0.515015
7.5915 4.57379 0.824984 6.28319
7.60517 4.5772 0.824984 0.515015
7.60693 4.57781 0.829983 0.515015
7.60574 4.57379 0.824984 6.28319
7.62118 4.57781 0.819984 0.515015
7.61942 4.5772 0.824984 0.515015
7.62118 4.57781 0.829983 0.515015
7.61999 4.57379 0.824984 6.28319
7.63367 4.5772 0.819984 0.515015
7.64725 4.58097 0.824984 6.28319
7.66268 4.58499 0.824984 0.515015
7.67559 4.59725 0.824984 1.03003
7.67835 4.59386 0.824984 0.515015
7.69126 4.60612 0.829983 1.03003
7.69956 4.61994 0.824984 1.03003
7.69956 4.61994 0.834983 1.03003
7.70385 4.6187 0.829983 0.515015
7.70242 4.61751 0.824984 0.515015
7.70242 4.61751 0.834983 0.515015
7.69402 4.60272 0.829983 0.515015
7.70693 4.61498 0.829983 1.03003
7.70969 4.61159 0.829983 0.515015
7.72383 4.62525 0.824984 1.03003
7.73762 4.63926 0.824984 0.515015
7.72383 4.62525 0.834983 1.03003
7.73762 4.63926 0.834983 0.515015
7.72536 4.62046 0.829983 0.515015
7.73827 4.63272 0.829983 1.03003
7.74103 4.62933 0.829983 0.515015
7.7567 4.6382 0.829983 0.515015
7.77236 4.64707 0.829983 0.515015
7.78527 4.65933 0.829983 1.03003
7.78803 4.65594 0.829983 0.515015
7.78404 4.65794 0.824984 1.03003
7.78404 4.65794 0.834983 1.03003
7.78639 4.65501 0.824984 0.515015
7.79997 4.65878 0.819984 6.28319
7.81365 4.66219 0.824984 0.515015
7.8251 4.67329 0.824984 1.03003
7.83437 4.68872 0.829983 1.03003
7.8303 4.69031 0.829983 1.54505
7.8334 4.68711 0.824984 1.03003
7.84074 4.69933 0.819984 1.03003
7.84074 4.69933 0.829983 1.03003
7.84479 4.69828 0.824984 0.515015
7.84337 4.69708 0.819984 0.515015
7.84337 4.69708 0.829983 0.515015
7.82991 4.68849 0.824984 1.54505
7.83769 4.68587 0.829983 0.515015
7.8506 4.69813 0.829983 1.03003
7.85336 4.69474 0.829983 0.515015
7.86627 4.707 0.829983 1.03003
7.87886 4.71959 0.829983 0.515015
7.87743 4.71839 0.824984 0.515015
7.88889 4.72949 0.829983 1.03003
7.88765 4.7281 0.824984 1.03003
7.89762 4.73806 0.824984 0.515015
7.90783 4.74777 0.824984 1.03003
7.91517 4.75999 0.824984 1.03003
7.9178 4.75774 0.824984 0.515015
7.92802 4.76744 0.824984 1.03003
7.93535 4.77966 0.824984 1.03003
7.93798 4.77741 0.824984 0.515015
7.9482 4.78711 0.824984 1.03003
7.95554 4.79933 0.824984 1.03003
7.95817 4.79708 0.824984 0.515015
7.96962 4.80818 0.829983 1.03003
7.98221 4.82076 0.829983 0.515015
7.99512 4.83302 0.829983 1.03003
8.00771 4.84561 0.829983 0.515015
8.02062 4.85787 0.829983 1.03003
8.02989 4.8733 0.829983 1.03003
8.02581 4.8749 0.829983 1.54505
8.02891 4.8717 0.824984 1.03003
8.02891 4.8717 0.834983 1.03003
8.03321 4.87046 0.829983 0.515015
8.04611 4.88272 0.829983 1.03003
8.05538 4.89815 0.829983 1.03003
8.06465 4.91358 0.829983 1.03003
8.07392 4.92901 0.829983 1.03003
8.08319 4.94444 0.829983 1.03003
8.09246 4.95987 0.829983 1.03003
8.10173 4.9753 0.829983 1.03003
8.111 4.99074 0.829983 1.03003
8.12027 5.00617 0.829983 1.03003
8.12954 5.0216 0.829983 1.03003
8.13881 5.03703 0.829983 1.03003
8.14808 5.05246 0.829983 1.03003
8.15735 5.06789 0.829983 1.03003
8.16662 5.08332 0.829983 1.03003
8.17589 5.09875 0.829983 1.03003
8.18516 5.11418 0.829983 1.03003
8.19443 5.12961 0.829983 1.03003
8.2037 5.14504 0.829983 1.03003
8.21297 5.16047 0.829983 1.03003
8.22224 5.1759 0.829983 1.03003
8.23151 5.19133 0.829983 1.03003
8.24078 5.20676 0.829983 1.03003
8.25005 5.22219 0.829983 1.03003
8.25932 5.23762 0.829983 1.03003
8.26859 5.25305 0.829983 1.03003
8.27786 5.26848 0.829983 1.03003
8.28713 5.28391 0.829983 1.03003
8.2964 5.29934 0.829983 1.03003
8.30567 5.31477 0.829983 1.03003
8.31494 5.3302 0.829983 1.03003
8.32421 5.34564 0.829983 1.03003
8.33348 5.36107 0.829983 1.03003
8.34275 5.3765 0.829983 1.03003
8.35202 5.39193 0.829983 1.03003
8.36129 5.40736 0.829983 1.03003
8.37055 5.42279 0.829983 1.03003
8.37982 5.43822 0.829983 1.03003
8.38909 5.45365 0.829983 1.03003
8.39836 5.46908 0.829983 1.03003
8.40763 5.48451 0.829983 1.03003
8.4169 5.49994 0.829983 1.03003
8.42617 5.51537 0.829983 1.03003
8.43544 5.5308 0.829983 1.03003
8.44471 5.54623 0.829983 1.03003
8.45398 5.56166 0.829983 1.03003
8.46325 5.57709 0.829983 1.03003
8.47252 5.59252 0.829983 1.03003
8.48179 5.60795 0.829983 1.03003
8.49106 5.62338 0.829983 1.03003
8.50033 5.63881 0.829983 1.03003
8.5096 5.65424 0.829983 1.03003
8.51887 5.66967 0.829983 1.03003
8.52814 5.68511 0.829983 1.03003
8.53741 5.70054 0.829983 1.03003
8.54668 5.71597 0.829983 1.03003
8.55595 5.7314 0.829983 1.03003
8.56522 5.74683 0.829983 1.03003
8.57449 5.76226 0.829983 1.03003
8.58376 5.77769 0.829983 1.03003
8.58895 5.79471 0.829983 1.54505
8.58941 5.81271 0.829983 1.54505
8.58987 5.83071 0.829983 1.54505
8.59033 5.8487 0.829983 1.54505
8.59079 5.8667 0.829983 1.54505
8.59124 5.88469 0.829983 1.54505
8.5917 5.90269 0.829983 1.54505
8.59216 5.92069 0.829983 1.54505
8.59262 5.93868 0.829983 1.54505
8.59307 5.95668 0.829983 1.54505
8.59353 5.97467 0.829983 1.54505
8.59399 5.99267 0.829983 1.54505
8.59445 6.01066 0.829983 1.54505
8.59491 6.02866 0.829983 1.54505
8.59536 6.04666 0.829983 1.54505
8.59582 6.06465 0.829983 1.54505
8.59628 6.08265 0.829983 1.54505
8.59674 6.10064 0.829983 1.54505
8.59719 6.11864 0.829983 1.54505
8.59765 6.13664 0.829983 1.54505
8.59811 6.15463 0.829983 1.54505
8.59857 6.17263 0.829983 1.54505
8.59903 6.19062 0.829983 1.54505
8.59948 6.20862 0.829983 1.54505
8.59994 6.22661 0.829983 1.54505
8.6004 6.24461 0.829983 1.54505
8.60086 6.26261 0.829983 1.54505
8.60131 6.2806 0.829983 1.54505
8.60177 6.2986 0.829983 1.54505
8.60223 6.31659 0.829983 1.54505
8.60269 6.33459 0.829983 1.54505
8.60315 6.35259 0.829983 1.54505
8.6036 6.37058 0.829983 1.54505
8.60406 6.38858 0.829983 1.54505
8.60452 6.40657 0.829983 1.54505
8.60498 6.42457 0.829983 1.54505
8.60543 6.44256 0.829983 1.54505
8.60589 6.46056 0.829983 1.54505
8.60635 6.47856 0.829983 1.54505
8.60681 6.49655 0.829983 1.54505
8.60727 6.51455 0.829983 1.54505
8.60772 6.53254 0.829983 1.54505
8.60818 6.55054 0.829983 1.54505
8.60864 6.56854 0.829983 1.54505
8.6091 6.58653 0.829983 1.54505
8.60955 6.60453 0.829983 1.54505
8.61001 6.62252 0.829983 1.54505
8.61047 6.64052 0.829983 1.54505
8.61093 6.65851 0.829983 1.54505
8.61139 6.67651 0.829983 1.54505
8.61184 6.69451 0.829983 1.54505
8.6123 6.7125 0.829983 1.54505
8.61276 6.7305 0.829983 1.54505
8.61322 6.74849 0.829983 1.54505
8.61367 6.76649 0.829983 1.54505
8.61413 6.78449 0.829983 1.54505
8.61459 6.80248 0.829983 1.54505
8.61505 6.82048 0.829983 1.54505
8.61551 6.83847 0.829983 1.54505
8.61596 6.85647 0.829983 1.54505
8.61642 6.87446 0.829983 1.54505
8.61688 6.89246 0.829983 1.54505
8.61734 6.91046 0.829983 1.54505
8.61779 6.92845 0.829983 1.54505
8.61825 6.94645 0.829983 1.54505
8.61871 6.96444 0.829983 1.54505
8.61917 6.98244 0.829983 1.54505
8.61963 7.00044 0.829983 1.54505
8.62008 7.01843 0.829983 1.54505
8.62054 7.03643 0.829983 1.54505
8.621 7.05442 0.829983 1.54505
8.62146 7.07242 0.829983 1.54505
8.62191 7.09042 0.829983 1.54505
8.62237 7.10841 0.829983 1.54505
8.62283 7.12641 0.829983 1.54505
8.62329 7.1444 0.829983 1.54505
8.62374 7.1624 0.829983 1.54505
8.6242 7.18039 0.829983 1.54505
8.62466 7.19839 0.829983 1.54505
8.62512 7.21639 0.829983 1.54505
8.62558 7.23438 0.829983 1.54505
8.62603 7.25238 0.829983 1.54505
8.62649 7.27037 0.829983 1.54505
8.62695 7.28837 0.829983 1.54505
8.62741 7.30637 0.829983 1.54505
8.62786 7.32436 0.829983 1.54505
8.62832 7.34236 0.829983 1.54505
8.62878 7.36035 0.829983 1.54505
8.62924 7.37835 0.829983 1.54505
8.6297 7.39634 0.829983 1.54505
8.63015 7.41434 0.829983 1.54505
8.63061 7.43234 0.829983 1.54505
8.63107 7.45033 0.829983 1.54505
8.63153 7.46833 0.829983 1.54505
8.63198 7.48632 0.829983 1.54505
8.63244 7.50432 0.829983 1.54505
8.6329 7.52232 0.829983 1.54505
8.63336 7.54031 0.829983 1.54505
8.63382 7.55831 0.829983 1.54505
8.63427 7.5763 0.829983 1.54505
8.63473 7.5943 0.829983 1.54505
8.63519 7.61229 0.829983 1.54505
8.63565 7.63029 0.829983 1.54505
8.6361 7.64829 0.829983 1.54505
8.63656 7.66628 0.829983 1.54505
8.63702 7.68428 0.829983 1.54505
8.63748 7.70227 0.829983 1.54505
8.63794 7.72027 0.829983 1.54505
8.63839 7.73827 0.829983 1.54505
8.63885 7.75626 0.829983 1.54505
8.63931 7.77426 0.829983 1.54505
8.63977 7.79225 0.829983 1.54505
8.64022 7.81025 0.829983 1.54505
8.64068 7.82824 0.829983 1.54505
8.64114 7.84624 0.829983 1.54505
8.6416 7.86424 0.829983 1.54505
8.64206 7.88223 0.829983 1.54505
8.64251 7.90023 0.829983 1.54505
8.64297 7.91822 0.829983 1.54505
8.64343 7.93622 0.829983 1.54505
8.64389 7.95422 0.829983 1.54505
8.64434 7.97221 0.829983 1.54505
8.6448 7.99021 0.829983 1.54505
8.64526 8.0082 0.829983 1.54505
8.64572 8.02618 0.829983 1.54505
8.64618 8.04417 0.829983 1.54505
8.64663 8.06216 0.829983 1.54505
8.64709 8.08014 0.829983 1.54505
8.64755 8.09813 0.829983 1.54505
8.64801 8.11612 0.829983 1.54505
8.64846 8.1341 0.829983 1.54505
8.64892 8.15209 0.829983 1.54505
8.64938 8.17007 0.829983 1.54505
8.64984 8.18806 0.829983 1.54505
8.6503 8.20605 0.829983 1.54505
8.65075 8.22403 0.829983 1.54505
8.65121 8.24202 0.829983 1.54505
8.65167 8.26001 0.829983 1.54505
8.65213 8.27799 0.829983 1.54505
8.65258 8.29598 0.829983 1.54505
8.65304 8.31396 0.829983 1.54505
8.6535 8.33195 0.829983 1.54505
8.65396 8.34994 0.829983 1.54505
8.65442 8.36792 0.829983 1.54505
8.65487 8.38591 0.829983 1.54505
8.65533 8.4039 0.829983 1.54505
8.65579 8.42188 0.829983 1.54505
8.65625 8.43987 0.829983 1.54505
8.6567 8.45786 0.829983 1.54505
8.65716 8.47584 0.829983 1.54505
8.65762 8.49383 0.829983 1.54505
8.65808 8.51181 0.829983 1.54505
8.65854 8.5298 0.829983 1.54505
8.65899 8.54779 0.829983 1.54505
8.65945 8.56577 0.829983 1.54505
8.65991 8.58376 0.829983 1.54505
8.66466 8.60091 0.829983 1.03003
8.67393 8.61634 0.829983 1.03003
8.6832 8.63177 0.829983 1.03003
8.69247 8.6472 0.829983 1.03003
8.70174 8.66263 0.829983 1.03003
8.71101 8.67807 0.829983 1.03003
8.72028 8.6935 0.829983 1.03003
8.72955 8.70893 0.829983 1.03003
8.73882 8.72436 0.829983 1.03003
8.74809 8.73979 0.829983 1.03003
8.75736 8.75522 0.829983 1.03003
8.76663 8.77065 0.829983 1.03003
8.7759 8.78608 0.829983 1.03003
8.78517 8.80151 0.829983 1.03003
8.79444 8.81694 0.829983 1.03003
8.80371 8.83237 0.829983 1.03003
8.81298 8.8478 0.829983 1.03003
8.82225 8.86323 0.829983 1.03003
8.83152 8.87866 0.829983 1.03003
8.84079 8.89409 0.829983 1.03003
8.84908 8.90792 0.824984 1.03003
8.85643 8.92015 0.819984 1.03003
8.86377 8.93237 0.814984 1.03003
8.87111 8.9446 0.809985 1.03003
8.87846 8.95682 0.804985 1.03003
8.8858 8.96905 0.799986 1.03003
8.89314 8.98128 0.794986 1.03003
8.90049 8.9935 0.789986 1.03003
8.90783 9.00573 0.784987 1.03003
8.91517 9.01795 0.779987 1.03003
8.92251 9.03018 0.774987 1.03003
8.92986 9.04241 0.769988 1.03003
8.9372 9.05463 0.764988 1.03003
8.94454 9.06686 0.759988 1.03003
8.95189 9.07909 0.754989 1.03003
8.95923 9.09131 0.749989 1.03003
8.96657 9.10354 0.74499 1.03003
8.97392 9.11576 0.73999 1.03003
8.98126 9.12799 0.73499 1.03003
8.9886 9.14022 0.729991 1.03003
8.99595 9.15244 0.724991 1.03003
9.00329 9.16467 0.719991 1.03003
9.01063 9.17689 0.714992 1.03003
9.01798 9.18912 0.709992 1.03003
9.02532 9.20135 0.704992 1.03003
9 9.2275 0.6 0
9 9.2275 0.6 0
9.02532 9.20135 0.704992 1.03003
9.01798 9.18912 0.709992 1.03003
9.01063 9.17689 0.714992 1.03003
9.00329 9.16467 0.719991 1.03003
8.99595 9.15244 0.724991 1.03003
8.9886 9.14022 0.729991 1.03003
8.98126 9.12799 0.73499 1.03003
8.97392 9.11576 0.73999 1.03003
8.96657 9.10354 0.74499 1.03003
8.95923 9.09131 0.749989 1.03003
8.95189 9.07909 0.754989 1.03003
8.94454 9.06686 0.759988 1.03003
8.9372 9.05463 0.764988 1.03003
8.92986 9.04241 0.769988 1.03003
8.92251 9.03018 0.774987 1.03003
8.91517 9.01795 0.779987 1.03003
8.90783 9.00573 0.784987 1.03003
8.90049 8.9935 0.789986 1.03003
8.89314 8.98128 0.794986 1.03003
8.8858 8.96905 0.799986 1.03003
8.87846 8.95682 0.804985 1.03003
8.87111 8.9446 0.809985 1.03003
8.86377 8.93237 0.814984 1.03003
8.85643 8.92015 0.819984 1.03003
8.84908 8.90792 0.824984 1.03003
8.84079 8.89409 0.829983 1.03003
8.83152 8.87866 0.829983 1.03003
8.82225 8.86323 0.829983 1.03003
8.81298 8.8478 0.829983 1.03003
8.80371 8.83237 0.829983 1.03003
8.79444 8.81694 0.829983 1.03003
8.78517 8.80151 0.829983 1.03003
8.7759 8.78608 0.829983 1.03003
8.76663 8.77065 0.829983 1.03003
8.75736 8.75522 0.829983 1.03003
8.74809 8.73979 0.829983 1.03003
8.73882 8.72436 0.829983 1.03003
8.72955 8.70893 0.829983 1.03003
8.72028 8.6935 0.829983 1.03003
8.71101 8.67807 0.829983 1.03003
8.70174 8.66263 0.829983 1.03003
8.69247 8.6472 0.829983 1.03003
8.6832 8.63177 0.829983 1.03003
8.67393 8.61634 0.829983 1.03003
8.66466 8.60091 0.829983 1.03003
8.65991 8.58376 0.829983 1.54505
8.65945 8.56577 0.829983 1.54505
8.65899 8.54779 0.829983 1.54505
8.65854 8.5298 0.829983 1.54505
8.65808 8.51181 0.829983 1.54505
8.65762 8.49383 0.829983 1.54505
8.65716 8.47584 0.829983 1.54505
8.6567 8.45786 0.829983 1.54505
8.65625 8.43987 0.829983 1.54505
8.65579 8.42188 0.829983 1.54505
8.65533 8.4039 0.829983 1.54505
8.65487 8.38591 0.829983 1.54505
8.65442 8.36792 0.829983 1.54505
8.65396 8.34994 0.829983 1.54505
8.6535 8.33195 0.829983 1.54505
8.65304 8.31396 0.829983 1.54505
8.65258 8.29598 0.829983 1.54505
8.65213 8.27799 0.829983 1.54505
8.65167 8.26001 0.829983 1.54505
8.65121 8.24202 0.829983 1.54505
8.65075 8.22403 0.829983 1.54505
8.6503 8.20605 0.829983 1.54505
8.64984 8.18806 0.829983 1.54505
8.64938 8.17007 0.829983 1.54505
8.64892 8.15209 0.829983 1.54505
8.64846 8.1341 0.829983 1.54505
8.64801 8.11612 0.829983 1.54505
8.64755 8.09813 0.829983 1.54505
8.64709 8.08014 0.829983 1.54505
8.64663 8.06216 0.829983 1.54505
8.64618 8.04417 0.829983 1.54505
8.64572 8.02618 0.829983 1.54505
8.64526 8.0082 0.829983 1.54505
8.6448 7.99021 0.829983 1.54505
8.64434 7.97221 0.829983 1.54505
8.64389 7.95422 0.829983 1.54505
8.64343 7.93622 0.829983 1.54505
8.64297 7.91822 0.829983 1.54505
8.64251 7.90023 0.829983 1.54505
8.64206 7.88223 0.829983 1.54505
8.6416 7.86424 0.829983 1.54505
8.64114 7.84624 0.829983 1.54505
8.64068 7.82824 0.829983 1.54505
8.64022 7.81025 0.829983 1.54505
8.63977 7.79225 0.829983 1.54505
8.63931 7.77426 0.829983 1.54505
8.63885 7.75626 0.829983 1.54505
8.63839 7.73827 0.829983 1.54505
8.63794 7.72027 0.829983 1.54505
8.63748 7.70227 0.829983 1.54505
8.63702 7.68428 0.829983 1.54505
8.63656 7.66628 0.829983 1.54505
8.6361 7.64829 0.829983 1.54505
8.63565 7.63029 0.829983 1.54505
8.63519 7.61229 0.829983 1.54505
8.63473 7.5943 0.829983 1.54505
8.63427 7.5763 0.829983 1.54505
8.63382 7.55831 0.829983 1.54505
8.63336 7.54031 0.829983 1.54505
8.6329 7.52232 0.829983 1.54505
8.63244 7.50432 0.829983 1.54505
8.63198 7.48632 0.829983 1.54505
8.63153 7.46833 0.829983 1.54505
8.63107 7.45033 0.829983 1.54505
8.63061 7.43234 0.829983 1.54505
8.63015 7.41434 0.829983 1.54505
8.6297 7.39634 0.829983 1.54505
8.62924 7.37835 0.829983 1.54505
8.62878 7.36035 0.829983 1.54505
8.62832 7.34236 0.829983 1.54505
8.62786 7.32436 0.829983 1.54505
8.62741 7.30637 0.829983 1.54505
8.62695 7.28837 0.829983 1.54505
8.62649 7.27037 0.829983 1.54505
8.62603 7.25238 0.829983 1.54505
8.62558 7.23438 0.829983 1.54505
8.62512 7.21639 0.829983 1.54505
8.62466 7.19839 0.829983 1.54505
8.6242 7.18039 0.829983 1.54505
8.62374 7.1624 0.829983 1.54505
8.62329 7.1444 0.829983 1.54505
8.62283 7.12641 0.829983 1.54505
8.62237 7.10841 0.829983 1.54505
8.62191 7.09042 0.829983 1.54505
8.62146 7.07242 0.829983 1.54505
8.621 7.05442 0.829983 1.54505
8.62054 7.03643 0.829983 1.54505
8.62008 7.01843 0.829983 1.54505
8.61963 7.00044 0.829983 1.54505
8.61917 6.98244 0.829983 1.54505
8.61871 6.96444 0.829983 1.54505
8.61825 6.94645 0.829983 1.54505
8.61779 6.92845 0.829983 1.54505
8.61734 6.91046 0.829983 1.54505
8.61688 6.89246 0.829983 1.54505
8.61642 6.87446 0.829983 1.54505
8.61596 6.85647 0.829983 1.54505
8.61551 6.83847 0.829983 1.54505
8.61505 6.82048 0.829983 1.54505
8.61459 6.80248 0.829983 1.54505
8.61413 6.78449 0.829983 1.54505
8.61367 6.76649 0.829983 1.54505
8.61322 6.74849 0.829983 1.54505
8.61276 6.7305 0.829983 1.54505
8.6123 6.7125 0.829983 1.54505
8.61184 6.69451 0.829983 1.54505
8.61139 6.67651 0.829983 1.54505
8.61093 6.65851 0.829983 1.54505
8.61047 6.64052 0.829983 1.54505
8.61001 6.62252 0.829983 1.54505
8.60955 6.60453 0.829983 1.54505
8.6091 6.58653 0.829983 1.54505
8.60864 6.56854 0.829983 1.54505
8.60818 6.55054 0.829983 1.54505
8.60772 6.53254 0.829983 1.54505
8.60727 6.51455 0.829983 1.54505
8.60681 6.49655 0.829983 1.54505
8.60635 6.47856 0.829983 1.54505
8.60589 6.46056 0.829983 1.54505
8.60543 6.44256 0.829983 1.54505
8.60498 6.42457 0.829983 1.54505
8.60452 6.40657 0.829983 1.54505
8.60406 6.38858 0.829983 1.54505
8.6036 6.37058 0.829983 1.54505
8.60315 6.35259 0.829983 1.54505
8.60269 6.33459 0.829983 1.54505
8.60223 6.31659 0.829983 1.54505
8.60177 6.2986 0.829983 1.54505
8.60131 6.2806 0.829983 1.54505
8.60086 6.26261 0.829983 1.54505
8.6004 6.24461 0.829983 1.54505
8.59994 6.22661 0.829983 1.54505
8.59948 6.20862 0.829983 1.54505
8.59903 6.19062 0.829983 1.54505
8.59857 6.17263 0.829983 1.54505
8.59811 6.15463 0.829983 1.54505
8.59765 6.13664 0.829983 1.54505
8.59719 6.11864 0.829983 1.54505
8.59674 6.10064 0.829983 1.54505
8.59628 6.08265 0.829983 1.54505
8.59582 6.06465 0.829983 1.54505
8.59536 6.04666 0.829983 1.54505
8.59491 6.02866 0.829983 1.54505
8.59445 6.01066 0.829983 1.54505
8.59399 5.99267 0.829983 1.54505
8.59353 5.97467 0.829983 1.54505
8.59307 5.95668 0.829983 1.54505
8.59262 5.93868 0.829983 1.54505
8.59216 5.92069 0.829983 1.54505
8.5917 5.90269 0.829983 1.54505
8.59124 5.88469 0.829983 1.54505
8.59079 5.8667 0.829983 1.54505
8.59033 5.8487 0.829983 1.54505
8.58987 5.83071 0.829983 1.54505
8.58941 5.81271 0.829983 1.54505
8.58895 5.79471 0.829983 1.54505
8.58376 5.77769 0.829983 1.03003
8.57449 5.76226 0.829983 1.03003
8.56522 5.74683 0.829983 1.03003
8.55595 5.7314 0.829983 1.03003
8.54668 5.71597 0.829983 1.03003
8.53741 5.70054 0.829983 1.03003
8.52814 5.68511 0.829983 1.03003
8.51887 5.66967 0.829983 1.03003
8.5096 5.65424 0.829983 1.03003
8.50033 5.63881 0.829983 1.03003
8.49106 5.62338 0.829983 1.03003
8.48179 5.60795 0.829983 1.03003
8.47252 5.59252 0.829983 1.03003
8.46325 5.57709 0.829983 1.03003
8.45398 5.56166 0.829983 1.03003
8.44471 5.54623 0.829983 1.03003
8.43544 5.5308 0.829983 1.03003
8.42617 5.51537 0.829983 1.03003
8.4169 5.49994 0.829983 1.03003
8.40763 5.48451 0.829983 1.03003
8.39836 5.46908 0.829983 1.03003
8.38909 5.45365 0.829983 1.03003
8.37982 5.43822 0.829983 1.03003
8.37055 5.42279 0.829983 1.03003
8.36129 5.40736 0.829983 1.03003
8.35202 5.39193 0.829983 1.03003
8.34275 5.3765 0.829983 1.03003
8.33348 5.36107 0.829983 1.03003
8.32421 5.34564 0.829983 1.03003
8.31494 5.3302 0.829983 1.03003
8.30567 5.31477 0.829983 1.03003
8.2964 5.29934 0.829983 1.03003
8.28713 5.28391 0.829983 1.03003
8.27786 5.26848 0.829983 1.03003
8.26859 5.25305 0.829983 1.03003
8.25932 5.23762 0.829983 1.03003
8.25005 5.22219 0.829983 1.03003
8.24078 5.20676 0.829983 1.03003
8.23151 5.19133 0.829983 1.03003
8.22224 5.1759 0.829983 1.03003
8.21297 5.16047 0.829983 1.03003
8.2037 5.14504 0.829983 1.03003
8.19443 5.12961 0.829983 1.03003
8.18516 5.11418 0.829983 1.03003
8.17589 5.09875 0.829983 1.03003
8.16662 5.08332 0.829983 1.03003
8.15735 5.06789 0.829983 1.03003
8.14808 5.05246 0.829983 1.03003
8.13881 5.03703 0.829983 1.03003
8.12954 5.0216 0.829983 1.03003
8.12027 5.00617 0.829983 1.03003
8.111 4.99074 0.829983 1.03003
8.10173 4.9753 0.829983 1.03003
8.09246 4.95987 0.829983 1.03003
8.08319 4.94444 0.829983 1.03003
8.07392 4.92901 0.829983 1.03003
8.06465 4.91358 0.829983 1.03003
8.05538 4.89815 0.829983 1.03003
8.04611 4.88272 0.829983 1.03003
8.03321 4.87046 0.829983 0.515015
8.02062 4.85787 0.829983 1.03003
8.00771 4.84561 0.829983 0.515015
7.99512 4.83302 0.829983 1.03003
7.98221 4.82076 0.829983 0.515015
7.96962 4.80818 0.829983 1.03003
7.95817 4.79708 0.824984 0.515015
7.9482 4.78711 0.824984 1.03003
7.93798 4.77741 0.824984 0.515015
7.92802 4.76744 0.824984 1.03003
7.9178 4.75774 0.824984 0.515015
7.90783 4.74777 0.824984 1.03003
7.89762 4.73806 0.824984 0.515015
7.88765 4.7281 0.824984 1.03003
7.87743 4.71839 0.824984 0.515015
7.86627 4.707 0.829983 1.03003
7.85336 4.69474 0.829983 0.515015
7.83769 4.68587 0.829983 0.515015
7.8251 4.67329 0.824984 1.03003
7.81365 4.66219 0.824984 0.515015
7.79997 4.65878 0.819984 6.28319
7.78639 4.65501 0.824984 0.515015
7.77236 4.64707 0.829983 0.515015
7.7567 4.6382 0.829983 0.515015
7.74103 4.62933 0.829983 0.515015
7.72536 4.62046 0.829983 0.515015
7.70969 4.61159 0.829983 0.515015
7.69402 4.60272 0.829983 0.515015
7.67835 4.59386 0.824984 0.515015
7.66268 4.58499 0.824984 0.515015
7.64725 4.58097 0.824984 6.28319
7.63367 4.5772 0.819984 0.515015
7.61999 4.57379 0.824984 6.28319
7.60574 4.57379 0.824984 6.28319
7.5915 4.57379 0.824984 6.28319
7.57725 4.57379 0.824984 6.28319
7.563 4.57379 0.824984 6.28319
7.54688 4.57379 0.819984 6.28319
7.52888 4.57379 0.819984 6.28319
7.51089 4.57379 0.819984 6.28319
7.49289 4.57379 0.819984 6.28319
7.47489 4.57379 0.819984 6.28319
7.4569 4.57379 0.819984 6.28319
7.44077 4.57379 0.819984 6.28319
7.42652 4.57379 0.824984 6.28319
7.41228 4.57379 0.824984 6.28319
7.39803 4.57379 0.824984 6.28319
7.38378 4.57379 0.824984 6.28319
7.36953 4.57379 0.824984 6.28319
7.35528 4.57379 0.824984 6.28319
7.34104 4.57379 0.824984 6.28319
7.32679 4.57379 0.819984 6.28319
7.31254 4.57379 0.814984 6.28319
7.29642 4.57379 0.809985 6.28319
7.27842 4.57379 0.809985 6.28319
7.26043 4.57379 0.809985 6.28319
7.24243 4.57379 0.809985 6.28319
7.22443 4.57379 0.809985 6.28319
7.20644 4.57379 0.809985 6.28319
7.18844 4.57379 0.809985 6.28319
7.17045 4.57379 0.809985 6.28319
7.15245 4.57379 0.809985 6.28319
7.13446 4.57379 0.809985 6.28319
7.11646 4.57379 0.809985 6.28319
7.09846 4.57379 0.809985 6.28319
7.08047 4.57379 0.809985 6.28319
7.06247 4.57379 0.809985 6.28319
7.04448 4.57379 0.809985 6.28319
7.02648 4.57379 0.809985 6.28319
7.00848 4.57379 0.809985 6.28319
6.99049 4.57379 0.809985 6.28319
6.97249 4.57379 0.809985 6.28319
6.9545 4.57379 0.809985 6.28319
6.9365 4.57379 0.809985 6.28319
6.91851 4.57379 0.809985 6.28319
6.90051 4.57379 0.809985 6.28319
6.88251 4.57379 0.809985 6.28319
6.86452 4.57379 0.809985 6.28319
6.84652 4.57379 0.809985 6.28319
6.82853 4.57379 0.809985 6.28319
6.81053 4.57379 0.809985 6.28319
6.79253 4.57379 0.809985 6.28319
6.77454 4.57379 0.809985 6.28319
6.75654 4.57379 0.809985 6.28319
6.73855 4.57379 0.809985 6.28319
6.72055 4.57379 0.809985 6.28319
6.70256 4.57379 0.809985 6.28319
6.68456 4.57379 0.809985 6.28319
6.66656 4.57379 0.809985 6.28319
6.64857 4.57379 0.809985 6.28319
6.63057 4.57379 0.809985 6.28319
6.61258 4.57379 0.809985 6.28319
6.59458 4.57379 0.809985 6.28319
6.57658 4.57379 0.809985 6.28319
6.55859 4.57379 0.809985 6.28319
6.54059 4.57379 0.809985 6.28319
6.5226 4.57379 0.809985 6.28319
6.5046 4.57379 0.809985 6.28319
6.48661 4.57379 0.809985 6.28319
6.46861 4.57379 0.809985 6.28319
6.45061 4.57379 0.809985 6.28319
6.43262 4.57379 0.809985 6.28319
6.41462 4.57379 0.809985 6.28319
6.39747 4.56904 0.809985 0.515015
6.3818 4.56017 0.809985 0.515015
6.36453 4.55585 0.809985 6.28319
6.34653 4.55585 0.809985 6.28319
6.32938 4.5511 0.809985 0.515015
6.31371 4.54223 0.809985 0.515015
6.29643 4.53792 0.809985 6.28319
6.27844 4.53792 0.809985 6.28319
6.26044 4.53792 0.809985 6.28319
6.24245 4.53792 0.809985 6.28319
6.22445 4.53792 0.809985 6.28319
6.20646 4.53792 0.809985 6.28319
6.18846 4.53792 0.809985 6.28319
6.17046 4.53792 0.809985 6.28319
6.15247 4.53792 0.809985 6.28319
6.13447 4.53792 0.809985 6.28319
6.11648 4.53792 0.809985 6.28319
6.09848 4.53792 0.809985 6.28319
6.08133 4.53316 0.809985 0.515015
6.06729 4.52522 0.804985 0.515015
6.05732 4.51525 0.804985 1.03003
6.05322 4.49984 0.799986 1.54505
6.05693 4.48433 0.794986 2.06006
6.06023 4.46873 0.789986 1.54505
6.05982 4.45261 0.784987 1.54505
6.05946 4.43836 0.784987 1.54505
6.05909 4.42411 0.784987 1.54505
6.05873 4.40986 0.779987 1.54505
6.05837 4.39561 0.774987 1.54505
6.05356 4.38041 0.769988 1.03003
6.04429 4.36498 0.769988 1.03003
6.03599 4.35116 0.764988 1.03003
6.02577 4.34145 0.764988 0.515015
6.01026 4.33775 0.759988 6.28319
5.99414 4.33775 0.754989 6.28319
5.97801 4.33775 0.749989 6.28319
5.96189 4.33775 0.74499 6.28319
5.94764 4.33775 0.74499 6.28319
5.93339 4.33775 0.74499 6.28319
5.91914 4.33775 0.74499 6.28319
5.90556 4.34151 0.74499 5.76817
5.89317 4.34853 0.74499 5.76817
5.88077 4.35555 0.74499 5.76817
5.86709 4.35896 0.73999 6.28319
5.85351 4.36273 0.73499 5.76817
5.838 4.36643 0.729991 6.28319
5.82259 4.36233 0.724991 0.515015
5.81019 4.35531 0.719991 0.515015
5.79652 4.35189 0.714992 6.28319
5.7812 4.35631 0.709992 5.76817
5.76716 4.36425 0.704992 5.76817
5.75476 4.37127 0.699993 5.76817
5.74073 4.37921 0.694993 5.76817
5.72669 4.38715 0.689994 5.76817
5.7143 4.39417 0.684994 5.76817
5.70062 4.39759 0.679994 6.28319
5.68704 4.40135 0.674995 5.76817
5.67464 4.40837 0.669995 5.76817
5.66225 4.41539 0.664995 5.76817
5.64857 4.4188 0.659996 6.28319
5.63245 4.4188 0.654996 6.28319
5.61632 4.4188 0.649996 6.28319
5.60274 4.42257 0.644997 5.76817
5.59034 4.42958 0.639997 5.76817
5.57667 4.433 0.634997 6.28319
5.56135 4.43741 0.629998 5.76817
5.54568 4.44628 0.624998 5.76817
5.53164 4.45422 0.624998 5.76817
5.51924 4.46124 0.619999 5.76817
5.50557 4.46466 0.614999 6.28319
5.49199 4.46089 0.609999 0.515015
5.47796 4.45295 0.605 0.515015
5.46537 4.44036 0.605 1.03003
5.4561 4.42493 0.605 1.03003
5.44683 4.4095 0.605 1.03003
5.43756 4.39407 0.605 1.03003
5.42829 4.37864 0.605 1.03003
5.41902 4.36321 0.605 1.03003
5.40975 4.34778 0.605 1.03003
5.40048 4.33235 0.605 1.03003
5.39121 4.31692 0.605 1.03003
5.38194 4.30149 0.605 1.03003
5.36903 4.28923 0.605 0.515015
5.35645 4.27664 0.605 1.03003
5.34718 4.26121 0.605 1.03003
5.33791 4.24578 0.605 1.03003
5.325 4.23352 0.605 0.515015
5.30933 4.22465 0.605 0.515015
5.29366 4.21578 0.605 0.515015
5.27799 4.20691 0.605 0.515015
5.26232 4.19804 0.605 0.515015
5.24665 4.18917 0.605 0.515015
5.23099 4.1803 0.605 0.515015
5.21532 4.17143 0.605 0.515015
5.19965 4.16257 0.605 0.515015
5.18398 4.1537 0.605 0.515015
5.16831 4.14483 0.605 0.515015
5.15264 4.13596 0.605 0.515015
5.13697 4.12709 0.605 0.515015
5.1213 4.11822 0.605 0.515015
5.10563 4.10935 0.605 0.515015
5.08997 4.10048 0.605 0.515015
5.0743 4.09161 0.605 0.515015
5.05863 4.08274 0.605 0.515015
5.04296 4.07387 0.605 0.515015
5.02729 4.065 0.605 0.515015
5.01162 4.05614 0.605 0.515015
4.99595 4.04727 0.605 0.515015
4.98028 4.0384 0.605 0.515015
4.96461 4.02953 0.605 0.515015
4.94895 4.02066 0.605 0.515015
4.93328 4.01179 0.605 0.515015
4.91761 4.00292 0.605 0.515015
4.90194 3.99405 0.605 0.515015
4.88627 3.98519 0.605 0.515015
4.8706 3.97633 0.605 0.515015
4.85493 3.96746 0.605 0.515015
4.83926 3.9586 0.605 0.515015
4.82359 3.94973 0.605 0.515015
4.80793 3.94087 0.605 0.515015
4.79226 3.932 0.605 0.515015
4.77659 3.92314 0.605 0.515015
4.76092 3.91427 0.605 0.515015
4.74525 3.90541 0.605 0.515015
4.72958 3.89655 0.605 0.515015
4.71391 3.88768 0.605 0.515015
4.69824 3.87882 0.605 0.515015
4.68257 3.86995 0.605 0.515015
4.66691 3.86109 0.605 0.515015
4.65124 3.85222 0.605 0.515015
4.63557 3.84336 0.605 0.515015
4.6199 3.83449 0.605 0.515015
4.60423 3.82563 0.605 0.515015
4.58856 3.81677 0.605 0.515015
4.57289 3.8079 0.605 0.515015
4.55722 3.79904 0.605 0.515015
4.54155 3.79017 0.605 0.515015
4.52589 3.78131 0.605 0.515015
4.51022 3.77244 0.605 0.515015
4.49455 3.76358 0.605 0.515015
4.47888 3.75472 0.605 0.515015
4.46321 3.74585 0.605 0.515015
4.44754 3.73699 0.605 0.515015
4.43187 3.72812 0.605 0.515015
4.4162 3.71926 0.605 0.515015
4.40054 3.71039 0.605 0.515015
4.38487 3.70153 0.605 0.515015
4.3692 3.69266 0.605 0.515015
4.35353 3.6838 0.605 0.515015
4.33786 3.67494 0.605 0.515015
4.32219 3.66607 0.605 0.515015
4.30652 3.65721 0.605 0.515015
4.29085 3.64834 0.605 0.515015
4.27518 3.63948 0.605 0.515015
4.25952 3.63061 0.605 0.515015
4.24385 3.62175 0.605 0.515015
4.22818 3.61288 0.605 0.515015
4.21251 3.60402 0.605 0.515015
4.19684 3.59516 0.605 0.515015
4.18117 3.58629 0.605 0.515015
4.1655 3.57743 0.605 0.515015
4.14983 3.56856 0.605 0.515015
4.13416 3.5597 0.605 0.515015
4.1185 3.55083 0.605 0.515015
4.10283 3.54197 0.605 0.515015
4.08716 3.53311 0.605 0.515015
4.07149 3.52424 0.605 0.515015
4.05582 3.51538 0.605 0.515015
4.04015 3.50651 0.605 0.515015
4.02448 3.49765 0.605 0.515015
4.00881 3.48878 0.605 0.515015
3.99315 3.47992 0.605 0.515015
3.97748 3.47105 0.605 0.515015
3.96182 3.46219 0.605 0.515015
3.94615 3.45333 0.605 0.515015
3.93049 3.44446 0.605 0.515015
3.91483 3.4356 0.605 0.515015
3.89916 3.42673 0.605 0.515015
3.8835 3.41787 0.605 0.515015
3.86783 3.409 0.605 0.515015
3.85217 3.40014 0.605 0.515015
3.83651 3.39127 0.605 0.515015
3.82084 3.38241 0.605 0.515015
3.80518 3.37355 0.605 0.515015
3.78951 3.36468 0.605 0.515015
3.77385 3.35582 0.605 0.515015
3.75819 3.34695 0.605 0.515015
3.74252 3.33809 0.605 0.515015
3.72686 3.32922 0.605 0.515015
3.71119 3.32036 0.605 0.515015
3.69553 3.3115 0.605 0.515015
3.67986 3.30263 0.605 0.515015
3.6642 3.29377 0.605 0.515015
3.64854 3.2849 0.605 0.515015
3.63287 3.27604 0.605 0.515015
3.61721 3.26717 0.605 0.515015
3.60154 3.25831 0.605 0.515015
3.58588 3.24944 0.605 0.515015
3.57022 3.24058 0.605 0.515015
3.55455 3.23172 0.605 0.515015
3.53889 3.22285 0.605 0.515015
3.52322 3.21399 0.605 0.515015
3.50756 3.20512 0.605 0.515015
3.4919 3.19626 0.605 0.515015
3.47623 3.18739 0.605 0.515015
3.46057 3.17853 0.605 0.515015
3.4449 3.16966 0.605 0.515015
3.42924 3.1608 0.605 0.515015
3.41357 3.15194 0.605 0.515015
3.39791 3.14307 0.605 0.515015
3.38225 3.13421 0.605 0.515015
3.36658 3.12534 0.605 0.515015
3.35092 3.11648 0.605 0.515015
3.33525 3.10761 0.605 0.515015
3.31959 3.09875 0.605 0.515015
3.30393 3.08988 0.605 0.515015
3.28826 3.08102 0.605 0.515015
3.2726 3.07216 0.605 0.515015
3.25693 3.06329 0.605 0.515015
3.24127 3.05443 0.605 0.515015
3.22561 3.04556 0.605 0.515015
3.20994 3.0367 0.605 0.515015
3.19428 3.02783 0.605 0.515015
3.17861 3.01897 0.605 0.515015
3.16295 3.01011 0.605 0.515015
3.14729 3.00124 0.605 0.515015
3.13162 2.99238 0.605 0.515015
3.11596 2.98351 0.605 0.515015
3.10029 2.97465 0.605 0.515015
3.08463 2.96578 0.605 0.515015
3.06896 2.95692 0.605 0.515015
3.0533 2.94805 0.605 0.515015
3.03764 2.93919 0.605 0.515015
3.02197 2.93033 0.605 0.515015
3.00631 2.92146 0.605 0.515015
2.99064 2.9126 0.605 0.515015
2.97498 2.90373 0.605 0.515015
2.95932 2.89487 0.605 0.515015
2.94365 2.886 0.605 0.515015
2.92799 2.87714 0.605 0.515015
2.91232 2.86827 0.605 0.515015
2.89666 2.85941 0.605 0.515015
2.881 2.85055 0.605 0.515015
2.86533 2.84168 0.605 0.515015
2.84967 2.83282 0.605 0.515015
2.834 2.82395 0.605 0.515015
2.81834 2.81509 0.605 0.515015
2.80268 2.80622 0.605 0.515015
2.78701 2.79736 0.605 0.515015
2.77135 2.7885 0.605 0.515015
2.75568 2.77963 0.605 0.515015
2.74002 2.77077 0.605 0.515015
2.72435 2.7619 0.605 0.515015
2.70869 2.75304 0.605 0.515015
2.69303 2.74417 0.605 0.515015
2.67736 2.73531 0.605 0.515015
2.6617 2.72644 0.605 0.515015
2.64603 2.71758 0.605 0.515015
2.63037 2.70872 0.605 0.515015
2.61471 2.69985 0.605 0.515015
2.59904 2.69099 0.605 0.515015
2.58338 2.68212 0.605 0.515015
2.56771 2.67326 0.605 0.515015
2.55205 2.66439 0.605 0.515015
2.53639 2.65553 0.605 0.515015
2.52072 2.64666 0.605 0.515015
2.50506 2.6378 0.605 0.515015
2.48939 2.62894 0.605 0.515015
2.47373 2.62007 0.605 0.515015
2.45806 2.61121 0.605 0.515015
2.4424 2.60234 0.605 0.515015
2.42674 2.59348 0.605 0.515015
2.41107 2.58461 0.605 0.515015
2.39541 2.57575 0.605 0.515015
2.37974 2.56689 0.605 0.515015
2.36408 2.55802 0.605 0.515015
2.34842 2.54916 0.605 0.515015
2.33275 2.54029 0.605 0.515015
2.31709 2.53143 0.605 0.515015
2.30142 2.52256 0.605 0.515015
2.28576 2.5137 0.605 0.515015
2.2701 2.50483 0.605 0.515015
2.25443 2.49597 0.605 0.515015
2.23877 2.48711 0.605 0.515015
2.2231 2.47824 0.605 0.515015
2.20744 2.46938 0.605 0.515015
2.19178 2.46051 0.605 0.515015
2.1745 2.4562 0.605 6.28319
2.15735 2.45145 0.605 0.515015
2.14191 2.44743 0.6 6.28319
2.12833 2.45119 0.6 5.76817
2.11837 2.46116 0.6 5.25316
2.10669 2.47203 0.6 5.76817
2.08939 2.48181 0.6 5.76817
2.06883 2.49345 0.605 5.76817
2.04436 2.49956 0.605 4.84288e-08
2.01886 2.49956 0.605 4.84288e-08
1.99456 2.49282 0.6 0.515015
1.97073 2.47934 0.605 0.515015
1.94267 2.47233 0.605 4.84288e-08
1.91479 2.46461 0.605 0.515015
1.88933 2.4502 0.6 0.515015
1.86388 2.43579 0.6 0.515015
1.83842 2.42139 0.6 0.515015
1.81297 2.40698 0.6 0.515015
1.78751 2.39258 0.6 0.515015
1.76205 2.37817 0.6 0.515015
1.7366 2.36377 0.6 0.515015
1.71114 2.34936 0.6 0.515015
1.68569 2.33496 0.6 0.515015
1.66023 2.32055 0.6 0.515015
1.63477 2.30615 0.6 0.515015
1.60932 2.29174 0.6 0.515015
1.58386 2.27734 0.6 0.515015
1.55841 2.26293 0.6 0.515015
1.53295 2.24853 0.6 0.515015
1.5075 2.23412 0.6 0.515015
1.48204 2.21972 0.6 0.515015
1.45658 2.20531 0.6 0.515015
1.43113 2.19091 0.6 0.515015
1.40567 2.1765 0.6 0.515015
1.38022 2.1621 0.6 0.515015
1.35476 2.14769 0.6 0.515015
1.3293 2.13328 0.6 0.515015
1.30385 2.11888 0.6 0.515015
1.27839 2.10447 0.6 0.515015
1.25294 2.09007 0.6 0.515015
1.22748 2.07566 0.6 0.515015
1.20202 2.06126 0.6 0.515015
1.17657 2.04685 0.6 0.515015
1.15111 2.03245 0.6 0.515015
1.12566 2.01804 0.6 0.515015
1.1002 2.00364 0.6 0.515015
1.07474 1.98923 0.6 0.515015
1.04929 1.97482 0.6 0.515015
1.02383 1.96042 0.6 0.515015
0.998376 1.94601 0.6 0.515015
0.97292 1.9316 0.6 0.515015
0.947464 1.91719 0.6 0.515015
0.922008 1.90278 0.6 0.515015
0.896552 1.88838 0.6 0.515015
0.871096 1.87397 0.6 0.515015
0.84564 1.85956 0.6 0.515015
0.820184 1.84515 0.6 0.515015
0.794729 1.83075 0.6 0.515015
0.769273 1.81634 0.6 0.515015
0.743817 1.80193 0.6 0.515015
0.718361 1.78752 0.6 0.515015
0.692905 1.77312 0.6 0.515015
0.667449 1.75871 0.6 0.515015
0.641993 1.7443 0.6 0.515015
0.616537 1.72989 0.6 0.515015
0.591081 1.71549 0.6 0.515015
0.565625 1.70108 0.6 0.515015
0.540169 1.68667 0.6 0.515015
0.514713 1.67226 0.6 0.515015
0.489257 1.65785 0.6 0.515015
0.463801 1.64345 0.6 0.515015
0.438345 1.62904 0.6 0.515015
0.412889 1.61463 0.6 0.515015
0.387433 1.60022 0.6 0.515015
0.361977 1.58582 0.6 0.515015
0.336521 1.57141 0.6 0.515015
0.311065 1.557 0.6 0.515015
0.285609 1.54259 0.6 0.515015
0.261785 1.52911 0.6 0.515015
0.239593 1.51655 0.6 0.515015
0.219033 1.50492 0.6 0.515015
