// pablo version
// small range(smaller than 1 step range)

@ MOUNT case2

eps: 3.0

expansion: 2908

time: 0.565 

cost: 1864

setEnvStartGoal(env,
    1.021, 9.323, 0.3, 0.0,
    0.036, 0.0, 0.0,
    7.662, 0.6866, 0.2, 0.0,
    0.036, 0.0, 0.0,
    start_id, goal_id);

solution found

