// RRT version

@ MOUNTBALL case3

numofsamples: 5912/ 6865/ 16743

time: 1.053/ 1.019/ 3.433

cost: 1443/ 1440/ 1638



setEnvStartGoal(env,
            9.279, 9.458, 0.200, 1.0,
            0.036,  0.0, 0.0,
            4.068, 2.686, 1.20, 0.0,
            0.036,  0.0, 0.0,
            start_id, goal_id);
 
solution not found
